feature_id,matthew
1,0.393
2,0.545
3,0.579
4,0.603
5,0.629
6,0.66
7,0.66
8,0.66
9,0.66
10,0.66
11,0.66
12,0.66
13,0.66
14,0.66
15,0.66
16,0.66
17,0.637
18,0.617
19,0.637
20,0.66
21,0.66
22,0.66
23,0.66
24,0.66
