pdb_lig_mut,actual,predicted
4xey_1N1_F317V,Resistant,Resistant
4xey_1N1_F317C,Resistant,Resistant
4wa9_AXI_F317R,Susceptible,Resistant
4xey_1N1_F317I,Resistant,Resistant
3ue4_DB8_F317V,Resistant,Resistant
4xey_1N1_F317L,Susceptible,Susceptible
Erlo_F317I,Resistant,Susceptible
3ue4_DB8_F317C,Susceptible,Susceptible
Erlo_F317L,Susceptible,Susceptible
3cs9_NIL_F317I,Susceptible,Susceptible
3cs9_NIL_F317L,Susceptible,Susceptible
3cs9_NIL_F317V,Susceptible,Susceptible
3cs9_NIL_F317C,Susceptible,Susceptible
1opj_STI_F317V,Susceptible,Susceptible
3oxz_0LI_F317C,Susceptible,Susceptible
Gef_F317L,Susceptible,Susceptible
4wa9_AXI_F317V,Susceptible,Susceptible
1opj_STI_F317I,Susceptible,Susceptible
Gef_F317I,Resistant,Susceptible
1opj_STI_F317L,Susceptible,Susceptible
4wa9_AXI_E292L,Susceptible,Susceptible
4wa9_AXI_D276G,Susceptible,Susceptible
3ue4_DB8_F317L,Susceptible,Susceptible
4wa9_AXI_Q252H,Susceptible,Susceptible
1opj_STI_F317C,Susceptible,Susceptible
1opj_STI_E355A,Susceptible,Susceptible
3ue4_DB8_F317I,Susceptible,Susceptible
3ue4_DB8_E355A,Susceptible,Susceptible
3oxz_0LI_F317V,Susceptible,Susceptible
1opj_STI_E459K,Susceptible,Susceptible
Gef_Q252H,Susceptible,Susceptible
3cs9_NIL_E459K,Susceptible,Susceptible
4xey_1N1_E459K,Susceptible,Susceptible
3oxz_0LI_E355A,Susceptible,Susceptible
3ue4_DB8_E459K,Susceptible,Susceptible
4wa9_AXI_F317L,Susceptible,Susceptible
Erlo_Q252H,Susceptible,Susceptible
3cs9_NIL_E355A,Susceptible,Susceptible
3oxz_0LI_E459K,Susceptible,Susceptible
4xey_1N1_E355A,Susceptible,Susceptible
3oxz_0LI_F317L,Susceptible,Susceptible
3oxz_0LI_F317I,Susceptible,Susceptible
