ID,old_ID,error,trans_predicted,dist.to_bestfit,outlier,actual,predicted
335,335,3.52,7.37,2.66,TRUE,0,1
333,333,2.17,9.36,1.58,TRUE,0,1
294,294,2.08,7.7,1.55,TRUE,0,1
32,32,0.77,7.82,1.29,TRUE,1,1
25,25,2.18,8.22,1.27,TRUE,1,0
35,35,1.88,9.06,1.1,TRUE,1,0
94,94,1.02,8.53,1.1,TRUE,1,1
16,16,0.27,7.33,1.07,TRUE,1,1
24,24,1.86,7.83,0.98,TRUE,1,0
13,13,0.12,6.53,0.98,TRUE,1,1
341,341,1.63,6.56,0.96,TRUE,0,1
6,6,0.08,6.96,0.89,TRUE,1,1
161,161,1.16,9.06,0.85,TRUE,0,1
329,329,1.31,8.08,0.84,TRUE,0,1
102,102,0.78,8.47,0.84,TRUE,1,1
88,88,0.68,9.14,0.84,TRUE,1,1
31,31,0.23,6.23,0.83,TRUE,1,1
110,110,0.79,6.05,0.8,TRUE,1,1
196,196,1.23,7.33,0.78,TRUE,0,1
163,163,0.6,6.21,0.77,TRUE,0,0
62,62,1.29,6.23,0.75,TRUE,1,0
49,49,1.38,7.33,0.74,TRUE,1,0
60,60,1.29,7.14,0.74,TRUE,1,0
268,268,1.15,5.17,0.72,TRUE,0,1
47,47,0.2,4.64,0.71,TRUE,1,1
2,2,0.69,8.19,0.71,TRUE,1,1
15,15,0.14,6.9,0.7,TRUE,1,1
117,117,0.77,7.48,0.7,TRUE,0,1
39,39,1.39,7.89,0.7,TRUE,1,0
52,52,1.33,6.24,0.69,TRUE,1,0
26,26,0,8.35,0.68,TRUE,1,1
59,59,0.24,9.14,0.68,TRUE,1,1
179,179,0.43,6.23,0.67,TRUE,0,0
68,68,1.13,7.54,0.64,TRUE,1,0
96,96,0.53,4.8,0.64,TRUE,1,1
76,76,1.07,6.46,0.64,FALSE,1,0
153,153,0.92,7.19,0.64,FALSE,0,1
156,156,0.91,6.29,0.63,FALSE,0,1
18,18,1.62,5.45,0.63,FALSE,1,0
97,97,0.51,6.48,0.62,FALSE,1,1
86,86,0.94,7.23,0.62,FALSE,1,0
82,82,0.38,7.79,0.61,FALSE,1,1
210,210,1.04,7.53,0.61,FALSE,0,1
180,180,1.04,6.25,0.61,FALSE,0,1
7,7,0.4,6.49,0.6,FALSE,1,1
112,112,0.58,6.98,0.59,FALSE,0,1
42,42,0.04,7.97,0.59,FALSE,1,1
184,184,1,6.49,0.58,FALSE,0,1
343,343,1.2,5.3,0.58,FALSE,0,0
100,100,0.78,6.03,0.57,FALSE,1,0
211,211,0.99,6.75,0.57,FALSE,0,1
126,126,0.57,5.39,0.56,FALSE,0,0
346,346,1.27,7.33,0.56,FALSE,0,0
106,106,0.72,6.3,0.56,FALSE,1,0
29,29,0.12,6.29,0.55,FALSE,1,1
143,143,0.76,6.3,0.54,FALSE,0,1
194,194,0.96,5.64,0.54,FALSE,0,1
79,79,0.96,5.88,0.54,FALSE,1,0
84,84,0.85,7.79,0.53,FALSE,1,0
17,17,1.51,5.16,0.53,FALSE,1,1
283,283,0.94,6.93,0.52,FALSE,0,1
141,141,0.73,5.12,0.52,FALSE,0,1
336,336,0,7.34,0.5,FALSE,0,0
339,339,0,6.65,0.5,FALSE,0,0
57,57,1.07,7.04,0.5,FALSE,1,0
337,337,0,5.88,0.5,FALSE,0,0
345,345,1.1,7.22,0.49,FALSE,0,0
125,125,0.48,5.23,0.48,FALSE,0,0
14,14,0.4,6.32,0.48,FALSE,1,1
145,145,0.37,5.68,0.47,FALSE,0,0
63,63,0.07,6.47,0.47,FALSE,1,1
340,340,0.04,6.44,0.47,FALSE,0,0
93,93,0.71,5.59,0.45,FALSE,1,0
67,67,0.1,5.88,0.45,FALSE,1,1
10,10,1.53,5.66,0.45,FALSE,1,1
20,20,1.32,5.15,0.45,FALSE,1,1
43,43,0.11,6.07,0.45,FALSE,1,1
284,284,0.85,5.74,0.44,FALSE,0,0
11,11,1.51,5.34,0.44,FALSE,1,1
344,344,1.05,5.6,0.43,FALSE,0,0
1,1,2.01,6.49,0.43,FALSE,1,1
258,258,0.84,7.35,0.43,FALSE,0,0
152,152,0.27,6.72,0.43,FALSE,0,0
111,111,0.38,5.19,0.42,FALSE,0,1
21,21,1.25,6.46,0.42,FALSE,1,1
121,121,0.44,5.04,0.41,FALSE,0,0
34,34,0.21,6.14,0.41,FALSE,1,1
73,73,0.82,7.68,0.41,FALSE,1,0
139,139,0.3,6.73,0.41,FALSE,0,0
140,140,0.3,6.52,0.41,FALSE,0,0
113,113,0.51,5.62,0.4,FALSE,0,0
149,149,0.6,6.47,0.4,FALSE,0,1
167,167,0.7,5.25,0.4,FALSE,0,1
70,70,0.85,8.07,0.4,FALSE,1,0
148,148,0.28,5.84,0.39,FALSE,0,0
80,80,0.78,7.23,0.39,FALSE,1,0
330,330,0.84,7.17,0.39,FALSE,0,0
53,53,0.12,6.09,0.39,FALSE,1,1
347,347,1.14,6.38,0.38,FALSE,0,0
128,128,0.37,4.97,0.38,FALSE,0,0
58,58,0.92,6.02,0.37,FALSE,1,0
332,332,0,7.52,0.37,FALSE,0,0
331,331,0,5.61,0.37,FALSE,0,0
171,171,0.71,5.27,0.37,FALSE,0,0
134,134,0.3,6.09,0.36,FALSE,0,0
107,107,0.5,4.91,0.36,FALSE,1,0
75,75,0.76,5.26,0.36,FALSE,1,0
318,318,0.75,5.54,0.36,FALSE,0,0
104,104,0.5,5.96,0.35,FALSE,1,0
154,154,0.6,7.38,0.35,FALSE,0,1
30,30,1.11,6.68,0.35,FALSE,1,1
155,155,0.18,6.96,0.34,FALSE,0,0
65,65,0.04,5.12,0.34,FALSE,1,1
168,168,0.63,5.72,0.34,FALSE,0,0
269,269,0.74,5.32,0.34,FALSE,0,0
50,50,0.93,5.81,0.33,FALSE,1,0
89,89,0.11,7.05,0.32,FALSE,1,1
28,28,0.37,5.96,0.32,FALSE,1,1
192,192,0,5.99,0.32,FALSE,0,0
289,289,0,6.15,0.32,FALSE,0,0
256,256,0,4.97,0.32,FALSE,0,0
287,287,0,5.2,0.32,FALSE,0,0
295,295,0,6.1,0.32,FALSE,0,0
321,321,0,5.33,0.32,FALSE,0,0
183,183,0,4.81,0.32,FALSE,0,0
226,226,0,4.66,0.32,FALSE,0,0
233,233,0,5.19,0.32,FALSE,0,0
319,319,0,4.99,0.32,FALSE,0,0
205,205,0,5.82,0.32,FALSE,0,0
245,245,0,5.42,0.32,FALSE,0,0
248,248,0,5.12,0.32,FALSE,0,0
220,220,0,5.6,0.32,FALSE,0,0
297,297,0,5.48,0.32,FALSE,0,0
78,78,0.71,4.94,0.32,FALSE,1,0
328,328,0.01,6.11,0.32,FALSE,0,0
285,285,0.01,5.01,0.32,FALSE,0,0
222,222,0.01,5.61,0.31,FALSE,0,0
274,274,0.01,4.96,0.31,FALSE,0,0
221,221,0.01,4.78,0.31,FALSE,0,0
33,33,1.01,4.78,0.31,FALSE,1,1
299,299,0.01,6.46,0.31,FALSE,0,0
235,235,0.01,5.29,0.31,FALSE,0,0
290,290,0.02,6.5,0.31,FALSE,0,0
216,216,0.02,5.98,0.31,FALSE,0,0
138,138,0.19,4.66,0.31,FALSE,0,0
227,227,0.02,5.77,0.3,FALSE,0,0
228,228,0.02,5.17,0.3,FALSE,0,0
272,272,0.02,4.81,0.3,FALSE,0,0
209,209,0.02,6.25,0.3,FALSE,0,0
199,199,0.02,5.27,0.3,FALSE,0,0
316,316,0.03,5.22,0.3,FALSE,0,0
305,305,0.03,4.66,0.3,FALSE,0,0
224,224,0.69,6.6,0.3,FALSE,0,0
225,225,0.03,6.08,0.3,FALSE,0,0
215,215,0.03,4.81,0.3,FALSE,0,0
306,306,0.03,6.59,0.3,FALSE,0,0
263,263,0.03,5.32,0.3,FALSE,0,0
314,314,0.03,5.19,0.29,FALSE,0,0
270,270,0.04,5.21,0.28,FALSE,0,0
115,115,0.37,5.33,0.28,FALSE,0,0
66,66,0.72,6.98,0.28,FALSE,1,0
135,135,0.42,4.91,0.28,FALSE,0,1
122,122,0.28,3.96,0.28,FALSE,0,0
41,41,0.3,5.45,0.28,FALSE,1,1
83,83,0.02,5.45,0.28,FALSE,1,1
136,136,0.16,5.44,0.28,FALSE,0,0
131,131,0.21,6.09,0.27,FALSE,0,0
241,241,0.66,5.98,0.27,FALSE,0,0
127,127,0.25,5.2,0.27,FALSE,0,0
162,162,0.07,5.28,0.27,FALSE,0,0
273,273,0.07,5.95,0.26,FALSE,0,0
37,37,0.32,5.14,0.26,FALSE,1,1
275,275,0.07,5.6,0.26,FALSE,0,0
203,203,0.07,5.53,0.26,FALSE,0,0
44,44,0.9,5.03,0.26,FALSE,1,1
5,5,0.99,5.63,0.25,FALSE,1,1
91,91,0.49,5.72,0.25,FALSE,1,0
144,144,0.43,5.48,0.25,FALSE,0,0
334,334,0.74,4.06,0.25,FALSE,0,0
252,252,0.63,6.31,0.25,FALSE,0,0
197,197,0.09,5.12,0.24,FALSE,0,0
189,189,0.09,5.38,0.24,FALSE,0,0
302,302,0.09,4.61,0.24,FALSE,0,0
190,190,0.09,6.25,0.24,FALSE,0,0
200,200,0.09,4.76,0.24,FALSE,0,0
74,74,0.63,5.34,0.24,FALSE,1,0
177,177,0.58,5.34,0.24,FALSE,0,0
185,185,0.09,5.04,0.24,FALSE,0,0
61,61,0.2,4.75,0.24,FALSE,1,1
281,281,0.62,4.76,0.23,FALSE,0,0
201,201,0.1,5.34,0.23,FALSE,0,0
90,90,0.04,4.61,0.23,FALSE,1,1
38,38,0.87,4.86,0.23,FALSE,1,1
123,123,0.31,6.18,0.23,FALSE,0,1
120,120,0.26,5.06,0.22,FALSE,0,1
12,12,1.26,6.62,0.21,FALSE,1,1
9,9,0.83,4.75,0.21,FALSE,1,1
202,202,0.12,5.4,0.21,FALSE,0,0
92,92,0.03,4.65,0.21,FALSE,1,1
261,261,0.6,4.76,0.21,FALSE,0,0
206,206,0.12,4.77,0.21,FALSE,0,0
108,108,0.34,4.81,0.21,FALSE,1,0
99,99,0.08,4.73,0.21,FALSE,1,1
246,246,0.13,5.01,0.21,FALSE,0,0
22,22,0.54,4.62,0.2,FALSE,1,1
257,257,0.58,4.81,0.2,FALSE,0,0
176,176,0.52,5.11,0.19,FALSE,0,0
147,147,0.06,4.87,0.19,FALSE,0,0
103,103,0.34,4.65,0.19,FALSE,1,0
124,124,0.16,6.31,0.19,FALSE,0,0
327,327,0.57,6.23,0.19,FALSE,0,0
193,193,0.15,5.13,0.19,FALSE,0,0
322,322,0.56,5.11,0.18,FALSE,0,0
217,217,0.56,5.15,0.18,FALSE,0,0
310,310,0.15,4.66,0.18,FALSE,0,0
208,208,0.16,4.64,0.18,FALSE,0,0
247,247,0.56,5.53,0.18,FALSE,0,0
173,173,0.5,5.2,0.18,FALSE,0,0
85,85,0.07,5.24,0.17,FALSE,1,1
46,46,0.41,4.62,0.16,FALSE,1,1
293,293,0.18,4.63,0.16,FALSE,0,0
36,36,0.81,4.63,0.16,FALSE,1,1
230,230,0.18,5.47,0.16,FALSE,0,0
342,342,0.73,5.74,0.15,FALSE,0,0
54,54,0.69,4.66,0.15,FALSE,1,1
55,55,0.68,4.61,0.15,FALSE,1,1
223,223,0.52,4.65,0.15,FALSE,0,0
238,238,0.51,4.65,0.14,FALSE,0,0
239,239,0.51,5.21,0.14,FALSE,0,0
56,56,0.67,4.91,0.14,FALSE,1,1
130,130,0.1,5.44,0.14,FALSE,0,0
175,175,0.15,5.01,0.14,FALSE,0,0
77,77,0.51,4.61,0.14,FALSE,1,0
158,158,0.05,5,0.14,FALSE,0,0
174,174,0.46,4.64,0.14,FALSE,0,0
146,146,0.3,5.2,0.14,FALSE,0,0
323,323,0.51,5.15,0.13,FALSE,0,0
324,324,0.51,5.46,0.13,FALSE,0,0
150,150,0,5.46,0.13,FALSE,0,0
95,95,0.35,5.07,0.13,FALSE,1,0
312,312,0.21,5.69,0.13,FALSE,0,0
298,298,0.21,5.18,0.13,FALSE,0,0
231,231,0.5,5.14,0.13,FALSE,0,0
40,40,0.76,5.23,0.13,FALSE,1,1
151,151,0.05,4.62,0.13,FALSE,0,0
142,142,0.01,4.82,0.13,FALSE,0,0
159,159,0.07,5.52,0.13,FALSE,0,0
119,119,0.14,4.62,0.12,FALSE,0,0
45,45,0.75,5.04,0.12,FALSE,1,1
81,81,0.19,5.39,0.12,FALSE,1,1
309,309,0.49,5.03,0.12,FALSE,0,0
288,288,0.22,5.64,0.12,FALSE,0,0
300,300,0.23,5.04,0.12,FALSE,0,0
315,315,0.23,5.22,0.12,FALSE,0,0
304,304,0.49,5.16,0.12,FALSE,0,0
267,267,0.23,4.61,0.11,FALSE,0,0
178,178,0.43,5.56,0.11,FALSE,0,0
234,234,0.23,5.98,0.11,FALSE,0,0
198,198,0.48,5.2,0.11,FALSE,0,0
118,118,0.12,5.24,0.11,FALSE,0,0
19,19,0.76,5.59,0.11,FALSE,1,1
64,64,0.33,5.14,0.11,FALSE,1,1
296,296,0.47,4.66,0.1,FALSE,0,0
204,204,0.24,5.26,0.1,FALSE,0,0
250,250,0.47,5.28,0.1,FALSE,0,0
182,182,0.47,5.02,0.1,FALSE,0,0
308,308,0.24,4.99,0.1,FALSE,0,0
23,23,0.65,6.5,0.1,FALSE,1,1
232,232,0.24,5.82,0.1,FALSE,0,0
286,286,0.47,4.68,0.1,FALSE,0,0
266,266,0.25,5.24,0.1,FALSE,0,0
278,278,0.25,4.65,0.1,FALSE,0,0
292,292,0.25,4.72,0.1,FALSE,0,0
105,105,0.01,4.63,0.1,FALSE,1,1
279,279,0.25,4.73,0.09,FALSE,0,0
251,251,0.26,5.08,0.09,FALSE,0,0
249,249,0.26,5.1,0.09,FALSE,0,0
253,253,0.26,5.02,0.09,FALSE,0,0
280,280,0.26,5.03,0.09,FALSE,0,0
169,169,0.16,5.04,0.09,FALSE,0,0
188,188,0.26,5.63,0.09,FALSE,0,0
48,48,0.65,5.27,0.08,FALSE,1,1
291,291,0.27,6.15,0.08,FALSE,0,0
187,187,0.45,6.01,0.08,FALSE,0,0
186,186,0.44,4.63,0.08,FALSE,0,0
195,195,0.27,5.38,0.08,FALSE,0,0
129,129,0.14,4.61,0.08,FALSE,0,0
172,172,0.22,4.98,0.08,FALSE,0,0
191,191,0.44,4.61,0.07,FALSE,0,0
3,3,1.41,4.64,0.07,FALSE,1,1
240,240,0.28,5.05,0.07,FALSE,0,0
276,276,0.28,5.02,0.07,FALSE,0,0
325,325,0.28,4.9,0.07,FALSE,0,0
133,133,0.03,8.01,0.07,FALSE,0,0
114,114,0.12,4.61,0.06,FALSE,0,0
157,157,0.13,5.39,0.06,FALSE,0,0
51,51,0.49,4.62,0.06,FALSE,1,1
326,326,0.42,4.96,0.06,FALSE,0,0
160,160,0.14,4.64,0.06,FALSE,0,0
8,8,1.13,4.99,0.06,FALSE,1,1
72,72,0.31,5.16,0.06,FALSE,1,1
338,338,0.62,4.75,0.05,FALSE,0,0
277,277,0.3,5.12,0.05,FALSE,0,0
137,137,0.21,5.41,0.05,FALSE,0,0
71,71,0.33,4.66,0.05,FALSE,1,1
98,98,0.1,4.66,0.05,FALSE,1,1
207,207,0.3,5.15,0.05,FALSE,0,0
213,213,0.3,5.01,0.05,FALSE,0,0
164,164,0.31,5.42,0.05,FALSE,0,0
165,165,0.31,4.87,0.05,FALSE,0,0
265,265,0.41,5.2,0.05,FALSE,0,0
69,69,0.46,4.96,0.04,FALSE,1,1
166,166,0.3,5.25,0.04,FALSE,0,0
303,303,0.31,4.67,0.04,FALSE,0,0
181,181,0.31,4.99,0.04,FALSE,0,0
212,212,0.31,4.66,0.04,FALSE,0,0
282,282,0.4,5.22,0.04,FALSE,0,0
170,170,0.22,5.84,0.04,FALSE,0,0
264,264,0.4,4.62,0.04,FALSE,0,0
262,262,0.32,5.15,0.03,FALSE,0,0
243,243,0.32,4.61,0.03,FALSE,0,0
307,307,0.33,5.53,0.03,FALSE,0,0
237,237,0.33,5.44,0.03,FALSE,0,0
214,214,0.33,5.44,0.03,FALSE,0,0
313,313,0.39,5.08,0.03,FALSE,0,0
320,320,0.33,5.31,0.03,FALSE,0,0
271,271,0.39,5.53,0.02,FALSE,0,0
109,109,0.07,4.61,0.02,FALSE,1,0
219,219,0.38,6.7,0.02,FALSE,0,0
255,255,0.33,5.82,0.02,FALSE,0,0
260,260,0.38,4.45,0.02,FALSE,0,0
301,301,0.34,4.45,0.02,FALSE,0,0
244,244,0.38,7.99,0.02,FALSE,0,0
116,116,0.01,5.5,0.02,FALSE,0,0
317,317,0.37,9.72,0.01,FALSE,0,0
242,242,0.34,3.96,0.01,FALSE,0,0
101,101,0.14,3.97,0.01,FALSE,1,0
4,4,1.34,4.98,0.01,FALSE,1,1
254,254,0.37,3.96,0.01,FALSE,0,0
87,87,0.26,4.03,0.01,FALSE,1,1
27,27,0.74,6.62,0.01,FALSE,1,1
229,229,0.36,5.16,0,FALSE,0,0
132,132,0.1,5.93,0,FALSE,0,0
236,236,0.36,5.67,0,FALSE,0,0
259,259,0.36,5.76,0,FALSE,0,0
218,218,0.36,5.75,0,FALSE,0,0
311,311,0.36,5.34,0,FALSE,0,0
