ID,actual,predicted,old_ID,error,trans_predicted,dist.to_bestfit,outlier
109,0.5,0.95,109,0.45,0.36,0.5,True
133,0.04,0.65,133,0.61,0.15,0.41,True
110,0.71,0.94,110,0.23,0.47,0.41,True
129,0.72,0.05,129,0.67,0.42,0.41,True
117,0.96,0.21,117,0.75,0.26,0.36,False
128,0.17,0.59,128,0.42,0.25,0.31,False
122,1.58,0.56,122,1.02,2.1,0.3,False
135,0.2,-0.06,135,0.26,2.1,0.3,False
127,0.28,0.61,127,0.33,0.5,0.28,False
134,0.3,0.62,134,0.32,2.1,0.28,False
142,0.72,0.2,142,0.52,0.6,0.27,False
143,0.51,0.13,143,0.38,1.21,0.25,False
136,0.33,0.58,136,0.25,2.63,0.23,False
141,0.17,0.01,141,0.16,2.65,0.22,False
104,0.18,0.02,104,0.16,0.54,0.21,False
108,0.28,0.07,108,0.21,2.73,0.21,False
116,1.79,1.21,116,0.58,0.46,0.21,False
107,0.27,0.08,107,0.19,1.08,0.2,False
125,1.35,0.98,125,0.37,0.26,0.18,False
114,0.35,0.52,114,0.17,1.28,0.18,False
115,1.86,1.2,115,0.66,0.66,0.17,False
140,0.51,0.24,140,0.27,0.21,0.15,False
103,0.2,0.12,103,0.08,2.16,0.13,False
106,0.23,0.15,106,0.08,0.56,0.11,False
119,0.24,0.17,119,0.07,1.38,0.1,False
120,0.41,0.46,120,0.05,1.35,0.1,False
131,0.47,0.28,131,0.19,0.2,0.1,False
138,0.55,0.52,138,0.03,1.35,0.09,False
139,0.0,0.26,139,0.26,0.69,0.08,False
123,0.4,0.27,123,0.13,1.2,0.08,False
126,0.29,0.22,126,0.07,1.46,0.08,False
124,-0.44,0.06,124,0.5,1.4,0.07,False
137,0.11,0.15,137,0.04,-0.03,0.07,False
113,0.02,0.24,113,0.22,1.31,0.05,False
132,0.66,0.52,132,0.14,0.41,0.05,False
121,-0.13,0.08,121,0.21,1.19,0.04,False
111,0.09,0.19,111,0.1,0.65,0.02,False
130,0.97,0.59,130,0.38,0.6,0.02,False
144,0.3,0.32,144,0.02,0.12,0.01,False
105,0.03,0.17,105,0.14,0.53,0.01,False
118,2.36,1.24,118,1.12,0.37,0.01,False
112,1.72,0.95,112,0.77,0.78,0.0,False
