filename,Blindtest(Pearson),Blindtest(Spearman),Blindtest(Kendall),Blindtest(MSE),Blindtest(RMSE),Blindtest(Pearson_90%),Blindtest(Spearman_90%),Blindtest(Kendall_90%),Blindtest(MSE_90%),Blindtest(RMSE_90%)
1,0.305,0.25,0.174,0.37,0.61,0.565,0.45,0.319,0.23,0.48
2,0.197,0.182,0.134,0.4,0.63,0.415,0.338,0.248,0.28,0.53
3,0.435,0.314,0.22,0.33,0.58,0.606,0.448,0.32,0.26,0.51
4,0.294,0.228,0.167,0.38,0.62,0.513,0.379,0.27,0.25,0.5
5,0.344,0.228,0.157,0.34,0.58,0.574,0.388,0.279,0.23,0.48
6,0.17,0.134,0.106,0.41,0.64,0.335,0.233,0.187,0.33,0.58
7,0.299,0.229,0.164,0.37,0.61,0.536,0.41,0.299,0.24,0.49
8,0.363,0.214,0.157,0.32,0.57,0.577,0.323,0.236,0.22,0.47
9,0.257,0.198,0.141,0.38,0.62,0.499,0.381,0.276,0.25,0.5
10,0.26,0.211,0.162,0.38,0.61,0.496,0.378,0.29,0.25,0.5
11,0.266,0.209,0.16,0.36,0.6,0.526,0.405,0.304,0.24,0.49
12,0.316,0.226,0.162,0.35,0.59,0.563,0.41,0.299,0.23,0.48
13,0.299,0.209,0.15,0.36,0.6,0.54,0.384,0.281,0.24,0.49
14,0.315,0.234,0.174,0.35,0.59,0.574,0.424,0.316,0.22,0.47
