4wa9,M244V,10.0156961316
4wa9,L248R,2.7531926921
4wa9,L248V,2.7531926921
4wa9,G250E,5.8165953959
4wa9,Q252H,4.2245308615
4wa9,Y253F,1.4356566442
4wa9,Y253H,1.4356566442
4wa9,E255K,3.3906537718
4wa9,E255V,3.3906537718
4wa9,D276G,14.0452891035
4wa9,E279K,8.2886010882
4wa9,E292L,14.126647373
4wa9,V299L,2.7785753544
4wa9,T315A,1.8948081697
4wa9,T315I,1.8948081697
4wa9,T315V,1.8948081697
4wa9,F317L,1.9719865618
4wa9,F317R,1.9719865618
4wa9,F317V,1.9719865618
4wa9,M343T,13.2724784046
4wa9,M351T,12.5765016201
4wa9,F359I,13.4732461196
4wa9,F359V,13.4732461196
4wa9,L384M,8.2840010261
4wa9,H396R,12.108753115
4wa9,F486S,15.9418408285
3ue4,M244V,7.3772862897
3ue4,L248R,2.5025858627
3ue4,L248V,2.5025858627
3ue4,G250E,5.3695820135
3ue4,Y253F,5.6515637659
3ue4,E255K,6.7991736998
3ue4,E255V,6.7991736998
3ue4,V299L,2.3765813683
3ue4,T315A,1.7974092467
3ue4,T315I,1.7974092467
3ue4,F317C,2.189253069
3ue4,F317I,2.189253069
3ue4,F317L,2.189253069
3ue4,F317V,2.189253069
3ue4,M351T,14.1885168006
3ue4,E355A,18.4021672908
3ue4,F359C,12.9609407838
3ue4,F359I,12.9609407838
3ue4,F359V,12.9609407838
3ue4,H396R,16.3052430218
3ue4,E459K,27.1019834883
4xey,M244V,8.3730979333
4xey,L248R,1.9796734579
4xey,L248V,1.9796734579
4xey,G250E,5.2349326643
4xey,Y253F,12.2014724111
4xey,E255K,6.804140945
4xey,E255V,6.804140945
4xey,V299L,1.9682423631
4xey,T315A,1.3848353693
4xey,T315I,1.3848353693
4xey,F317C,2.9704119243
4xey,F317I,2.9704119243
4xey,F317L,2.9704119243
4xey,F317V,2.9704119243
4xey,M351T,11.5726120647
4xey,E355A,15.6251331514
4xey,F359C,11.5794147521
4xey,F359I,11.5794147521
4xey,F359V,11.5794147521
4xey,H396R,15.6176778363
4xey,E459K,27.5662601381
Erlo,Q252H,2.1010059495
Erlo,Y253F,5.2449475689
Erlo,E255K,5.4192520702
Erlo,T315I,2.5689328524
Erlo,F317I,2.7331425137
Erlo,F317L,2.7331425137
Erlo,M351T,12.2286331616
Gef,Q252H,2.48246289
Gef,Y253F,4.2025969352
Gef,E255K,5.8515481712
Gef,F317I,2.9196248047
Gef,F317L,2.9196248047
Gef,M351T,12.651406404
1opj,M244V,7.5478772513
1opj,L248R,3.1266477256
1opj,L248V,3.1266477256
1opj,G250E,7.7938438527
1opj,Y253F,2.3948647143
1opj,E255K,6.2852090657
1opj,E255V,6.2852090657
1opj,V299L,2.1490174499
1opj,T315A,1.2397503781
1opj,T315I,1.2397503781
1opj,F317C,2.7660594715
1opj,F317I,2.7660594715
1opj,F317L,2.7660594715
1opj,F317V,2.7660594715
1opj,M351T,6.2790124223
1opj,E355A,8.074313717
1opj,F359C,2.6128966685
1opj,F359I,2.6128966685
1opj,F359V,2.6128966685
1opj,H396R,14.6550319345
1opj,E459K,27.2575342612
3cs9,M244V,7.7484660417
3cs9,L248R,2.6245597726
3cs9,L248V,2.6245597726
3cs9,G250E,7.3159719792
3cs9,Y253F,2.3275560144
3cs9,E255K,6.304351751
3cs9,E255V,6.304351751
3cs9,V299L,2.3433595541
3cs9,T315A,1.4675384152
3cs9,T315I,1.4675384152
3cs9,F317C,2.717648616
3cs9,F317I,2.717648616
3cs9,F317L,2.717648616
3cs9,F317V,2.717648616
3cs9,M351T,6.9628180358
3cs9,E355A,9.6195222854
3cs9,F359C,2.2014985805
3cs9,F359I,2.2014985805
3cs9,F359V,2.2014985805
3cs9,H396R,16.6574859147
3cs9,E459K,26.0981552988
3oxz,M244V,7.2686683787
3oxz,L248R,2.6215424849
3oxz,L248V,2.6215424849
3oxz,G250E,7.8270479748
3oxz,Y253F,2.4708682684
3oxz,E255K,5.6599863957
3oxz,E255V,5.6599863957
3oxz,V299L,2.5983873845
3oxz,T315A,2.7137923649
3oxz,T315I,2.7137923649
3oxz,F317C,2.553181153
3oxz,F317I,2.553181153
3oxz,F317L,2.553181153
3oxz,F317V,2.553181153
3oxz,M351T,6.2340762748
3oxz,E355A,8.4325251853
3oxz,F359C,2.325249449
3oxz,F359I,2.325249449
3oxz,F359V,2.325249449
3oxz,H396R,13.2708086038
3oxz,E459K,26.1458953949
2g1t,M244V,10.7846999495
2g1t,L248R,2.2462720227
2g1t,L248V,2.2462720227
2g1t,G250E,2.751803227
2g1t,Q252H,2.005915751
2g1t,Y253F,2.7085346592
2g1t,Y253H,2.7085346592
2g1t,E255K,4.7318771117
2g1t,E255V,4.7318771117
2g1t,D276G,12.8876600669
2g1t,E279K,19.078174703
2g1t,E292L,15.1244118563
2g1t,V299L,2.7142429884
2g1t,T315A,2.4208717438
2g1t,T315I,2.4208717438
2g1t,T315V,2.4208717438
2g1t,F317C,2.8577419408
2g1t,F317I,2.8577419408
2g1t,F317L,2.8577419408
2g1t,F317R,2.8577419408
2g1t,F317V,2.8577419408
2g1t,M343T,14.1416087487
2g1t,M351T,13.4386253389
2g1t,E355A,18.6612194135
2g1t,F359C,12.5690753041
2g1t,F359I,12.5690753041
2g1t,F359V,12.5690753041
2g1t,L384M,4.5474926058
2g1t,H396R,16.1277729709
2g1t,E459K,23.4302734726
2g1t,F486S,15.6599340356
