ID,actual,predicted
103,Susceptible,Susceptible
104,Susceptible,Susceptible
105,Susceptible,Susceptible
106,Susceptible,Susceptible
107,Susceptible,Susceptible
108,Susceptible,Susceptible
109,Susceptible,Susceptible
110,Susceptible,Susceptible
111,Susceptible,Susceptible
112,Resistant,Susceptible
113,Susceptible,Susceptible
114,Susceptible,Susceptible
115,Resistant,Susceptible
116,Resistant,Susceptible
117,Susceptible,Susceptible
118,Resistant,Susceptible
119,Susceptible,Susceptible
120,Susceptible,Susceptible
121,Susceptible,Susceptible
122,Resistant,Susceptible
123,Susceptible,Susceptible
124,Susceptible,Susceptible
125,Resistant,Susceptible
126,Susceptible,Susceptible
127,Susceptible,Susceptible
128,Susceptible,Susceptible
129,Susceptible,Susceptible
130,Susceptible,Susceptible
131,Susceptible,Susceptible
132,Susceptible,Susceptible
133,Susceptible,Susceptible
134,Susceptible,Susceptible
135,Susceptible,Susceptible
136,Susceptible,Susceptible
137,Susceptible,Susceptible
138,Susceptible,Susceptible
139,Susceptible,Susceptible
140,Susceptible,Susceptible
141,Susceptible,Susceptible
142,Susceptible,Susceptible
143,Susceptible,Susceptible
144,Susceptible,Susceptible
