M244V
L248R
L248V
G250E
Q252H
Y253F
Y253H
E255K
E255V
D276G
E279K
E292L
V299L
T315A
T315I
T315V
F317L
F317R
F317V
M343T
M351T
F359I
F359V
L384M
H396R
F486S
M244V
L248R
L248V
G250E
Y253F
E255K
E255V
V299L
T315A
T315I
F317C
F317I
F317L
F317V
M351T
E355A
F359C
F359I
F359V
H396R
E459K
M244V
L248R
L248V
G250E
Y253F
E255K
E255V
V299L
T315A
T315I
F317C
F317I
F317L
F317V
M351T
E355A
F359C
F359I
F359V
H396R
E459K
Q252H
Y253F
E255K
T315I
F317I
F317L
M351T
Q252H
Y253F
E255K
F317I
F317L
M351T
M244V
L248R
L248V
G250E
Y253F
E255K
E255V
V299L
T315A
T315I
F317C
F317I
F317L
F317V
M351T
E355A
F359C
F359I
F359V
H396R
E459K
M244V
L248R
L248V
G250E
Y253F
E255K
E255V
V299L
T315A
T315I
F317C
F317I
F317L
F317V
M351T
E355A
F359C
F359I
F359V
H396R
E459K
M244V
L248R
L248V
G250E
Y253F
E255K
E255V
V299L
T315A
T315I
F317C
F317I
F317L
F317V
M351T
E355A
F359C
F359I
F359V
H396R
E459K
M244V
L248R
L248V
G250E
Q252H
Y253F
Y253H
E255K
E255V
D276G
E279K
E292L
V299L
T315A
T315I
T315V
F317C
F317I
F317L
F317R
F317V
M343T
M351T
E355A
F359C
F359I
F359V
L384M
H396R
E459K
F486S
