Acc:Don-6.00,Inter-Don:Neg-10.00,Inter-Hydro:Neut-9.00,LIG.NUM_DONORS,Neut:Pos-4.00,LIG.TPSA,Dynamut2,Phenotype
121,0,0,2,35,70.67,-0.82,Susceptible
132,2,1430,2,18,70.67,-0.21,Susceptible
132,2,1430,2,18,70.67,-1.14,Susceptible
66,0,113,2,11,70.67,0.04,Susceptible
133,1,1901,2,28,70.67,-0.75,Susceptible
133,1,1901,2,28,70.67,0.17,Susceptible
96,1,196,2,30,70.67,-0.07,Susceptible
96,1,196,2,30,70.67,-0.18,Susceptible
71,0,0,2,0,70.67,0.22,Susceptible
167,4,1252,2,28,70.67,-0.75,Susceptible
124,5,1318,2,18,70.67,-1.73,Susceptible
124,5,1318,2,18,70.67,-0.04,Susceptible
124,5,1318,2,18,70.67,-0.36,Susceptible
165,0,0,2,19,70.67,-2.04,Susceptible
214,0,0,2,58,70.67,-1.72,Susceptible
140,0,0,2,45,70.67,-2.23,Susceptible
140,0,0,2,45,70.67,-1.93,Susceptible
155,0,0,2,55,70.67,-0.28,Susceptible
52,0,0,2,47,70.67,0,Susceptible
228,0,0,2,36,70.67,-3.34,Susceptible
119,0,0,1,15,82.88,-0.74,Susceptible
91,3,1286,1,52,82.88,0.25,Resistant
91,3,1286,1,52,82.88,0.46,Susceptible
85,0,396,1,34,82.88,0.03,Susceptible
91,0,450,1,26,82.88,-0.35,Susceptible
124,0,198,1,36,82.88,-1.1,Susceptible
124,0,198,1,36,82.88,-0.41,Susceptible
161,1,1105,1,29,82.88,-0.63,Resistant
126,2,1732,1,12,82.88,-1.51,Susceptible
126,2,1732,1,12,82.88,-0.15,Resistant
212,0,0,1,47,82.88,-1.45,Susceptible
140,0,0,1,43,82.88,-2.1,Susceptible
140,0,0,1,43,82.88,-2.06,Susceptible
140,0,0,1,43,82.88,-2,Susceptible
50,0,0,1,18,82.88,0.04,Susceptible
170,0,0,3,39,106.51,-0.66,Susceptible
103,0,716,3,28,106.51,0.45,Susceptible
103,0,716,3,28,106.51,0.54,Susceptible
67,0,85,3,17,106.51,-0.12,Susceptible
59,0,0,3,34,106.51,-0.27,Susceptible
108,0,108,3,28,106.51,-0.13,Susceptible
108,0,108,3,28,106.51,-0.51,Susceptible
167,0,584,3,30,106.51,-0.5,Susceptible
125,0,834,3,16,106.51,-1.6,Resistant
125,0,834,3,16,106.51,-0.52,Resistant
225,0,0,3,56,106.51,-1.37,Susceptible
150,0,0,3,33,106.51,-1.99,Susceptible
150,0,0,3,33,106.51,-1.48,Susceptible
150,0,0,3,33,106.51,-1.83,Susceptible
59,0,0,3,36,106.51,0,Susceptible
91,0,357,1,26,74.73,-0.35,Susceptible
124,0,121,1,36,74.73,-1.1,Susceptible
126,4,1656,1,12,74.73,-0.15,Susceptible
212,0,0,1,47,74.73,-1.45,Susceptible
92,0,584,1,39,68.74,-0.35,Susceptible
124,0,259,1,46,68.74,-1.1,Susceptible
212,0,0,1,47,68.74,-1.45,Susceptible
117,0,0,2,21,86.28,-0.74,Susceptible
132,0,809,2,16,86.28,-0.21,Resistant
132,0,809,2,16,86.28,-1.24,Susceptible
72,0,79,2,19,86.28,0.11,Susceptible
132,0,886,2,12,86.28,-0.43,Resistant
109,0,110,2,29,86.28,-0.44,Resistant
109,0,110,2,29,86.28,-0.26,Resistant
141,0,1142,2,39,86.28,-0.73,Susceptible
111,0,1218,2,10,86.28,-1.2,Susceptible
111,0,1218,2,10,86.28,-0.12,Resistant
218,0,218,2,54,86.28,-1.64,Susceptible
93,0,726,2,17,86.28,-0.53,Susceptible
93,0,726,2,17,86.28,-1.6,Susceptible
93,0,726,2,17,86.28,-1.04,Susceptible
93,0,0,2,30,86.28,-0.28,Susceptible
121,0,0,2,26,97.62,-0.73,Susceptible
131,0,786,2,14,97.62,-0.35,Resistant
131,0,786,2,14,97.62,-1.3,Susceptible
70,0,69,2,16,97.62,0.06,Susceptible
128,0,911,2,12,97.62,-0.46,Resistant
122,0,92,2,29,97.62,-0.63,Susceptible
122,0,92,2,29,97.62,-0.26,Resistant
137,0,1118,2,40,97.62,-0.87,Susceptible
110,0,1230,2,10,97.62,-1.62,Susceptible
110,0,1230,2,10,97.62,-0.25,Resistant
214,0,102,2,56,97.62,-1.76,Susceptible
105,0,553,2,48,97.62,-2.15,Susceptible
105,0,553,2,48,97.62,-2.47,Susceptible
105,0,553,2,48,97.62,-2.16,Susceptible
85,0,0,2,21,97.62,-0.29,Susceptible
122,0,0,1,25,65.77,-0.73,Susceptible
134,0,725,1,28,65.77,-0.38,Susceptible
134,0,725,1,28,65.77,-1.4,Susceptible
99,0,46,1,17,65.77,0.06,Susceptible
170,0,715,1,9,65.77,-0.92,Susceptible
140,0,107,1,29,65.77,-1.02,Susceptible
140,0,107,1,29,65.77,0.51,Susceptible
148,0,1085,1,52,65.77,-0.69,Susceptible
125,0,1100,1,26,65.77,-1.47,Susceptible
125,0,1100,1,26,65.77,-0.21,Susceptible
225,0,260,1,58,65.77,-1.57,Susceptible
96,0,762,1,9,65.77,-0.61,Susceptible
96,0,762,1,9,65.77,-1.63,Susceptible
96,0,762,1,9,65.77,-1.28,Susceptible
142,0,0,1,76,65.77,-0.06,Susceptible
87,0,891,2,28,70.67,-0.43,Susceptible
37,0,0,2,10,70.67,0.44,Susceptible
68,0,0,2,38,70.67,0.29,Susceptible
105,6,1110,2,0,70.67,-1.53,Susceptible
105,6,1110,2,0,70.67,0.36,Susceptible
105,6,1110,2,0,70.67,-1.25,Susceptible
103,2,1526,1,12,82.88,0.73,Susceptible
103,2,1526,1,12,82.88,-1.65,Susceptible
103,2,1526,1,12,82.88,-1.33,Susceptible
103,2,1526,1,12,82.88,-0.99,Resistant
162,0,0,1,28,82.88,-0.83,Susceptible
43,0,0,1,26,82.88,-0.46,Susceptible
110,0,995,3,10,106.51,0.65,Resistant
110,0,995,3,10,106.51,-1.01,Resistant
110,0,995,3,10,106.51,-0.97,Susceptible
110,0,995,3,10,106.51,-0.81,Resistant
161,0,0,3,23,106.51,-0.67,Susceptible
42,0,0,3,20,106.51,-0.23,Susceptible
76,1,404,1,29,74.73,-0.1,Susceptible
101,1,960,1,0,74.73,-1.65,Resistant
101,1,960,1,0,74.73,-1.33,Susceptible
77,1,586,1,47,68.74,-0.1,Susceptible
101,0,1121,1,0,68.74,-1.65,Susceptible
101,0,1121,1,0,68.74,-1.33,Susceptible
109,0,627,2,0,86.28,0.83,Susceptible
109,0,627,2,0,86.28,-1.11,Susceptible
109,0,627,2,0,86.28,-0.66,Susceptible
109,0,627,2,0,86.28,-1.11,Susceptible
157,0,0,2,23,86.28,-1,Susceptible
52,0,0,2,44,86.28,-0.36,Susceptible
108,0,589,2,0,97.62,0.68,Susceptible
108,0,589,2,0,97.62,-1.17,Susceptible
108,0,589,2,0,97.62,-0.55,Susceptible
108,0,589,2,0,97.62,-1.08,Susceptible
155,0,0,2,22,97.62,-0.93,Susceptible
44,0,0,2,38,97.62,-0.15,Susceptible
107,0,585,1,9,65.77,0.86,Susceptible
107,0,585,1,9,65.77,-1.53,Susceptible
107,0,585,1,9,65.77,-1.2,Susceptible
107,0,585,1,9,65.77,-1.07,Susceptible
161,0,0,1,25,65.77,-0.9,Susceptible
52,0,0,1,42,65.77,-0.38,Susceptible
