,blind-test,feature_name,training
1,0.459,Inter-Neut:Neut-4.00,0.481
2,0.526,Neut:Pos-5.00,0.594
3,0.53,LIG.TPSA,0.628
4,0.579,Inter-Acc:Pos-10.00,0.642
5,0.61,VENM980101,0.69
6,0.612,Inter-Hydro:Hydro-9.00,0.706
7,0.626,Inter-Don:Neut-8.00,0.713
8,0.624,Hydro:Neg-10.00,0.719
9,0.635,Inter-Neut:Neut-3.00,0.726
10,0.64,ATP_Inter-Aro:Neut-3.00,0.734
11,0.639,Pos:Pos-4.00,0.736
12,0.642,ATP_Inter-Aro:Neut-4.00,0.741
13,0.644,ATP_WeakHbond,0.744
14,0.668,ATP_Inter-Hydro:Pos-10.00,0.747
15,0.672,ATP_Neg:Pos-3.00,0.749
16,0.674,Acc:Acc-3.00,0.753
17,0.664,Inter-Acc:Aro-4.00,0.755
18,0.658,KOSJ950115,0.756
19,0.688,Don:Pos-4.00,0.761
20,0.676,Neg:Neg-3.00,0.764
21,0.682,ATP_Hydro:Neg-3.00,0.765
22,0.671,ATP_Inter-Neut:Pos-5.00,0.766
23,0.677,ATP_Acc:Aro-4.00,0.766
24,0.678,ATP_Neg:Neg-6.00,0.765
25,0.67,ATP_Acc:Acc-5.00,0.765
26,0.676,ATP_Hydro:Pos-2.00,0.763
27,0.674,ATP_Hbond,0.764
