0.102,0.21,-0.442,-1.38,-0.546,-0.263
-0.285,-0.314,-0.339,0.63,-0.049,0.393
0.506,0.145,-0.556,0.24,-0.207,-0.182
0.448,0.018,-0.176,2.43,0.61,-0.022
0.006,-0.331,0.229,-1.19,0.133,0.414
0.227,0.032,-0.302,-0.38,-0.207,-0.04
0.909,0.327,0.963,-0.06,0.976,-0.408
-0.138,-0.118,0.218,0.57,0.612,0.147
-0.142,0.484,-0.661,-1.02,-0.51,-0.606
-0.258,-0.015,-0.696,-0.59,-0.428,0.018
-0.077,-0.051,0.159,0.4,0.464,0.064
0.003,0.007,-0.42,-0.48,-0.059,-0.008
-1.007,-0.235,-1.56,-2.99,-2.027,0.294
0.429,0.194,-1.684,-1.75,-1.66,-0.242
-1.679,-0.318,-2.772,-3.36,-3.072,0.398
-1.98,-0.144,-2.38,-2.93,-2.617,0.18
0.788,0.138,-1.119,0.12,-0.97,-0.172
0.156,0.232,-0.356,0.53,-0.316,-0.29
0.283,0.222,-0.941,-0.66,-1.053,-0.277
2.989,0.487,-0.051,0.51,0.256,-0.608
2.081,0.498,-0.25,0.51,0.053,-0.622
1.767,0.516,-1.534,-1.54,-1.794,-0.645
1.678,0.418,-1.2,-2.06,-1.641,-0.523
-0.718,-0.066,-1.419,0.17,-0.886,0.083
-0.007,-0.957,-0.579,0.08,-0.627,1.196
2.076,1.195,-0.919,0.84,-0.526,-1.494
-0.611,0.028,-0.439,-1.03,-0.451,-0.035
0.444,-0.637,0.598,0.66,0.85,0.797
0.083,0.038,-0.298,-0.56,-0.008,-0.048
-0.039,-0.921,-0.799,0.65,-0.45,1.151
-0.85,-0.297,-0.486,-0.47,-0.291,0.372
0.337,-0.044,-0.749,0.16,-0.353,0.055
0.298,0.063,-1.528,-2.07,-1.595,-0.079
-1.94,-0.246,-1.647,-3.03,-2.127,0.307
0.989,0.188,-1.646,-0.72,-1.393,-0.235
-0.131,-0.17,-2.589,-1.21,-2.508,0.213
1.527,0.775,-0.837,0.08,-0.627,-0.968
-0.802,0.057,-1.188,-0.54,-1.247,-0.072
0.524,0.043,-1.174,0.12,-1.021,-0.054
1.213,0.408,-1.126,-0.48,-1.169,-0.51
2.445,0.348,-0.436,1.42,0.103,-0.435
0.63,0.726,-1.604,-0.57,-1.343,-0.908
1.179,0.694,-1.089,-0.88,-1.07,-0.868
1.627,0.404,-1.431,-1.54,-1.696,-0.505
1.415,0.653,-1.232,-2.06,-1.672,-0.817
-0.053,-0.03,-0.613,0.12,-0.646,0.038
0.286,-0.016,-0.558,0.24,-0.219,0.019
0.205,0.269,-0.751,-2.39,-1.145,-0.336
0.357,-0.606,0.416,0.81,0.658,0.758
0.177,0.132,-0.298,-0.53,-0.112,-0.165
-0.525,-0.499,-0.235,0.57,0.117,0.624
-0.006,-0.016,-0.059,-0.39,0.17,0.019
0.123,-0.026,-0.042,0.84,0.541,0.032
-0.284,0.432,-1.151,-0.98,-0.922,-0.54
-1.186,-0.155,-1.523,-2.73,-1.936,0.194
0.128,0.133,-1.697,-0.72,-1.448,-0.166
-1.535,-0.234,-2.689,-2.38,-2.845,0.293
1.101,0.664,-0.878,0.08,-0.665,-0.83
0.443,0.231,-1.072,-0.54,-1.138,-0.289
0.722,0.249,-1.22,0.12,-1.063,-0.311
1.027,0.372,-1.108,-0.48,-1.153,-0.465
2.25,0.355,-0.255,1.42,0.283,-0.443
0.396,0.377,-1.751,-0.89,-1.581,-0.471
1.236,0.559,-1.079,-0.88,-1.06,-0.698
1.129,0.288,-1.518,-1.54,-1.779,-0.36
1.437,0.523,-1.11,-2.06,-1.556,-0.654
-0.537,-0.426,-0.571,0.12,-0.606,0.532
-0.282,0.008,-0.425,-0.11,-0.173,-0.01
0.346,-0.015,-0.098,-0.7,-0.116,0.019
-0.286,-0.103,-0.455,-0.47,-0.258,0.129
0.151,-0.093,-0.748,0.16,-0.352,0.116
-1.169,-0.168,-2.7,-1.94,-2.776,0.21
-0.322,0.039,-1.188,-0.54,-1.247,-0.049
0.645,0.209,-1.127,0.12,-0.977,-0.261
2.18,0.389,-0.436,1.42,0.103,-0.486
0.346,-0.015,-0.098,-0.7,-0.116,0.019
0.39,0.07,-0.421,-0.47,-0.223,-0.087
0.151,-0.093,-0.748,0.16,-0.352,0.116
0.587,0.234,-1.162,-0.54,-1.223,-0.292
0.808,0.197,-1.122,0.12,-0.972,-0.246
2.18,0.389,-0.436,1.42,0.103,-0.486
0.305,0.36,-0.449,-0.87,-0.421,-0.45
-0.144,-0.068,-0.07,0.82,0.243,0.085
0.432,0.14,-0.624,0.24,-0.279,-0.174
0.4,0.063,-0.109,2.58,0.693,-0.079
0.014,-0.1,-0.126,-1,-0.154,0.125
1.363,0.421,-0.105,0.43,0.213,-0.526
-0.117,-0.022,-1.247,-0.85,-1.219,0.027
-1.326,-0.247,-1.461,-2.99,-1.92,0.309
-0.085,0.147,-1.664,-1.72,-1.632,-0.184
-0.532,-0.362,-2.605,-3.26,-2.893,0.452
0.471,0.425,-0.838,0.08,-0.628,-0.531
0.521,0.175,-1.102,-0.54,-1.166,-0.219
0.349,0.121,-1.016,0.12,-0.874,-0.152
0.995,0.255,-0.977,-0.48,-1.029,-0.319
1.996,0.383,-0.171,1.42,0.365,-0.479
0.446,0.691,-1.9,-0.57,-1.661,-0.864
1.151,0.523,-0.754,-0.03,-0.681,-0.654
-0.004,0.007,-0.76,-0.54,-0.945,-0.008
-0.228,0.23,-0.794,-0.48,-0.958,-0.287
-0.037,-0.167,-1.535,0.52,-1.188,0.209
0.278,0.001,-0.19,0.26,0.157,-0.001
-0.198,0.052,-0.453,-1.23,-0.519,-0.065
0.536,-0.177,-0.77,0.41,-0.51,0.221
0.574,0.244,-0.507,0.24,-0.155,-0.306
0.181,0.014,-0.073,1.63,0.573,-0.017
0.51,-0.015,-0.286,-1,-0.324,0.019
-0.054,-0.141,-0.444,0.51,-0.052,0.177
0.319,0.207,-1.39,-1.51,-1.402,-0.259
-1.432,-0.256,-1.48,-2.99,-1.941,0.32
0.107,0.168,-1.67,-1.72,-1.639,-0.209
-0.354,-0.473,-2.459,-3.36,-2.759,0.591
0.339,0.43,-0.828,0.08,-0.618,-0.538
0.316,-0.03,-1.07,-0.54,-1.136,0.037
0.372,0.213,-0.994,0.12,-0.854,-0.266
0.578,0.26,-0.806,-0.48,-0.869,-0.325
2.013,0.457,-0.192,0.51,0.112,-0.571
0.514,0.515,-1.623,-0.57,-1.364,-0.644
0.725,0.485,-0.956,0.08,-0.832,-0.606
0.169,0.194,-0.973,-0.54,-1.146,-0.243
1.01,0.446,-0.889,-0.48,-1.047,-0.557
-0.014,-0.072,-1.102,0.18,-0.891,0.09
-0.221,0.051,-0.251,0.26,0.096,-0.064
-0.189,-0.054,-0.425,-1.38,-0.527,0.068
0.132,-0.316,0.102,0.84,0.398,0.395
0.296,0.272,-0.573,-0.11,-0.306,-0.34
0.306,-0.005,-0.219,2.43,0.57,0.007
0.304,0.04,-0.314,-1,-0.357,-0.049
0.228,-0.152,-0.873,-0.07,-0.643,0.19
-0.424,-0.168,-1.526,-1.52,-1.551,0.21
-1.23,-0.237,-1.526,-2.99,-1.99,0.296
-0.997,-0.059,-1.673,-1.02,-1.49,0.073
-1.908,-0.225,-2.454,-3.36,-2.754,0.281
0.463,0.484,-0.782,0.08,-0.576,-0.605
-0.054,0.093,-1.107,-0.54,-1.171,-0.116
0.126,0.122,-1.139,0.12,-0.988,-0.153
0.916,0.47,-0.942,-0.48,-0.997,-0.587
1.564,0.45,-0.323,0.51,-0.022,-0.563
0.685,0.699,-1.715,-0.57,-1.462,-0.874
1.133,0.521,-0.842,0.07,-0.73,-0.651
0.507,0.268,-0.856,-0.54,-1.035,-0.335
0.944,0.622,-0.831,-0.48,-0.992,-0.777
0.462,0.303,-1.522,0.53,-1.244,-0.378
-0.313,-0.033,-0.372,0.26,-0.026,0.042
0.183,0.265,-0.414,-1.19,-0.466,-0.331
0.558,-0.283,0.765,0.62,0.979,0.354
0.228,0.23,-0.481,-0.84,-0.278,-0.287
-0.485,-0.29,-0.531,0.16,-0.208,0.363
-0.339,-0.514,0.112,-0.92,0.045,0.642
0.288,0.001,-0.614,-0.2,-0.394,-0.002
1.276,0.25,1.21,-0.55,1.097,-0.313
0.115,-0.105,-0.257,0.16,0.158,0.131
0.313,0.067,-0.425,-1.58,-0.28,-0.084
1.138,0.693,-0.863,-0.21,-0.532,-0.867
-0.028,0,0.051,0.26,0.325,-0.001
0.159,-0.103,-0.592,-0.36,-0.352,0.129
-1.264,-0.19,-1.528,-2.99,-1.992,0.237
0.33,0.079,-1.56,-1.02,-1.368,-0.098
-1.404,-0.357,-2.21,-2.63,-2.391,0.447
-1.098,-0.152,-2.024,-2.74,-2.215,0.19
0.774,0.566,-0.959,0.08,-0.739,-0.708
0.087,-0.048,-1.116,-0.54,-1.179,0.06
0.259,0.037,-1.105,0.12,-0.957,-0.046
0.601,0.161,-0.666,0.53,-0.557,-0.202
1.112,0.302,-1.075,-0.48,-1.122,-0.377
2.242,0.471,-0.02,0.51,0.288,-0.589
1.168,0.438,-0.39,0.51,-0.092,-0.547
0.783,0.598,-1.455,-0.57,-1.183,-0.747
1.051,0.891,-1.065,-1.09,-1.318,-1.113
0.942,0.553,-1.159,-1.1,-1.503,-0.692
1.103,0.921,-0.923,-1.38,-1.369,-1.151
-0.351,-0.093,-1.527,0.18,-1.017,0.116
-0.344,0.001,-0.632,0.12,-0.498,-0.002
-0.424,-0.01,-0.36,0.26,-0.013,0.013
2.324,1.218,-0.968,0.94,-0.537,-1.522
