mutation,chain,prediction
L248R,A,0.45
F317I,A,-1.01
E459K,A,-0.23
V299L,A,-0.5
F317L,A,-0.97
F317V,A,-0.81
E355A,A,-0.67
E255V,A,-0.51
Y253F,A,-0.27
F359V,A,-1.83
G250E,A,-0.12
L248V,A,0.54
T315I,A,-0.52
M244V,A,-0.66
F359C,A,-1.99
F317C,A,0.65
H396R,A,-0.0
F359I,A,-1.48
M351T,A,-1.37
E255K,A,-0.13
T315A,A,-1.6
