,blind-test,feature_name,training
1,0.463,Neut:Pos-4.00,0.416
2,0.543,Acc:Aro-2.00,0.502
3,0.558,Inter-Hydro:Neut-4.00,0.547
4,0.632,LIG.MOL_WEIGHT,0.645
5,0.688,KOSJ950100_SST,0.682
6,0.653,ATP_Neg:Pos-6.00,0.717
7,0.679,LIG.NUM_ACCEPTORS,0.739
8,0.696,Inter-Acc:Pos-10.00,0.758
9,0.678,ATP_Aro:Don-3.00,0.757
10,0.662,Kinact,0.761
11,0.677,ATP_Acc,0.762
12,0.692,Acc:Don-3.00,0.766
13,0.682,ATP_Acc:Neut-2.00,0.772
14,0.704,ATP_Aro:Neg-9.00,0.776
15,0.687,Don:Hydro-6.00,0.765
16,0.692,ATP_Aro:Neg-3.00,0.77
17,0.696,Acc,0.768
