feature_id,matthew
1,0.36
2,0.473
3,0.473
4,0.539
5,0.562
6,0.625
7,0.681
8,0.731
9,0.731
10,0.731
11,0.731
12,0.731
13,0.731
14,0.627
15,0.681
16,0.731
17,0.681
18,0.681
19,0.681
20,0.681
21,0.681
22,0.681
23,0.681
24,0.681
25,0.681
26,0.681
27,0.681
28,0.681
29,0.681
30,0.681
31,0.681
32,0.681
33,0.627
34,0.507
35,0.507
36,0.507
37,0.507
38,0.507
39,0.507
40,0.507
41,0.355
42,0.507
43,0.507
44,0.507
45,0.507
46,0.436
47,0.507
48,0.507
