feature_id,Pearson
1,0.245
2,0.472
3,0.63
4,0.638
5,0.666
6,0.65
7,0.611
8,0.652
9,0.674
10,0.674
11,0.684
12,0.675
13,0.729
14,0.739
15,0.663
16,0.698
17,0.07
18,0.52
19,0.409
20,0.2
21,0.21
22,0.336
23,0.369
