,blind-test,feature_name,training
1,0.4,ATP_Inter-Neut:Pos-5.00,0.471
2,0.442,Inter-Acc:Acc-7.00,0.541
3,0.471,Acc:Neut-10.00,0.553
4,0.55,LIG.NUM_DONORS,0.583
5,0.534,Hydro:Pos-4.00,0.596
6,0.524,Inter-Acc:Don-4.00,0.602
7,0.531,ATP_Neg:Neut-8.00,0.619
8,0.539,Don:Pos-5.00,0.625
9,0.593,ATP_Hydro:Hydro-4.00,0.634
10,0.53,blosum95,0.628
11,0.599,Inter-Neut:Neut-4.00,0.648
12,0.596,LIG.NUM_ACCEPTORS,0.669
13,0.614,Aro:Pos-3.00,0.68
14,0.604,ATP_Neg:Neg-9.00,0.68
15,0.602,Inter-Hydro:Neut-4.00,0.683
16,0.622,RSA,0.694
17,0.678,VDWClash,0.712
18,0.672,Inter-Aro:Don-7.00,0.718
19,0.642,LIG.TPSA,0.722
20,0.65,ATP_mCSM_lig,0.734
21,0.642,ATP_Acc:Aro-7.00,0.736
22,0.644,ATP_Hydro:Pos-9.00,0.741
23,0.647,Acc:Neut-3.00,0.74
24,0.646,ATP_Inter-Neut:Neut-2.00,0.742
25,0.652,ATP_Inter-Acc:Pos-3.00,0.745
