,blind-test,feature_name,training,
1,0.342,ATP_Neut:Neut-7.00,0.667,0.325
2,0.344,mCSM_stability,0.664,0.32
3,0.342,ATP_Inter-Acc:Acc-7.00,0.663,0.321
4,0.353,d_Hbond,0.666,0.313
5,0.35,ATP_Aro:Hydro-5.00,0.666,0.316
6,0.366,Inter-Hydro:Neut-3.00,0.665,0.299
7,0.35,ddg_dynamut,0.655,0.305
8,0.355,Acc:Acc-3.00,0.662,0.307
9,0.397,LIWA970101,0.666,0.269
10,0.388,LIG.LABUTE_ASA,0.661,0.273
11,0.383,ATP_Inter-Acc:Pos-4.00,0.654,0.271
12,0.404,Neut:Neut-9.00,0.663,0.259
13,0.386,Inter-Acc:Neg-8.00,0.654,0.268
14,0.395,ATP_Inter-Neg:Pos-8.00,0.664,0.269
15,0.39,Neut:Neut-10.00,0.66,0.27
16,0.399,d_Proximal,0.672,0.273
17,0.391,PRLA000101,0.666,0.275
18,0.415,Inter-Hydro:Neut-4.00,0.666,0.251
19,0.414,Inter-Aro:Neg-10.00,0.668,0.254
20,0.418,ATP_Inter-Don:Pos-6.00,0.671,0.253
21,0.434,Inter-Don:Hydro-4.00,0.671,0.237
22,0.446,ATP_Don:Neut-4.00,0.671,0.225
23,0.444,Hydro:Neut-2.00,0.666,0.222
24,0.457,ddg_sdm,0.67,0.213
25,0.461,Inter-Neg:Neut-9.00,0.67,0.209
26,0.467,WeakPolar,0.674,0.207
27,0.46,d_Polar,0.671,0.211
28,0.481,Inter-Acc:Neut-9.00,0.678,0.197
29,0.474,Neut:Neut-5.00,0.673,0.199
30,0.479,AZAE970101,0.681,0.202
31,0.469,ATP_d_Amide-Ring,0.675,0.206
32,0.471,Neut:Neut-6.00,0.68,0.209
33,0.486,MIYS930101,0.679,0.193
34,0.483,SIMK990101,0.675,0.192
35,0.484,lig_dis,0.68,0.196
36,0.484,Inter-Neut:Neut-9.00,0.676,0.192
37,0.489,ATP_Acc:Aro-9.00,0.68,0.191
38,0.491,TUDE900101,0.681,0.19
39,0.496,ATP_Inter-Aro:Neut-4.00,0.686,0.19
40,0.495,Inter-Acc:Neut-10.00,0.685,0.19
41,0.496,ATP_Inter-Acc:Hydro-6.00,0.682,0.186
42,0.507,Neut:Neut-4.00,0.685,0.178
43,0.498,ResDepth,0.68,0.182
44,0.504,Inter-Neut:Neut-5.00,0.683,0.179
45,0.529,Inter-Neg:Neut-10.00,0.691,0.162
46,0.521,LIG.ATOM_COUNT,0.685,0.164
47,0.518,Inter-Don:Neut-8.00,0.681,0.163
48,0.544,ATP_Inter-Neut:Pos-6.00,0.688,0.144
49,0.528,Inter-Neut:Neut-4.00,0.673,0.145
50,0.537,ATP_Neut:Neut-2.00,0.679,0.142
51,0.542,Acc:Acc-7.00,0.683,0.141
52,0.542,ATP_lig_dis,0.68,0.138
53,0.555,ATP_Inter-Acc:Neut-4.00,0.685,0.13
54,0.551,Inter-Hydro:Neg-10.00,0.677,0.126
55,0.559,RIER950101,0.677,0.118
56,0.565,Don:Neut-10.00,0.685,0.12
57,0.563,ATP_Inter-Neg:Pos-9.00,0.68,0.117
58,0.568,LIG.NUM_ACCEPTORS,0.686,0.118
59,0.571,ATP_Inter-Acc:Aro-8.00,0.69,0.119
60,0.575,LIG.MOL_WEIGHT,0.676,0.101
61,0.572,LUTR910102,0.674,0.102
62,0.58,ATP_Inter-Hydro:Pos-4.00,0.681,0.101
63,0.576,Don:Pos-6.00,0.678,0.102
64,0.599,Don:Don-5.00,0.681,0.082
65,0.578,SIMK990102,0.676,0.098
66,0.593,Acc:Neg-4.00,0.683,0.09
67,0.587,ATP_Inter-Hydro:Pos-6.00,0.686,0.099
68,0.593,PRLA000102,0.687,0.094
69,0.592,Inter-Neut:Neut-7.00,0.686,0.094
70,0.593,Inter-Acc:Neut-8.00,0.693,0.1
71,0.603,GEOD900101,0.692,0.089
72,0.6,Inter-Neut:Neut-8.00,0.697,0.097
73,0.602,ATP_Neut:Neut-8.00,0.692,0.09
74,0.606,Neut:Neut-3.00,0.699,0.093
75,0.601,Hydro:Neut-3.00,0.698,0.097
76,0.609,ATP_Acc:Neut-3.00,0.706,0.097
77,0.607,LIG.NUM_DONORS,0.704,0.097
78,0.614,Acc:Hydro-8.00,0.703,0.089
79,0.612,ATP_Proximal,0.705,0.093
80,0.609,ATP_Acc:Don-5.00,0.708,0.099
81,0.617,ATP_d_Proximal,0.708,0.091
82,0.609,Inter-Don:Neut-3.00,0.708,0.099
83,0.612,Don:Neg-4.00,0.711,0.099
84,0.607,mCSM_lig,0.706,0.099
85,0.61,PosIonizable_Count,0.71,0.1
86,0.613,Acc:Pos-7.00,0.711,0.098
87,0.618,Proximal,0.714,0.096
88,0.619,Inter-Neut:Neut-10.00,0.715,0.096
89,0.635,ATP_Neut:Neut-5.00,0.73,0.095
90,0.628,ATP_Polar,0.725,0.097
91,0.622,Inter-Neut:Neut-6.00,0.722,0.1
92,0.662,BRYS930101,0.738,
93,0.651,ATP_Neut:Neut-4.00,0.737,
94,0.665,ATP_Aro:Neut-2.00,0.746,
95,0.652,Neut:Neut-7.00,0.737,
96,0.644,Neg:Neut-4.00,0.742,
97,0.65,Inter-Don:Neut-6.00,0.743,
98,0.641,DOSZ010102,0.74,
99,0.663,ATP_Neut:Neut-3.00,0.739,
100,0.661,ATP_d_WeakPolar,0.739,
101,0.643,Inter-Neut:Neut-3.00,0.74,
102,0.674,ddg_mcsm,0.738,
103,0.68,QU_C930101,0.749,
104,0.641,ZHAC000104,0.736,
105,0.667,Acc:Pos-4.00,0.744,
106,0.652,Hydro,0.748,
107,0.699,Sift,0.758,
108,0.67,Dynamut2,0.761,
109,0.685,Aro:Neut-2.00,0.761,
110,0.699,d_PI-PI,0.765,
111,0.692,Neut:Pos-7.00,0.765,
112,0.67,Hydro:Pos-7.00,0.763,
113,0.666,Acc:Pos-8.00,0.765,
114,0.687,Hydro:Pos-5.00,0.765,
115,0.698,ATP_d_VDWClash,0.763,
116,0.679,KOSJ950100_SST,0.767,
117,0.678,ATP_Inter-Hydro:Neut-4.00,0.762,
118,0.662,Inter-Hydro:Neut-5.00,0.763,
119,0.667,VDWClash,0.765,
120,0.682,Aro:Neut-3.00,0.766,
121,0.687,Aromatic_Count,0.778,
122,0.688,ATP_Hydro,0.772,
123,0.69,ATP_Hydro:Neut-8.00,0.776,
124,0.693,Hydrophobic,0.778,
125,0.705,LIG.NUM_ROTATABLE_BONDS,0.776,
126,0.694,Hydrophobe_Count,0.776,
127,0.694,VENM980101,0.776,
128,0.67,d_Hydrophobic,0.763,
129,0.7,Aro,0.768,
130,0.675,RUSR970103,0.775,
131,0.705,Don:Pos-5.00,0.783,
132,0.707,Fluctuation,0.771,
133,0.677,d_Carbon-PI,0.77,
134,0.67,MEHP950101,0.752,
135,0.68,LIG.NUM_HETEROATOMS,0.738,
136,0.67,ATP_Inter-Don:Neut-9.00,0.717,
137,0.602,Acc:Pos-3.00,0.701,
138,0.604,ATP_Inter-Neut:Neut-7.00,0.688,
139,0.594,ddg_duet,0.664,
140,0.569,ATP_Neut:Pos-2.00,0.646,
141,0.598,NAOD960101,0.575,
142,0.303,Inter-Don:Neut-4.00,0.45,
143,0.31,d_Amide-Ring,0.426,
144,0.299,LIG.TPSA,0.395,
145,0,Inter-Neut:Neut-8.00,0,
