Inter-Hydro:Neut-9.00,Acc:Hydro-3.00,ATP_Inter-Acc:Don-3.00,ATP_Hydro:Pos-7.00,KESO980101,LIG.NUM_DONORS,Inter-Don:Neg-10.00,Inter-Aro:Hydro-6.00,Phenotype
0,5,0,30,-5.16,2,0,0,Susceptible
1430,13,1,35,-5.01,2,2,278,Susceptible
1430,13,1,35,-6.03,2,2,278,Susceptible
113,3,2,24,-1.58,2,0,37,Susceptible
1901,13,1,34,-5.33,2,1,322,Susceptible
1901,13,1,34,-3.78,2,1,322,Susceptible
196,7,1,20,-2.83,2,1,9,Susceptible
196,7,1,20,-3.2,2,1,9,Susceptible
0,12,0,6,-2.83,2,0,0,Susceptible
1252,17,1,36,-6.03,2,4,98,Susceptible
1318,14,1,20,-2.38,2,5,137,Susceptible
1318,14,1,20,-3.61,2,5,137,Susceptible
1318,14,1,20,-2.87,2,5,137,Susceptible
0,5,0,34,-3.33,2,0,0,Susceptible
0,9,0,74,-3.33,2,0,0,Susceptible
0,10,0,82,-6.11,2,0,0,Susceptible
0,10,0,82,-5.33,2,0,0,Susceptible
0,10,0,82,-6.24,2,0,0,Susceptible
0,6,0,12,-3.24,2,0,0,Susceptible
0,9,0,20,-4.01,2,0,0,Susceptible
0,0,0,30,-5.16,1,0,0,Susceptible
1286,16,1,35,-5.01,1,3,118,Resistant
1286,16,1,35,-6.03,1,3,118,Susceptible
396,5,2,24,-1.58,1,0,33,Susceptible
450,14,1,34,-5.33,1,0,67,Susceptible
198,6,1,20,-2.83,1,0,12,Susceptible
198,6,1,20,-3.2,1,0,12,Susceptible
1105,19,1,36,-6.03,1,1,114,Resistant
1732,19,1,20,-2.38,1,2,196,Susceptible
1732,19,1,20,-3.61,1,2,196,Resistant
0,10,0,74,-3.33,1,0,0,Susceptible
0,10,0,82,-4.81,1,0,0,Susceptible
0,10,0,82,-6.11,1,0,0,Susceptible
0,10,0,82,-5.33,1,0,0,Susceptible
0,4,0,12,-3.24,1,0,0,Susceptible
0,3,0,30,-5.16,3,0,0,Susceptible
716,8,1,35,-5.01,3,0,0,Susceptible
716,8,1,35,-6.03,3,0,0,Susceptible
85,4,2,24,-1.58,3,0,0,Susceptible
0,8,1,34,-5.33,3,0,0,Susceptible
108,6,1,20,-2.83,3,0,0,Susceptible
108,6,1,20,-3.2,3,0,0,Susceptible
584,13,1,36,-6.03,3,0,0,Susceptible
834,10,1,20,-2.38,3,0,0,Resistant
834,10,1,20,-3.61,3,0,0,Resistant
0,11,0,74,-3.33,3,0,0,Susceptible
0,9,0,82,-4.81,3,0,0,Susceptible
0,9,0,82,-6.11,3,0,0,Susceptible
0,9,0,82,-5.33,3,0,0,Susceptible
0,5,0,12,-3.24,3,0,0,Susceptible
357,11,1,34,-5.33,1,0,40,Susceptible
121,4,1,20,-2.83,1,0,0,Susceptible
1656,18,1,20,-3.61,1,4,205,Susceptible
0,10,0,74,-3.33,1,0,0,Susceptible
584,14,1,34,-5.33,1,0,52,Susceptible
259,4,1,20,-2.83,1,0,6,Susceptible
0,10,0,74,-3.33,1,0,0,Susceptible
0,3,0,30,-5.16,2,0,0,Susceptible
809,8,1,35,-5.01,2,0,0,Resistant
809,8,1,35,-6.03,2,0,0,Susceptible
79,5,2,24,-1.58,2,0,0,Susceptible
886,9,1,34,-5.33,2,0,0,Resistant
110,7,1,20,-2.83,2,0,0,Resistant
110,7,1,20,-3.2,2,0,0,Resistant
1142,9,1,36,-6.03,2,0,0,Susceptible
1218,10,1,20,-2.38,2,0,0,Susceptible
1218,10,1,20,-3.61,2,0,0,Resistant
218,8,0,74,-3.33,2,0,0,Susceptible
726,6,0,82,-4.81,2,0,0,Susceptible
726,6,0,82,-6.11,2,0,0,Susceptible
726,6,0,82,-5.33,2,0,0,Susceptible
0,4,0,12,-3.24,2,0,0,Susceptible
0,5,0,30,-5.16,2,0,0,Susceptible
786,6,1,35,-5.01,2,0,0,Resistant
786,6,1,35,-6.03,2,0,0,Susceptible
69,3,2,24,-1.58,2,0,0,Susceptible
911,9,1,34,-5.33,2,0,0,Resistant
92,9,1,20,-2.83,2,0,0,Susceptible
92,9,1,20,-3.2,2,0,0,Resistant
1118,8,1,36,-6.03,2,0,0,Susceptible
1230,9,1,20,-2.38,2,0,0,Susceptible
1230,9,1,20,-3.61,2,0,0,Resistant
102,12,0,74,-3.33,2,0,0,Susceptible
553,10,0,82,-4.81,2,0,0,Susceptible
553,10,0,82,-6.11,2,0,0,Susceptible
553,10,0,82,-5.33,2,0,0,Susceptible
0,3,0,12,-3.24,2,0,0,Susceptible
0,1,0,30,-5.16,1,0,0,Susceptible
725,8,1,35,-5.01,1,0,0,Susceptible
725,8,1,35,-6.03,1,0,0,Susceptible
46,2,2,24,-1.58,1,0,0,Susceptible
715,11,1,34,-5.33,1,0,0,Susceptible
107,12,1,20,-2.83,1,0,0,Susceptible
107,12,1,20,-3.2,1,0,0,Susceptible
1085,9,1,36,-6.03,1,0,0,Susceptible
1100,8,1,20,-2.38,1,0,0,Susceptible
1100,8,1,20,-3.61,1,0,0,Susceptible
260,10,0,74,-3.33,1,0,0,Susceptible
762,8,0,82,-4.81,1,0,0,Susceptible
762,8,0,82,-6.11,1,0,0,Susceptible
762,8,0,82,-5.33,1,0,0,Susceptible
0,9,0,12,-3.24,1,0,0,Susceptible
891,7,1,40,-4.2,2,0,189,Susceptible
0,9,0,0,-1.84,2,0,0,Susceptible
0,4,0,34,-4.35,2,0,0,Susceptible
1110,15,1,20,-6.65,2,6,194,Susceptible
1110,15,1,20,-4.51,2,6,194,Susceptible
1110,15,1,20,-5.33,2,6,194,Susceptible
1526,22,1,20,-4.81,1,2,151,Susceptible
1526,22,1,20,-6.11,1,2,151,Susceptible
1526,22,1,20,-6.65,1,2,151,Susceptible
1526,22,1,20,-5.33,1,2,151,Resistant
0,10,0,8,-2.69,1,0,0,Susceptible
0,4,0,31,-2.83,1,0,0,Susceptible
995,9,1,20,-4.81,3,0,0,Resistant
995,9,1,20,-6.11,3,0,0,Resistant
995,9,1,20,-6.65,3,0,0,Susceptible
995,9,1,20,-5.33,3,0,0,Resistant
0,12,0,8,-2.69,3,0,0,Susceptible
0,4,0,31,-2.83,3,0,0,Susceptible
404,6,1,40,-4.2,1,1,38,Susceptible
960,21,1,20,-6.11,1,1,136,Resistant
960,21,1,20,-6.65,1,1,136,Susceptible
586,4,1,40,-4.2,1,1,38,Susceptible
1121,21,1,20,-6.11,1,0,150,Resistant
1121,21,1,20,-6.65,1,0,150,Susceptible
627,8,1,20,-4.81,2,0,0,Susceptible
627,8,1,20,-6.11,2,0,0,Susceptible
627,8,1,20,-6.65,2,0,0,Susceptible
627,8,1,20,-5.33,2,0,0,Susceptible
0,10,0,8,-2.69,2,0,0,Susceptible
0,4,0,31,-2.83,2,0,0,Susceptible
589,7,1,20,-4.81,2,0,0,Susceptible
589,7,1,20,-6.11,2,0,0,Susceptible
589,7,1,20,-6.65,2,0,0,Susceptible
589,7,1,20,-5.33,2,0,0,Susceptible
0,11,0,8,-2.69,2,0,0,Susceptible
0,4,0,31,-2.83,2,0,0,Susceptible
585,9,1,20,-4.81,1,0,0,Susceptible
585,9,1,20,-6.11,1,0,0,Susceptible
585,9,1,20,-6.65,1,0,0,Susceptible
585,9,1,20,-5.33,1,0,0,Susceptible
0,12,0,8,-2.69,1,0,0,Susceptible
0,3,0,31,-2.83,1,0,0,Susceptible
