ID,group,ATP_d_VDWClash,Inter-Acc:Hydro-10.00,ATP_Inter-Acc:Pos-4.00,FITW660101,Hydrophobe_Count,ATP_Inter-Acc:Acc-8.00,ATP_d_WeakPolar,Inter-Aro:Pos-10.00,ATP_Acc:Aro-10.00,Phenotype
1,244,0,0,0,1,14,0,0,0,146,Susceptible
2,248,0,238,0,1,14,40,1,0,247,Susceptible
3,248,-2,238,0,1,14,40,-1,0,247,Susceptible
4,250,-2,23,1,1,14,94,1,0,139,Susceptible
5,253,3,292,1,1,14,66,2,8,148,Susceptible
6,253,3,292,1,1,14,66,1,8,148,Susceptible
7,255,1,27,1,1,14,34,1,1,130,Susceptible
8,255,-1,27,1,1,14,34,0,1,130,Susceptible
9,279,1,0,0,1,14,0,0,0,77,Susceptible
10,299,-3,233,1,1,14,9,-2,8,175,Susceptible
11,315,0,195,1,1,14,7,-1,11,124,Susceptible
12,315,-1,195,1,1,14,7,-1,11,124,Susceptible
13,315,0,195,1,2,14,7,-1,11,124,Susceptible
14,343,1,0,0,1,14,0,-1,0,352,Susceptible
15,351,-5,0,0,1,14,0,-6,0,584,Susceptible
16,359,-2,0,0,1,14,0,-2,0,366,Susceptible
17,359,0,0,0,1,14,0,-1,0,366,Susceptible
18,384,2,0,1,1,14,55,-1,0,338,Susceptible
19,396,0,0,0,1,14,0,0,0,47,Susceptible
20,486,1,0,0,1,14,0,0,0,380,Susceptible
21,244,0,0,0,1,14,0,0,0,146,Susceptible
22,248,0,230,0,1,14,40,1,10,247,Resistant
23,248,-2,230,0,1,14,40,-1,10,247,Susceptible
24,250,-2,56,1,1,14,94,1,5,139,Susceptible
25,253,3,74,1,1,14,66,2,6,148,Susceptible
26,255,1,42,1,1,14,34,1,2,130,Susceptible
27,255,-1,42,1,1,14,34,0,2,130,Susceptible
28,299,-3,189,1,1,14,9,-2,4,175,Resistant
29,315,0,261,1,1,14,7,-1,13,124,Susceptible
30,315,-1,261,1,1,14,7,-1,13,124,Resistant
31,351,-5,0,0,1,14,0,-6,0,584,Susceptible
32,359,0,0,0,1,14,0,0,0,366,Susceptible
33,359,-2,0,0,1,14,0,-2,0,366,Susceptible
34,359,0,0,0,1,14,0,-1,0,366,Susceptible
35,396,0,0,0,1,14,0,0,0,47,Susceptible
36,244,0,0,0,1,7,0,0,0,146,Susceptible
37,248,0,0,0,1,7,40,1,0,247,Susceptible
38,248,-2,0,0,1,7,40,-1,0,247,Susceptible
39,250,-2,0,1,1,7,94,1,0,139,Susceptible
40,253,3,0,1,1,7,66,2,0,148,Susceptible
41,255,1,0,1,1,7,34,1,0,130,Susceptible
42,255,-1,0,1,1,7,34,0,0,130,Resistant
43,299,-3,0,1,1,7,9,-2,0,175,Resistant
44,315,0,0,1,1,7,7,-1,0,124,Resistant
45,315,-1,0,1,1,7,7,-1,0,124,Resistant
46,351,-5,0,0,1,7,0,-6,0,584,Susceptible
47,359,0,0,0,1,7,0,0,0,366,Susceptible
48,359,-2,0,0,1,7,0,-2,0,366,Susceptible
49,359,0,0,0,1,7,0,-1,0,366,Susceptible
50,396,0,0,0,1,7,0,0,0,47,Susceptible
51,253,3,51,1,1,13,66,2,3,148,Susceptible
52,255,1,34,1,1,13,34,1,0,130,Susceptible
53,315,-1,275,1,1,13,7,-1,14,124,Susceptible
54,351,-5,0,0,1,13,0,-6,0,584,Susceptible
55,253,3,99,1,1,13,66,2,16,148,Susceptible
56,255,1,11,1,1,13,34,1,1,130,Susceptible
57,351,-5,0,0,1,13,0,-6,0,584,Susceptible
58,244,0,0,0,1,13,0,0,0,146,Susceptible
59,248,0,0,0,1,13,40,1,0,247,Resistant
60,248,-2,0,0,1,13,40,-1,0,247,Susceptible
61,250,-2,0,1,1,13,94,1,0,139,Resistant
62,253,3,0,1,1,13,66,2,0,148,Resistant
63,255,1,0,1,1,13,34,1,0,130,Resistant
64,255,-1,0,1,1,13,34,0,0,130,Resistant
65,299,-3,0,1,1,13,9,-2,0,175,Susceptible
66,315,0,0,1,1,13,7,-1,0,124,Susceptible
67,315,-1,0,1,1,13,7,-1,0,124,Resistant
68,351,-5,0,0,1,13,0,-6,0,584,Susceptible
69,359,0,0,0,1,13,0,0,0,366,Susceptible
70,359,-2,0,0,1,13,0,-2,0,366,Susceptible
71,359,0,0,0,1,13,0,-1,0,366,Susceptible
72,396,0,0,0,1,13,0,0,0,47,Susceptible
73,244,0,0,0,1,13,0,0,0,146,Susceptible
74,248,0,0,0,1,13,40,1,0,247,Resistant
75,248,-2,0,0,1,13,40,-1,0,247,Susceptible
76,250,-2,0,1,1,13,94,1,0,139,Susceptible
77,253,3,0,1,1,13,66,2,0,148,Resistant
78,255,1,0,1,1,13,34,1,0,130,Resistant
79,255,-1,0,1,1,13,34,0,0,130,Resistant
80,299,-3,0,1,1,13,9,-2,0,175,Susceptible
81,315,0,0,1,1,13,7,-1,0,124,Susceptible
82,315,-1,0,1,1,13,7,-1,0,124,Resistant
83,351,-5,0,0,1,13,0,-6,0,584,Susceptible
84,359,0,0,0,1,13,0,0,0,366,Susceptible
85,359,-2,0,0,1,13,0,-2,0,366,Susceptible
86,359,0,0,0,1,13,0,-1,0,366,Susceptible
87,396,0,0,0,1,13,0,0,0,47,Susceptible
88,244,0,0,0,1,14,0,0,0,146,Susceptible
89,248,0,0,0,1,14,40,1,0,247,Susceptible
90,248,-2,0,0,1,14,40,-1,0,247,Susceptible
91,250,-2,0,1,1,14,94,1,0,139,Susceptible
92,253,3,0,1,1,14,66,2,0,148,Susceptible
93,255,1,0,1,1,14,34,1,0,130,Susceptible
94,255,-1,0,1,1,14,34,0,0,130,Resistant
95,299,-3,0,1,1,14,9,-2,0,175,Susceptible
96,315,0,0,1,1,14,7,-1,0,124,Susceptible
97,315,-1,0,1,1,14,7,-1,0,124,Susceptible
98,351,-5,0,0,1,14,0,-6,0,584,Susceptible
99,359,0,0,0,1,14,0,0,0,366,Susceptible
100,359,-2,0,0,1,14,0,-2,0,366,Susceptible
101,359,0,0,0,1,14,0,-1,0,366,Susceptible
102,396,0,0,0,1,14,0,0,0,47,Susceptible
156,315,1,196,0,1,14,22,1,11,133,Resistant
157,315,0,183,0,2,14,19,1,10,150,Resistant
