Clash,Covalent,VDWClash,VDW,Proximal,Hbond,WeakHbond,Halogen,Ionic,Metal,Aromatic,Hydrophobic,Carbonyl,Polar,WeakPolar,Carbon-PI,Amide-Amide,PI-PI,Amide-Ring,Donor-PI,Cation-PI,MetalSulphur-PI,d_Clash,d_Covalent,d_VDWClash,d_VDW,d_Proximal,d_Hbond,d_WeakHbond,d_Halogen,d_Ionic,d_Metal,d_Aromatic,d_Hydrophobic,d_Carbonyl,d_Polar,d_WeakPolar,d_Donor-PI,d_Amide-Amide,d_PI-PI,d_Cation-PI,d_MetalSulphur-PI,d_Amide-Ring,d_Carbon-PI
0,0,0,0,50,0,2,0,0,0,0,13,0,0,0,1,0,0,0,0,0,1,0,0,0,0,29,0,2,0,0,0,0,11,0,0,0,0,0,0,0,1,0,0
0,0,3,1,100,2,0,0,0,0,0,17,0,3,0,5,0,10,1,0,0,0,0,0,-44,-6,-29,1,0,0,0,0,0,6,0,-1,0,-1,0,0,0,0,0,-2
0,0,3,1,100,2,0,0,0,0,0,17,0,3,0,5,0,10,1,0,0,0,0,0,-2,1,32,0,-2,0,0,0,0,7,0,0,-1,0,0,0,0,0,1,1
0,0,1,2,14,0,0,0,0,0,0,0,0,1,0,1,0,6,0,0,0,0,0,0,1,-1,0,0,0,0,0,0,0,0,0,0,0,0,0,6,0,0,0,0
0,0,2,3,41,2,0,0,0,0,0,0,0,2,2,1,0,6,0,0,0,0,0,0,0,3,-1,-1,0,0,0,0,0,0,0,-2,2,0,0,-2,0,0,0,1
0,0,3,2,107,3,2,0,0,0,7,20,0,3,2,5,0,8,1,2,0,0,0,0,-1,0,9,2,2,0,0,0,-13,-14,0,1,2,1,0,-2,0,0,0,0
0,0,3,2,107,3,2,0,0,0,7,20,0,3,2,5,0,8,1,2,0,0,0,0,1,-5,30,2,1,0,0,0,-11,16,0,1,-3,1,0,-2,0,0,0,0
0,0,3,0,67,2,2,0,1,0,0,1,0,2,1,2,0,6,0,0,0,0,0,0,3,-1,-9,1,0,0,1,0,0,0,0,1,1,0,0,0,0,0,0,0
0,0,3,0,67,2,2,0,1,0,0,1,0,2,1,2,0,6,0,0,0,0,0,0,0,-1,14,0,0,0,1,0,0,-2,0,1,-1,0,0,0,0,0,0,0
0,0,0,0,17,0,0,0,0,0,0,0,0,0,0,0,2,0,0,0,0,0,0,0,0,0,1,0,0,0,0,0,0,0,0,0,0,0,0,0,0,0,0,0
0,0,2,1,50,2,1,0,0,0,0,1,0,4,2,2,0,0,0,0,0,0,0,0,0,-1,0,-1,-1,0,0,0,0,0,0,0,0,0,-1,0,0,0,0,1
0,0,2,0,41,3,1,0,1,0,0,0,0,4,0,5,0,0,0,0,0,0,0,0,2,-2,11,1,1,0,1,0,0,0,0,2,0,0,0,0,0,0,0,4
0,0,1,0,71,1,1,0,0,0,0,5,0,1,0,2,0,8,2,0,0,0,0,0,-1,-1,-12,0,0,0,0,0,0,-11,0,0,0,0,0,6,0,0,2,0
0,0,2,1,83,2,4,0,0,0,0,2,1,2,2,4,0,6,1,0,0,0,0,0,0,0,23,0,2,0,0,0,0,1,0,0,0,0,0,0,0,0,1,3
0,0,2,1,83,2,4,0,0,0,0,2,1,2,2,4,0,6,1,0,0,0,0,0,-2,0,-11,0,3,0,0,0,0,-10,0,0,0,0,0,0,0,0,1,0
0,0,2,1,83,2,4,0,0,0,0,2,1,2,2,4,0,6,1,0,0,0,0,0,-1,0,-1,0,2,0,0,0,0,-5,0,0,0,0,0,0,0,0,1,2
0,0,0,0,111,0,0,0,0,0,2,11,0,0,1,2,0,6,1,0,0,0,0,0,-1,-1,37,0,-1,0,0,0,2,1,0,0,1,0,-1,4,0,0,1,1
0,0,0,0,111,0,0,0,0,0,2,11,0,0,1,2,0,6,1,0,0,0,0,0,-1,-1,23,0,-1,0,0,0,2,9,0,0,0,0,-1,4,0,0,1,1
0,0,0,0,111,0,0,0,0,0,2,11,0,0,1,2,0,6,1,0,0,0,0,0,-3,-1,57,0,0,0,0,0,2,8,0,0,-1,0,0,4,0,0,1,1
0,0,2,3,104,3,3,0,0,0,0,14,0,6,2,6,0,0,0,1,0,0,0,0,-2,1,12,0,0,0,0,0,0,12,0,0,-1,0,0,0,0,0,0,4
0,0,3,2,117,2,3,0,0,0,0,22,0,6,2,4,1,4,2,0,0,2,0,0,-5,-1,13,0,1,0,0,0,0,15,0,1,-4,-1,-1,0,0,2,1,1
0,0,2,2,135,1,3,0,0,0,0,23,1,2,2,6,0,0,0,0,0,0,0,0,-1,0,47,0,0,0,0,0,0,12,0,0,0,0,0,0,0,0,0,6
0,0,2,2,135,1,3,0,0,0,0,23,1,2,2,6,0,0,0,0,0,0,0,0,0,-4,63,0,3,0,0,0,0,16,0,0,-1,0,0,0,0,0,0,5
0,0,2,1,95,1,1,0,0,0,0,10,0,1,2,2,0,0,1,0,0,1,0,0,0,0,-5,0,-1,0,0,0,0,-6,0,0,0,0,0,0,0,-1,0,0
0,0,2,0,32,1,0,0,0,0,0,0,0,2,2,1,0,0,0,0,0,0,0,0,1,-1,7,-4,-1,0,-5,0,0,0,0,-1,1,0,0,0,0,0,0,1
0,0,3,2,177,3,1,0,0,0,1,35,0,5,1,3,1,2,2,0,0,2,0,0,1,0,84,-1,0,0,0,0,1,35,0,0,-1,0,1,2,0,2,1,3
0,0,0,0,48,0,0,0,0,0,0,12,0,0,0,1,0,0,0,0,0,2,0,0,-1,0,27,0,0,0,0,0,0,8,0,0,0,0,0,0,0,2,0,1
0,0,1,0,93,1,2,0,0,0,0,7,0,2,2,2,0,4,1,0,0,0,0,0,-9,-1,-45,-1,0,0,0,0,0,7,0,-2,0,0,0,0,-1,0,1,1
0,0,1,0,93,1,2,0,0,0,0,7,0,2,2,2,0,4,1,0,0,0,0,0,-3,-1,39,0,1,0,0,0,0,3,0,0,-1,0,0,0,0,0,1,2
0,0,0,0,35,0,0,0,0,0,0,0,0,0,0,0,2,2,0,0,0,0,0,0,-3,-1,-22,0,-1,0,-1,0,0,-3,0,0,-1,0,-2,2,0,0,0,0
0,0,3,0,67,0,1,0,0,0,4,7,0,0,3,0,2,6,0,0,0,0,0,0,1,-1,7,0,-1,0,0,0,1,0,0,0,0,0,-1,4,0,0,0,0
0,0,5,1,103,3,4,0,1,0,0,2,1,4,4,0,2,0,0,0,0,0,0,0,2,1,-4,1,2,0,1,0,0,-3,0,2,3,0,0,0,0,0,0,0
0,0,5,1,103,3,4,0,1,0,0,2,1,4,4,0,2,0,0,0,0,0,0,0,3,1,11,1,1,0,1,0,0,-4,1,2,1,0,0,0,0,0,0,0
0,0,1,2,85,1,3,0,0,0,0,4,0,2,2,4,0,6,1,0,0,0,0,0,-1,0,-12,0,1,0,0,0,0,-9,0,-1,1,0,0,2,0,0,0,0
0,0,4,1,97,3,5,0,0,0,0,3,0,3,2,2,0,6,1,0,0,0,0,0,3,0,31,1,4,0,0,0,0,2,0,1,-1,0,0,2,0,0,1,1
0,0,4,1,97,3,5,0,0,0,0,3,0,3,2,2,0,6,1,0,0,0,0,0,-6,0,-13,1,1,0,0,0,0,-9,0,1,0,0,0,2,0,0,0,0
0,0,1,0,111,0,1,0,0,0,0,15,0,1,0,3,0,4,1,0,0,0,0,0,1,0,63,0,1,0,0,0,0,14,0,0,0,0,0,2,0,0,1,1
0,0,1,0,111,0,1,0,0,0,0,15,0,1,0,3,0,4,1,0,0,0,0,0,1,-1,39,0,0,0,0,0,0,9,0,1,-1,0,0,2,0,0,1,1
0,0,1,0,111,0,1,0,0,0,0,15,0,1,0,3,0,4,1,0,0,0,0,0,0,0,41,0,1,0,0,0,0,8,0,1,0,0,0,2,0,0,1,1
0,0,1,0,111,0,1,0,0,0,0,15,0,1,0,3,0,4,1,0,0,0,0,0,1,0,55,0,1,0,0,0,0,11,0,1,-1,0,0,2,0,0,1,1
0,0,3,1,123,2,2,0,0,0,0,24,0,5,2,2,1,4,1,0,0,2,0,0,-3,0,19,-2,1,0,0,0,0,20,0,-1,-3,0,0,0,0,2,1,-1
0,0,2,5,114,6,3,0,0,0,0,4,0,7,3,2,1,0,1,0,0,0,0,0,1,4,57,3,2,0,0,0,0,2,0,3,3,0,0,0,0,0,0,1
0,0,2,2,145,1,1,0,0,0,0,23,1,2,4,5,0,0,0,0,0,0,0,0,1,1,73,0,-1,0,0,0,0,21,0,0,3,0,0,0,0,0,0,4
0,0,2,2,145,1,1,0,0,0,0,23,1,2,4,5,0,0,0,0,0,0,0,0,-1,1,49,0,-2,0,0,0,0,8,-1,0,0,0,0,0,0,0,0,4
0,0,2,2,145,1,1,0,0,0,0,23,1,2,4,5,0,0,0,0,0,0,0,0,-1,-1,63,0,-2,0,0,0,0,14,-1,0,1,0,0,0,0,0,0,4
0,0,1,2,40,2,0,0,0,0,0,0,0,3,1,1,0,0,1,0,0,0,0,0,0,1,20,0,0,0,0,0,0,0,0,1,0,0,0,0,0,0,0,1
0,0,0,2,36,1,1,0,0,0,0,0,0,1,2,5,0,0,0,0,0,6,0,0,0,2,2,0,0,0,0,0,0,0,0,0,1,0,0,0,0,0,0,0
0,0,1,0,55,0,1,0,0,0,0,13,0,0,1,4,0,0,0,0,0,2,0,0,0,0,11,0,1,0,0,0,0,9,0,0,1,0,0,0,0,2,0,1
0,0,1,0,91,1,0,0,0,0,0,8,0,1,0,5,2,4,0,0,0,0,0,0,-8,-2,21,-1,-1,0,-1,0,0,2,0,0,-2,0,2,4,0,0,0,3
0,0,1,0,91,1,0,0,0,0,0,8,0,1,0,5,2,4,0,0,0,0,0,0,-2,-2,38,0,-1,0,0,0,0,3,0,0,-1,0,2,0,0,0,0,2
0,0,0,0,13,0,0,0,0,0,0,0,0,0,0,0,0,0,0,0,0,0,0,0,-13,-1,-72,-2,-6,0,-2,0,0,-4,0,-3,-10,0,0,0,0,0,0,-1
0,0,0,0,18,0,0,0,0,0,0,0,0,0,0,0,0,2,0,0,0,0,0,0,0,0,-3,0,0,0,0,0,0,0,0,-1,0,0,0,2,0,0,0,0
0,0,3,1,89,3,3,0,0,0,0,1,1,3,3,1,0,0,0,0,0,0,0,0,0,1,17,2,0,0,0,0,0,0,1,2,1,0,0,0,0,0,0,0
0,0,3,1,89,3,3,0,0,0,0,1,1,3,3,1,0,0,0,0,0,0,0,0,-1,1,24,2,0,0,0,0,0,0,1,2,1,0,0,0,0,0,0,0
0,0,4,0,91,1,3,0,0,0,0,9,0,3,1,4,2,4,0,0,0,0,0,0,-1,-3,-14,0,0,0,0,0,0,-6,0,0,-1,0,2,0,0,0,0,1
0,0,3,4,108,3,3,0,0,0,0,8,0,3,4,3,2,4,0,0,0,1,0,0,1,2,35,1,2,0,0,0,0,5,-1,1,1,0,0,0,0,1,0,2
0,0,3,4,108,3,3,0,0,0,0,8,0,3,4,3,2,4,0,0,0,1,0,0,-6,0,-14,1,1,0,0,0,0,-15,-1,1,0,0,0,0,0,0,0,1
0,0,0,0,127,0,0,0,0,0,2,15,0,0,0,5,2,4,0,0,0,0,0,0,0,0,76,0,0,0,0,0,2,14,0,0,0,0,0,4,0,0,0,3
0,0,0,0,127,0,0,0,0,0,2,15,0,0,0,5,2,4,0,0,0,0,0,0,0,-2,53,0,-1,0,0,0,2,7,0,0,-1,0,0,4,0,0,0,2
0,0,0,0,127,0,0,0,0,0,2,15,0,0,0,5,2,4,0,0,0,0,0,0,0,-1,56,0,0,0,0,0,2,8,0,0,0,0,0,4,0,0,0,2
0,0,0,0,127,0,0,0,0,0,2,15,0,0,0,5,2,4,0,0,0,0,0,0,-3,-2,75,0,0,0,0,0,2,11,0,0,-2,0,0,4,0,0,0,4
0,0,3,3,125,2,3,0,0,0,0,24,0,4,2,3,0,4,1,0,0,1,0,0,-5,-1,20,0,1,0,0,0,0,17,0,0,-3,-1,0,0,0,1,0,1
0,0,5,5,108,6,4,0,0,0,0,6,0,8,5,4,0,0,0,0,0,0,0,0,3,3,54,3,3,0,0,0,0,2,0,5,3,0,0,0,0,0,0,3
0,0,2,1,134,1,4,0,0,0,0,22,0,2,4,3,0,0,0,0,0,0,0,0,0,1,58,-1,-2,0,0,0,0,20,0,-1,3,0,0,0,0,0,0,3
0,0,2,1,134,1,4,0,0,0,0,22,0,2,4,3,0,0,0,0,0,0,0,0,-2,1,31,0,1,0,0,0,0,4,-1,0,0,0,0,0,0,0,0,2
0,0,2,1,134,1,4,0,0,0,0,22,0,2,4,3,0,0,0,0,0,0,0,0,1,0,48,0,-1,0,0,0,0,14,0,0,1,0,0,0,0,0,0,3
0,0,0,2,39,0,1,0,0,0,0,0,0,2,2,1,0,0,1,0,0,0,0,0,-1,2,15,0,1,0,0,0,0,0,0,0,1,0,0,0,0,0,0,1
0,0,0,1,35,1,0,0,0,0,0,0,0,2,1,6,0,0,0,0,0,7,0,0,0,1,-8,0,0,0,0,0,0,0,0,1,0,0,0,0,0,1,0,1
0,0,2,1,63,1,1,0,0,0,0,0,0,1,1,0,2,6,0,0,0,0,0,0,1,1,44,1,1,0,0,0,0,0,0,0,1,0,0,6,0,0,0,0
0,0,3,0,67,0,1,0,0,0,4,7,0,0,3,0,2,6,0,0,0,0,0,0,1,-1,7,0,-1,0,0,0,1,0,0,0,0,0,-1,4,0,0,0,0
0,0,5,1,103,3,4,0,1,0,0,2,1,4,4,0,2,2,0,0,0,0,0,0,2,1,-4,1,2,0,1,0,0,-3,0,2,3,0,0,2,0,0,0,0
0,0,2,0,95,3,3,0,0,0,0,8,0,3,1,3,0,4,1,1,0,1,0,0,-1,-1,-19,1,1,0,0,0,0,-10,0,1,-3,1,0,2,0,0,1,0
0,0,0,0,99,0,1,0,0,0,0,13,0,1,0,2,0,2,1,1,0,0,0,0,0,0,21,0,0,0,0,0,0,5,0,1,-1,0,0,0,0,0,1,1
0,0,0,0,99,0,1,0,0,0,0,13,0,1,0,2,0,2,1,1,0,0,0,0,-1,0,42,0,1,0,0,0,0,8,0,1,0,0,0,0,0,0,1,1
0,0,3,1,123,2,2,0,0,0,0,24,0,5,2,2,1,4,1,0,0,2,0,0,-3,0,19,-2,1,0,0,0,0,20,0,-1,-3,0,0,0,0,2,1,-1
0,0,2,2,72,1,1,0,0,0,0,0,0,1,1,0,2,6,0,0,0,0,0,0,1,2,53,1,1,0,0,0,0,0,0,0,1,0,0,6,0,0,0,0
0,0,3,0,67,0,1,0,0,0,4,7,0,0,3,0,2,6,0,0,0,0,0,0,1,-1,13,0,0,0,0,0,4,3,0,0,1,0,0,0,0,0,0,0
0,0,5,1,103,3,4,0,1,0,0,2,1,4,4,0,2,2,0,0,0,0,0,0,2,1,-4,1,2,0,1,0,0,-3,0,2,3,0,0,2,0,0,0,0
0,0,0,0,109,0,1,0,0,0,0,14,0,1,0,3,0,4,1,1,0,0,0,0,0,-1,34,0,0,0,0,0,0,8,0,1,-1,0,0,2,0,0,1,1
0,0,0,0,109,0,1,0,0,0,0,14,0,1,0,3,0,4,1,1,0,0,0,0,0,-1,48,0,1,0,0,0,0,8,0,1,0,0,0,2,0,0,1,1
0,0,3,1,123,2,2,0,0,0,0,24,0,5,2,2,1,4,1,0,0,2,0,0,-3,0,19,-2,1,0,0,0,0,20,0,-1,-3,0,0,0,0,2,1,-1
0,0,0,0,41,0,0,0,0,0,0,11,0,0,0,1,0,0,0,0,0,1,0,0,0,0,23,0,0,0,0,0,0,11,0,0,0,0,0,0,0,1,0,0
0,0,4,0,99,1,2,0,0,0,0,17,1,4,0,4,0,4,1,0,0,0,0,0,2,-2,10,0,1,0,0,0,0,12,1,1,-1,0,0,0,0,0,1,2
0,0,4,0,99,1,2,0,0,0,0,17,1,4,0,4,0,4,1,0,0,0,0,0,1,-1,22,0,0,0,0,0,0,6,1,1,-2,0,0,0,0,0,1,2
0,0,2,0,27,0,0,0,0,0,0,0,1,1,0,1,0,0,0,0,0,0,0,0,1,-1,13,0,0,0,0,0,0,0,1,0,0,0,0,0,0,0,0,0
0,0,3,1,108,2,3,0,0,0,6,17,0,2,2,4,0,4,0,0,0,0,0,0,-2,-2,-1,2,1,0,0,0,-1,-16,0,1,0,0,0,0,0,0,0,0
0,0,4,1,87,2,2,0,1,0,0,3,0,4,3,0,0,0,0,0,0,0,0,0,-3,1,-3,2,-1,0,1,0,0,-2,0,4,-2,0,0,0,0,0,0,0
0,0,4,1,87,2,2,0,1,0,0,3,0,4,3,0,0,0,0,0,0,0,0,0,-3,-1,9,2,-2,0,1,0,0,-1,0,4,-4,0,0,0,0,0,0,0
0,0,1,0,62,1,0,0,0,0,0,8,0,1,1,1,0,2,1,0,0,2,0,0,-3,-1,-12,0,-1,0,0,0,0,-6,0,-1,1,0,0,2,0,2,1,-1
0,0,4,2,105,3,3,0,0,0,0,8,0,3,3,1,0,2,1,0,0,2,0,0,2,0,37,1,1,0,0,0,0,5,0,1,0,0,0,0,0,2,1,1
0,0,4,2,105,3,3,0,0,0,0,8,0,3,3,1,0,2,1,0,0,2,0,0,-1,-4,-11,1,0,0,0,0,0,-13,0,1,-2,0,0,0,0,0,0,0
0,0,0,0,98,0,0,0,0,0,6,13,0,0,1,4,0,2,1,0,0,0,0,0,0,0,49,0,0,0,0,0,6,12,0,0,1,0,0,2,0,0,1,3
0,0,0,0,98,0,0,0,0,0,6,13,0,0,1,4,0,2,1,0,0,0,0,0,-2,0,31,0,0,0,0,0,6,9,0,0,-1,0,0,2,0,0,1,3
0,0,0,0,98,0,0,0,0,0,6,13,0,0,1,4,0,2,1,0,0,0,0,0,-1,-1,32,0,0,0,0,0,6,6,0,0,0,0,0,2,0,0,1,3
0,0,0,0,98,0,0,0,0,0,6,13,0,0,1,4,0,2,1,0,0,0,0,0,-1,-1,41,0,0,0,0,0,6,10,0,0,-1,0,0,2,0,0,1,3
0,0,5,2,123,2,3,0,0,0,0,24,0,6,3,2,1,2,1,0,0,2,0,0,-1,-1,19,0,3,0,0,0,0,17,0,-1,2,-1,0,0,0,2,1,0
0,0,6,1,121,5,3,0,0,0,0,4,0,8,4,3,1,0,1,0,0,1,0,0,4,-1,62,3,2,0,0,0,0,1,0,3,2,0,0,0,0,1,0,1
0,0,1,1,90,1,1,0,0,0,0,13,0,2,0,1,0,0,0,0,0,0,0,0,0,1,41,-1,0,0,0,0,0,11,0,0,0,0,0,0,0,0,0,0
0,0,1,1,90,1,1,0,0,0,0,13,0,2,0,1,0,0,0,0,0,0,0,0,-2,1,28,0,0,0,0,0,0,5,-1,0,0,0,0,0,0,0,0,1
0,0,1,1,90,1,1,0,0,0,0,13,0,2,0,1,0,0,0,0,0,0,0,0,-2,0,41,0,-1,0,0,0,0,9,0,0,0,0,0,0,0,0,0,1
0,0,5,4,91,2,0,0,0,0,4,5,2,5,2,3,0,4,0,0,0,0,0,0,3,0,11,0,0,0,0,0,4,0,1,1,0,0,0,4,0,0,0,3
0,0,1,1,30,0,1,0,0,0,0,0,0,1,2,3,0,0,1,1,0,6,0,0,1,0,-2,0,0,0,0,0,0,0,0,0,0,0,0,0,0,4,1,0
0,0,0,0,44,0,0,0,0,0,0,11,0,0,0,1,0,0,0,0,0,2,0,0,0,0,17,0,0,0,0,0,0,7,0,0,0,0,0,0,0,2,0,0
0,0,3,2,102,2,0,0,0,0,0,16,0,4,0,6,0,4,1,0,0,0,0,0,-11,0,-26,-2,-2,0,0,0,0,14,0,-2,-1,0,0,0,-1,0,0,2
0,0,3,2,102,2,0,0,0,0,0,16,0,4,0,6,0,4,1,0,0,0,0,0,0,0,31,0,-1,0,0,0,0,9,0,1,-1,0,0,0,0,0,1,2
0,0,1,1,17,0,0,0,0,0,0,0,0,1,0,1,0,0,0,0,0,0,0,0,-1,1,0,0,0,0,0,0,0,0,0,0,0,0,0,0,0,0,0,0
0,0,2,2,106,2,2,0,0,0,4,17,0,2,3,6,0,4,0,0,0,0,0,0,-4,1,3,2,1,0,0,0,0,-9,0,1,2,0,0,0,0,0,0,0
0,0,5,1,96,4,2,0,3,0,0,4,0,5,4,1,0,0,0,0,0,0,0,0,4,-1,21,2,-1,0,2,0,0,-1,0,3,2,0,0,0,0,0,0,0
0,0,5,1,96,4,2,0,3,0,0,4,0,5,4,1,0,0,0,0,0,0,0,0,4,0,28,3,0,0,3,0,0,-1,0,4,3,0,0,0,0,0,0,0
0,0,1,1,65,1,2,0,0,0,0,10,0,1,1,4,0,2,1,0,0,2,0,0,-5,1,-12,0,-2,0,0,0,0,-3,0,0,-1,0,0,0,0,2,0,2
0,0,7,1,99,3,3,0,0,0,0,8,1,3,3,3,0,2,1,0,0,2,0,0,3,1,29,1,2,0,0,0,0,5,0,1,0,0,0,0,0,2,1,3
0,0,7,1,99,3,3,0,0,0,0,8,1,3,3,3,0,2,1,0,0,2,0,0,0,-1,-15,1,1,0,0,0,0,-13,0,1,-1,0,0,0,0,0,0,2
0,0,0,1,99,0,1,0,0,0,3,14,0,0,0,3,0,2,1,0,0,0,0,0,0,1,54,0,1,0,0,0,3,13,0,-1,0,0,0,2,0,0,1,2
0,0,0,1,99,0,1,0,0,0,3,14,0,0,0,3,0,2,1,0,0,0,0,0,-1,-1,25,0,1,0,0,0,3,7,0,0,-2,0,0,2,0,0,1,2
0,0,0,1,99,0,1,0,0,0,3,14,0,0,0,3,0,2,1,0,0,0,0,0,-1,0,35,0,0,0,0,0,3,8,0,0,-1,0,0,2,0,0,1,1
0,0,0,1,99,0,1,0,0,0,3,14,0,0,0,3,0,2,1,0,0,0,0,0,0,-1,44,0,1,0,0,0,3,11,0,0,-2,0,0,2,0,0,1,2
0,0,2,3,121,3,2,0,0,0,0,25,0,6,2,4,1,4,3,0,0,2,0,0,-7,0,23,1,1,0,0,0,0,18,0,1,-5,-1,-1,2,0,2,3,2
0,0,5,1,116,4,3,0,0,0,0,6,0,8,1,3,1,0,1,0,0,0,0,0,2,1,52,2,2,0,0,0,0,2,0,3,-1,0,0,0,0,0,0,1
0,0,2,2,86,1,0,0,0,0,1,18,0,2,0,3,0,2,0,0,0,0,0,0,0,2,38,0,-1,0,0,0,1,15,0,0,0,0,0,2,0,0,0,2
0,0,2,2,86,1,0,0,0,0,1,18,0,2,0,3,0,2,0,0,0,0,0,0,0,2,26,0,-1,0,0,0,1,12,0,0,0,0,0,2,0,0,0,2
0,0,2,2,86,1,0,0,0,0,1,18,0,2,0,3,0,2,0,0,0,0,0,0,0,1,29,0,-1,0,0,0,1,13,0,0,-1,0,0,2,0,0,0,2
0,0,5,1,87,2,0,0,0,0,4,4,1,5,0,3,0,4,0,0,0,0,0,0,4,-1,37,0,0,0,0,0,4,-1,0,1,0,0,0,4,0,0,0,3
0,0,0,1,31,1,0,0,0,0,0,0,0,1,1,4,0,0,0,0,0,6,0,0,0,1,-2,0,-1,0,0,0,0,0,0,1,-1,0,0,0,0,0,0,0
0,0,0,0,46,0,1,0,0,0,0,11,0,0,0,1,0,0,0,0,0,2,0,0,0,0,16,0,1,0,0,0,0,7,0,0,0,0,0,0,0,2,0,0
0,0,1,1,106,2,1,0,0,0,0,9,0,3,1,5,0,12,1,0,0,0,0,0,0,-1,16,0,0,0,-1,0,0,3,0,1,0,0,0,6,0,0,0,1
0,0,1,1,106,2,1,0,0,0,0,9,0,3,1,5,0,12,1,0,0,0,0,0,-1,0,35,0,-1,0,0,0,0,0,0,1,-1,0,0,6,0,0,1,1
0,0,0,0,17,0,0,0,0,0,0,0,0,1,0,1,0,0,0,0,0,0,0,0,0,-1,-2,0,0,0,0,0,0,0,0,0,0,0,0,0,0,0,0,0
0,0,2,1,125,2,2,0,0,0,9,15,0,3,3,5,0,8,0,0,0,0,0,0,-1,0,4,2,1,0,0,0,-8,-10,0,2,1,0,0,0,0,0,0,0
0,0,3,2,88,4,2,0,2,0,0,3,0,4,2,3,0,2,0,0,0,0,0,0,3,0,-5,3,1,0,2,0,0,-4,0,3,1,0,0,2,0,0,0,2
0,0,3,2,88,4,2,0,2,0,0,3,0,4,2,3,0,2,0,0,0,0,0,0,2,1,10,3,1,0,2,0,0,-2,0,3,0,0,0,2,0,0,0,2
0,0,0,1,66,1,2,0,0,0,0,10,0,1,1,5,0,4,0,0,0,2,0,0,-4,-2,-9,0,-1,0,0,0,0,-6,0,0,0,0,0,-4,0,0,-1,1
0,0,2,1,101,2,3,0,0,0,0,9,0,2,3,3,0,8,1,0,0,2,0,0,1,-4,40,0,2,0,0,0,0,7,0,0,0,0,0,4,0,2,1,3
0,0,2,1,101,2,3,0,0,0,0,9,0,2,3,3,0,8,1,0,0,2,0,0,-5,1,-16,0,1,0,0,0,0,-17,0,0,0,0,0,4,0,0,1,-1
0,0,0,0,107,0,0,0,0,0,1,9,0,0,1,3,0,4,1,0,0,0,0,0,0,0,57,0,0,0,0,0,1,8,0,0,0,0,-1,4,0,0,1,2
0,0,0,0,107,0,0,0,0,0,1,9,0,0,1,3,0,4,1,0,0,0,0,0,-1,-1,35,0,-2,0,0,0,1,3,0,0,-1,0,0,4,0,0,1,2
0,0,0,0,107,0,0,0,0,0,1,9,0,0,1,3,0,4,1,0,0,0,0,0,-1,0,29,0,-2,0,0,0,1,4,0,0,0,0,-1,4,0,0,1,2
0,0,0,0,107,0,0,0,0,0,1,9,0,0,1,3,0,4,1,0,0,0,0,0,-1,0,49,0,0,0,0,0,1,6,0,0,0,0,-1,4,0,0,1,2
0,0,3,5,131,2,3,0,0,0,0,24,1,5,3,5,1,4,1,0,0,2,0,0,-5,1,21,0,2,0,0,0,0,17,1,1,-3,-1,0,2,0,2,1,3
0,0,6,2,117,6,1,0,0,0,0,6,0,8,4,4,1,0,1,0,0,0,0,0,3,1,61,3,0,0,0,0,0,4,0,3,2,0,0,0,0,0,0,1
0,0,2,1,86,1,0,0,0,0,0,11,0,2,0,1,0,0,0,0,0,0,0,0,1,0,39,-1,0,0,0,0,0,9,0,0,0,0,0,0,0,0,0,0
0,0,2,1,86,1,0,0,0,0,0,11,0,2,0,1,0,0,0,0,0,0,0,0,0,-1,19,0,-2,0,0,0,0,3,-1,0,0,0,0,0,0,0,0,0
0,0,2,1,86,1,0,0,0,0,0,11,0,2,0,1,0,0,0,0,0,0,0,0,0,-1,30,0,-2,0,0,0,0,6,-1,0,0,0,0,0,0,0,0,0
0,0,2,3,88,1,0,0,0,0,0,1,1,1,1,0,0,0,0,0,0,0,0,0,-2,2,-8,0,-2,0,0,0,0,0,0,0,-1,0,0,0,0,0,0,0
0,0,0,1,35,1,0,0,0,0,0,0,0,0,2,4,0,0,1,0,0,7,0,0,0,1,-1,0,-1,0,0,0,0,0,0,0,0,0,0,0,0,1,1,1
0,0,0,0,37,0,1,0,0,0,0,11,0,0,0,2,0,0,0,0,0,2,0,0,0,0,15,0,1,0,0,0,0,9,0,0,0,0,0,0,0,2,0,2
0,0,1,0,89,1,0,0,0,0,0,7,0,1,1,2,0,2,1,0,0,0,0,0,0,0,24,0,0,0,0,0,0,6,0,-1,1,0,0,0,0,0,1,0
0,0,1,0,89,1,0,0,0,0,0,7,0,1,1,2,0,2,1,0,0,0,0,0,-2,-1,36,0,-1,0,0,0,0,5,0,0,-1,0,0,0,0,0,1,0
0,0,1,0,40,0,0,0,0,0,0,0,0,0,2,1,0,0,0,0,0,0,0,0,-2,-2,-37,-1,-2,0,-1,0,0,-3,0,-1,1,0,0,0,0,0,0,1
0,0,2,1,35,2,0,0,0,0,0,0,0,2,1,1,0,0,0,0,0,0,0,0,-2,1,-1,-1,-1,0,0,0,0,0,0,-2,-2,0,0,0,0,0,0,1
0,0,3,1,121,1,3,0,0,0,0,9,0,3,3,2,0,0,0,0,0,0,0,0,3,-3,7,0,-1,0,0,0,0,-10,0,1,2,0,0,0,0,0,0,-1
0,0,3,1,121,1,3,0,0,0,0,9,0,3,3,2,0,0,0,0,0,0,0,0,3,-2,17,-1,-2,0,-1,0,0,5,0,-1,1,0,0,0,0,0,0,-1
0,0,2,2,90,3,2,0,1,0,0,2,1,5,2,2,0,0,0,0,0,0,0,0,1,2,6,0,0,0,1,0,0,-1,0,2,1,0,0,0,0,0,0,0
0,0,2,2,90,3,2,0,1,0,0,2,1,5,2,2,0,0,0,0,0,0,0,0,-1,1,6,0,1,0,1,0,0,-2,1,2,0,0,0,0,0,0,0,0
0,0,3,2,62,4,2,0,0,0,0,2,0,5,1,0,0,2,0,0,0,1,0,0,3,2,50,4,2,0,0,0,0,2,0,4,1,0,0,2,0,1,0,0
0,0,2,0,39,2,1,0,0,0,0,1,0,4,0,0,0,2,0,0,0,1,0,0,1,-1,3,0,0,0,0,0,0,0,0,0,0,0,0,0,0,0,0,0
0,0,3,1,50,4,2,0,0,0,0,0,0,5,0,4,0,0,0,0,0,0,0,0,-1,1,8,1,0,0,0,0,0,0,0,0,-2,0,0,0,0,0,0,3
0,0,1,2,82,1,2,0,0,0,0,9,0,1,2,1,0,2,1,0,0,0,0,0,-3,0,-5,0,-1,0,0,0,0,-4,0,0,-2,0,0,0,0,0,0,0
0,0,2,1,89,2,2,0,0,0,0,2,0,4,2,0,0,2,1,0,0,0,0,0,0,0,24,0,1,0,0,0,0,1,0,2,-1,0,0,0,0,0,1,0
0,0,2,1,89,2,2,0,0,0,0,2,0,4,2,0,0,2,1,0,0,0,0,0,-1,-1,-6,0,1,0,0,0,0,-5,0,2,-1,0,0,0,0,0,1,0
0,0,2,1,89,2,2,0,0,0,0,2,0,4,2,0,0,2,1,0,0,0,0,0,0,-2,5,0,0,0,0,0,0,-3,0,2,-1,0,0,0,0,0,1,0
0,0,0,0,106,0,0,0,0,0,3,12,0,1,0,1,0,2,1,0,0,0,0,0,0,0,56,0,-1,0,0,0,3,11,0,0,0,0,0,2,0,0,1,1
0,0,0,0,106,0,0,0,0,0,3,12,0,1,0,1,0,2,1,0,0,0,0,0,-1,0,24,0,-3,0,0,0,3,3,0,0,-2,0,0,2,0,0,1,1
0,0,0,0,106,0,0,0,0,0,3,12,0,1,0,1,0,2,1,0,0,0,0,0,-2,0,29,0,-2,0,0,0,3,7,0,0,-1,0,0,2,0,0,1,1
0,0,0,0,106,0,0,0,0,0,3,12,0,1,0,1,0,2,1,0,0,0,0,0,0,-1,5,0,-1,0,-4,0,3,9,0,0,0,0,0,2,0,0,1,1
0,0,0,0,106,0,0,0,0,0,3,12,0,1,0,1,0,2,1,0,0,0,0,0,-1,0,43,0,-1,0,0,0,3,7,0,0,-1,0,0,2,0,0,1,1
0,0,4,5,108,2,5,0,0,0,0,14,0,5,3,2,0,2,1,1,0,0,0,0,1,1,15,0,2,0,0,0,0,12,0,0,-1,0,0,2,0,0,0,0
0,0,4,2,126,3,3,0,0,0,0,25,0,6,2,7,1,6,2,1,0,2,0,0,-5,-2,29,1,2,0,0,0,0,18,0,0,-6,0,0,4,0,2,2,6
0,0,5,1,113,5,3,0,0,0,0,4,0,8,5,3,1,0,0,0,0,0,0,0,2,0,55,3,2,0,0,0,0,1,0,3,3,0,0,0,0,0,0,1
0,0,2,3,121,1,1,0,0,0,2,22,0,2,1,2,0,2,0,1,0,0,0,0,0,2,67,0,0,0,0,0,2,19,0,0,0,1,0,2,0,0,0,0
0,0,2,3,121,1,1,0,0,0,2,22,0,2,1,2,0,2,0,1,0,0,0,0,-2,2,52,0,-1,0,0,0,2,12,0,0,-2,1,0,2,0,0,0,1
0,0,2,3,121,1,1,0,0,0,2,22,0,2,1,2,0,2,0,1,0,0,0,0,0,2,63,0,-1,0,0,0,2,17,0,0,-1,1,0,2,0,0,0,1
0,0,4,3,93,3,1,0,0,0,0,15,0,3,1,3,0,2,0,1,0,0,0,0,2,1,1,1,-3,0,0,0,0,6,0,0,-1,0,0,0,0,0,0,1
0,0,1,1,36,1,0,0,0,0,0,1,0,2,0,0,1,0,0,0,0,0,0,0,0,0,7,0,0,0,0,0,0,0,0,1,0,0,1,0,0,0,0,0
0,0,0,0,32,0,1,0,0,0,0,0,0,1,2,3,0,0,2,0,0,6,0,0,0,0,0,0,0,0,0,0,0,0,0,0,1,0,0,0,0,0,0,0
0,0,3,2,173,3,2,0,0,0,1,35,0,5,1,4,1,2,1,0,0,2,0,0,1,0,78,-1,2,0,0,0,1,35,0,1,0,0,0,2,0,2,0,4
