V244M
R248L
V248L
E250G
H252Q
F253Y
H253Y
K255E
V255E
G276D
K279E
L292E
L299V
A315T
I315T
V315T
L317F
R317F
V317F
T343M
T351M
I359F
V359F
M384L
R396H
S486F
V244M
R248L
V248L
E250G
F253Y
K255E
V255E
L299V
A315T
I315T
C317F
I317F
L317F
V317F
T351M
A355E
C359F
I359F
V359F
R396H
K459E
V244M
R248L
V248L
E250G
F253Y
K255E
V255E
L299V
A315T
I315T
C317F
I317F
L317F
V317F
T351M
A355E
C359F
I359F
V359F
R396H
K459E
H252Q
F253Y
K255E
I315T
I317F
L317F
T351M
H252Q
F253Y
K255E
I317F
L317F
T351M
V244M
R248L
V248L
E250G
F253Y
K255E
V255E
L299V
A315T
I315T
C317F
I317F
L317F
V317F
T351M
A355E
C359F
I359F
V359F
R396H
K459E
V244M
R248L
V248L
E250G
F253Y
K255E
V255E
L299V
A315T
I315T
C317F
I317F
L317F
V317F
T351M
A355E
C359F
I359F
V359F
R396H
K459E
V244M
R248L
V248L
E250G
F253Y
K255E
V255E
L299V
A315T
I315T
C317F
I317F
L317F
V317F
T351M
A355E
C359F
I359F
V359F
R396H
K459E
V244M
R248L
V248L
E250G
H252Q
F253Y
H253Y
K255E
V255E
G276D
K279E
L292E
L299V
A315T
I315T
V315T
C317F
I317F
L317F
R317F
V317F
T343M
T351M
A355E
C359F
I359F
V359F
M384L
R396H
K459E
S486F
