,blind-test,feature_name,training
1,0.429,ATP_d_VDWClash,0.421
2,0.462,Inter-Don:Hydro-9.00,0.516
3,0.462,ATP_Inter-Aro:Don-3.00,0.516
4,0.429,ATP_Inter-Acc:Neut-3.00,0.529
5,0.486,LIG.TPSA,0.583
6,0.572,MEHP950103,0.655
7,0.572,Inter-Aro:Hydro-4.00,0.655
8,0.572,LIG.NUM_ROTATABLE_BONDS,0.655
9,0.572,Inter-Hydro:Hydro-4.00,0.655
10,0.571,Don:Pos-4.00,0.655
11,0.597,Neg:Neut-7.00,0.685
12,0.597,ATP_Inter-Acc:Hydro-4.00,0.685
13,0.571,Acc:Acc-5.00,0.65
14,0.572,Neg:Neut-4.00,0.65
15,0.572,ATP_Don:Don-6.00,0.65
16,0.572,KESO980101,0.61
17,0.669,Inter-Acc:Don-6.00,0.689
18,0.669,ATP_Hydro:Pos-6.00,0.689
19,0.758,Inter-Acc:Acc-5.00,0.689
20,0.597,Acc:Aro-3.00,0.645
21,0.669,ATP_Inter-Acc:Aro-4.00,0.648
