PDB_FILE,LIG.MOL_WEIGHT,LIG.ATOM_COUNT,LIG.LOGP,LIG.NUM_ACCEPTORS,LIG.NUM_DONORS,LIG.NUM_HETEROATOMS,LIG.NUM_ROTATABLE_BONDS,LIG.NUM_RINGS,LIG.LABUTE_ASA,LIG.TPSA,Hydro,Pos,Neg,Acc,Don,Aro,Sul,Neut,10,9,8,7,6,5,4,3,2,Inter-10.00,Inter-9.00,Inter-8.00,Inter-7.00,Inter-6.00,Inter-5.00,Inter-4.00,Inter-3.00,Inter-2.00
/home/yunzhuoz/Desktop/ABL_resist/Structures/4wa9_AXI_prep.pdb.M.244.V.env.pdb,386.48,28,4.6391,4,2,6,5,4,166.448825749,70.67,0,0,0,0,0,0,1,0,23709,19561,15522,11820,8175,5195,2860,1408,336,0,0,0,0,0,0,0,0,0
/home/yunzhuoz/Desktop/ABL_resist/Structures/4wa9_AXI_prep.pdb.L.248.R.env.pdb,386.48,28,4.6391,4,2,6,5,4,166.448825749,70.67,1,-2,0,0,-3,0,0,-1,26665,21968,17259,13044,9132,5874,3260,1680,404,6352,4941,3713,2547,1651,875,323,52,7
/home/yunzhuoz/Desktop/ABL_resist/Structures/4wa9_AXI_prep.pdb.L.248.V.env.pdb,386.48,28,4.6391,4,2,6,5,4,166.448825749,70.67,1,0,0,0,0,0,0,0,26665,21968,17259,13044,9132,5874,3260,1680,404,6352,4941,3713,2547,1651,875,323,52,7
/home/yunzhuoz/Desktop/ABL_resist/Structures/4wa9_AXI_prep.pdb.G.250.E.env.pdb,386.48,28,4.6391,4,2,6,5,4,166.448825749,70.67,-2,0,-2,-2,0,0,0,-1,8272,7244,6005,4696,3434,2270,1312,717,173,1097,881,693,491,327,178,75,16,2
/home/yunzhuoz/Desktop/ABL_resist/Structures/4wa9_AXI_prep.pdb.Q.252.H.env.pdb,386.48,28,4.6391,4,2,6,5,4,166.448825749,70.67,-2,-2,0,1,-1,-5,0,1,11746,10055,8150,6237,4544,3026,1780,1017,256,3855,3008,2251,1542,994,532,192,30,3
/home/yunzhuoz/Desktop/ABL_resist/Structures/4wa9_AXI_prep.pdb.Y.253.F.env.pdb,386.48,28,4.6391,4,2,6,5,4,166.448825749,70.67,0,0,0,0,1,0,0,0,20189,16600,13085,9791,6975,4640,2710,1498,373,7637,6039,4517,3170,2046,1088,391,56,6
/home/yunzhuoz/Desktop/ABL_resist/Structures/4wa9_AXI_prep.pdb.Y.253.H.env.pdb,386.48,28,4.6391,4,2,6,5,4,166.448825749,70.67,3,-2,0,0,-1,1,0,0,20189,16600,13085,9791,6975,4640,2710,1498,373,7637,6039,4517,3170,2046,1088,391,56,6
/home/yunzhuoz/Desktop/ABL_resist/Structures/4wa9_AXI_prep.pdb.E.255.K.env.pdb,386.48,28,4.6391,4,2,6,5,4,166.448825749,70.67,-1,-1,2,2,-1,0,0,0,16958,14203,11359,8680,6141,4032,2260,1211,291,1549,1188,903,657,440,239,85,14,2
/home/yunzhuoz/Desktop/ABL_resist/Structures/4wa9_AXI_prep.pdb.E.255.V.env.pdb,386.48,28,4.6391,4,2,6,5,4,166.448825749,70.67,-1,0,2,2,0,0,0,1,16958,14203,11359,8680,6141,4032,2260,1211,291,1549,1188,903,657,440,239,85,14,2
/home/yunzhuoz/Desktop/ABL_resist/Structures/4wa9_AXI_prep.pdb.D.276.G.env.pdb,386.48,28,4.6391,4,2,6,5,4,166.448825749,70.67,1,0,2,2,0,0,0,1,5783,5049,4200,3332,2471,1706,1017,592,138,0,0,0,0,0,0,0,0,0
/home/yunzhuoz/Desktop/ABL_resist/Structures/4wa9_AXI_prep.pdb.E.279.K.env.pdb,386.48,28,4.6391,4,2,6,5,4,166.448825749,70.67,-1,-1,2,2,-1,0,0,0,11961,10098,8257,6390,4619,3057,1708,927,209,0,0,0,0,0,0,0,0,0
/home/yunzhuoz/Desktop/ABL_resist/Structures/4wa9_AXI_prep.pdb.E.292.L.env.pdb,386.48,28,4.6391,4,2,6,5,4,166.448825749,70.67,-2,0,2,2,0,0,0,1,15910,13297,10646,8082,5721,3734,2083,1079,272,0,0,0,0,0,0,0,0,0
/home/yunzhuoz/Desktop/ABL_resist/Structures/4wa9_AXI_prep.pdb.V.299.L.env.pdb,386.48,28,4.6391,4,2,6,5,4,166.448825749,70.67,-1,0,0,0,0,0,0,0,32197,26282,20531,15258,10540,6639,3649,1879,467,4231,3213,2275,1540,932,457,185,32,4
/home/yunzhuoz/Desktop/ABL_resist/Structures/4wa9_AXI_prep.pdb.T.315.A.env.pdb,386.48,28,4.6391,4,2,6,5,4,166.448825749,70.67,0,0,0,0,1,0,0,1,34691,28302,22042,16482,11360,7211,3923,1968,480,4633,3542,2580,1717,1088,556,214,36,5
/home/yunzhuoz/Desktop/ABL_resist/Structures/4wa9_AXI_prep.pdb.T.315.I.env.pdb,386.48,28,4.6391,4,2,6,5,4,166.448825749,70.67,-3,0,0,0,1,0,0,1,34691,28302,22042,16482,11360,7211,3923,1968,480,4633,3542,2580,1717,1088,556,214,36,5
/home/yunzhuoz/Desktop/ABL_resist/Structures/4wa9_AXI_prep.pdb.T.315.V.env.pdb,386.48,28,4.6391,4,2,6,5,4,166.448825749,70.67,-2,0,0,0,1,0,0,1,34691,28302,22042,16482,11360,7211,3923,1968,480,4633,3542,2580,1717,1088,556,214,36,5
/home/yunzhuoz/Desktop/ABL_resist/Structures/4wa9_AXI_prep.pdb.F.317.L.env.pdb,386.48,28,4.6391,4,2,6,5,4,166.448825749,70.67,3,0,0,0,0,6,0,0,22889,18869,15012,11415,8088,5260,2986,1526,380,4904,3975,3033,2090,1323,684,257,45,6
/home/yunzhuoz/Desktop/ABL_resist/Structures/4wa9_AXI_prep.pdb.F.317.R.env.pdb,386.48,28,4.6391,4,2,6,5,4,166.448825749,70.67,4,-2,0,0,-3,6,0,-1,22889,18869,15012,11415,8088,5260,2986,1526,380,4904,3975,3033,2090,1323,684,257,45,6
/home/yunzhuoz/Desktop/ABL_resist/Structures/4wa9_AXI_prep.pdb.F.317.V.env.pdb,386.48,28,4.6391,4,2,6,5,4,166.448825749,70.67,4,0,0,0,0,6,0,0,22889,18869,15012,11415,8088,5260,2986,1526,380,4904,3975,3033,2090,1323,684,257,45,6
/home/yunzhuoz/Desktop/ABL_resist/Structures/4wa9_AXI_prep.pdb.M.343.T.env.pdb,386.48,28,4.6391,4,2,6,5,4,166.448825749,70.67,2,0,0,0,-1,0,1,-1,42435,34094,26459,19482,13241,8216,4366,2114,492,0,0,0,0,0,0,0,0,0
/home/yunzhuoz/Desktop/ABL_resist/Structures/4wa9_AXI_prep.pdb.M.351.T.env.pdb,386.48,28,4.6391,4,2,6,5,4,166.448825749,70.67,2,0,0,0,-1,0,1,-1,47390,38013,29201,21412,14536,9024,4826,2311,526,0,0,0,0,0,0,0,0,0
/home/yunzhuoz/Desktop/ABL_resist/Structures/4wa9_AXI_prep.pdb.F.359.I.env.pdb,386.48,28,4.6391,4,2,6,5,4,166.448825749,70.67,3,0,0,0,0,6,0,0,32753,26748,20855,15412,10439,6563,3577,1787,427,0,0,0,0,0,0,0,0,0
/home/yunzhuoz/Desktop/ABL_resist/Structures/4wa9_AXI_prep.pdb.F.359.V.env.pdb,386.48,28,4.6391,4,2,6,5,4,166.448825749,70.67,4,0,0,0,0,6,0,0,32753,26748,20855,15412,10439,6563,3577,1787,427,0,0,0,0,0,0,0,0,0
/home/yunzhuoz/Desktop/ABL_resist/Structures/4wa9_AXI_prep.pdb.L.384.M.env.pdb,386.48,28,4.6391,4,2,6,5,4,166.448825749,70.67,1,0,0,0,0,0,-1,0,36369,29277,22654,16681,11267,7093,3838,1923,454,0,0,0,0,0,0,0,0,0
/home/yunzhuoz/Desktop/ABL_resist/Structures/4wa9_AXI_prep.pdb.H.396.R.env.pdb,386.48,28,4.6391,4,2,6,5,4,166.448825749,70.67,1,0,0,0,-1,5,0,-1,8584,7208,5847,4506,3259,2200,1313,709,185,0,0,0,0,0,0,0,0,0
/home/yunzhuoz/Desktop/ABL_resist/Structures/4wa9_AXI_prep.pdb.F.486.S.env.pdb,386.48,28,4.6391,4,2,6,5,4,166.448825749,70.67,7,0,0,0,-1,6,0,-1,43377,34990,27068,20028,13827,8579,4603,2208,489,0,0,0,0,0,0,0,0,0
/home/yunzhuoz/Desktop/ABL_resist/Structures/3ue4_DB8_prep.pdb.M.244.V.env.pdb,530.456,36,5.19038,8,1,10,9,4,220.807619291,82.88,0,0,0,0,0,0,1,0,24853,20568,16294,12351,8567,5456,2981,1478,349,0,0,0,0,0,0,0,0,0
/home/yunzhuoz/Desktop/ABL_resist/Structures/3ue4_DB8_prep.pdb.L.248.R.env.pdb,530.456,36,5.19038,8,1,10,9,4,220.807619291,82.88,1,-2,0,0,-3,0,0,-1,18099,15247,12362,9611,6899,4586,2579,1366,341,6122,4714,3423,2276,1403,736,244,40,1
/home/yunzhuoz/Desktop/ABL_resist/Structures/3ue4_DB8_prep.pdb.L.248.V.env.pdb,530.456,36,5.19038,8,1,10,9,4,220.807619291,82.88,1,0,0,0,0,0,0,0,18099,15247,12362,9611,6899,4586,2579,1366,341,6122,4714,3423,2276,1403,736,244,40,1
/home/yunzhuoz/Desktop/ABL_resist/Structures/3ue4_DB8_prep.pdb.G.250.E.env.pdb,530.456,36,5.19038,8,1,10,9,4,220.807619291,82.88,-2,0,-2,-2,0,0,0,-1,13221,11418,9471,7352,5285,3441,1948,1049,254,1667,1254,888,613,384,200,61,11,0
/home/yunzhuoz/Desktop/ABL_resist/Structures/3ue4_DB8_prep.pdb.Y.253.F.env.pdb,530.456,36,5.19038,8,1,10,9,4,220.807619291,82.88,0,0,0,0,1,0,0,0,15627,12986,10273,7701,5480,3591,2043,1085,271,1264,981,698,495,326,172,68,15,1
/home/yunzhuoz/Desktop/ABL_resist/Structures/3ue4_DB8_prep.pdb.E.255.K.env.pdb,530.456,36,5.19038,8,1,10,9,4,220.807619291,82.88,-1,-1,2,2,-1,0,0,0,21716,18017,14439,10930,7644,4876,2681,1407,329,1050,767,535,395,276,148,53,9,0
/home/yunzhuoz/Desktop/ABL_resist/Structures/3ue4_DB8_prep.pdb.E.255.V.env.pdb,530.456,36,5.19038,8,1,10,9,4,220.807619291,82.88,-1,0,2,2,0,0,0,1,21716,18017,14439,10930,7644,4876,2681,1407,329,1050,767,535,395,276,148,53,9,0
/home/yunzhuoz/Desktop/ABL_resist/Structures/3ue4_DB8_prep.pdb.V.299.L.env.pdb,530.456,36,5.19038,8,1,10,9,4,220.807619291,82.88,-1,0,0,0,0,0,0,0,33476,27315,21384,15930,11048,6913,3801,1926,477,4584,3504,2491,1649,998,536,230,51,3
/home/yunzhuoz/Desktop/ABL_resist/Structures/3ue4_DB8_prep.pdb.T.315.A.env.pdb,530.456,36,5.19038,8,1,10,9,4,220.807619291,82.88,0,0,0,0,1,0,0,1,34528,28047,21917,16388,11307,7147,3894,1967,487,6728,5265,3886,2628,1611,851,315,62,3
/home/yunzhuoz/Desktop/ABL_resist/Structures/3ue4_DB8_prep.pdb.T.315.I.env.pdb,530.456,36,5.19038,8,1,10,9,4,220.807619291,82.88,-3,0,0,0,1,0,0,1,34528,28047,21917,16388,11307,7147,3894,1967,487,6728,5265,3886,2628,1611,851,315,62,3
/home/yunzhuoz/Desktop/ABL_resist/Structures/3ue4_DB8_prep.pdb.F.317.C.env.pdb,530.456,36,5.19038,8,1,10,9,4,220.807619291,82.88,6,0,0,0,0,6,-1,-1,22798,18930,15127,11625,8324,5467,3115,1573,401,7023,5482,4033,2719,1671,899,333,60,2
/home/yunzhuoz/Desktop/ABL_resist/Structures/3ue4_DB8_prep.pdb.F.317.I.env.pdb,530.456,36,5.19038,8,1,10,9,4,220.807619291,82.88,3,0,0,0,0,6,0,0,22798,18930,15127,11625,8324,5467,3115,1573,401,7023,5482,4033,2719,1671,899,333,60,2
/home/yunzhuoz/Desktop/ABL_resist/Structures/3ue4_DB8_prep.pdb.F.317.L.env.pdb,530.456,36,5.19038,8,1,10,9,4,220.807619291,82.88,3,0,0,0,0,6,0,0,22798,18930,15127,11625,8324,5467,3115,1573,401,7023,5482,4033,2719,1671,899,333,60,2
/home/yunzhuoz/Desktop/ABL_resist/Structures/3ue4_DB8_prep.pdb.F.317.V.env.pdb,530.456,36,5.19038,8,1,10,9,4,220.807619291,82.88,4,0,0,0,0,6,0,0,22798,18930,15127,11625,8324,5467,3115,1573,401,7023,5482,4033,2719,1671,899,333,60,2
/home/yunzhuoz/Desktop/ABL_resist/Structures/3ue4_DB8_prep.pdb.M.351.T.env.pdb,530.456,36,5.19038,8,1,10,9,4,220.807619291,82.88,2,0,0,0,-1,0,1,-1,47884,38470,29501,21694,14753,9133,4919,2323,528,0,0,0,0,0,0,0,0,0
/home/yunzhuoz/Desktop/ABL_resist/Structures/3ue4_DB8_prep.pdb.E.355.A.env.pdb,530.456,36,5.19038,8,1,10,9,4,220.807619291,82.88,1,0,2,2,0,0,0,1,28574,23689,18644,13921,9649,6121,3356,1675,372,0,0,0,0,0,0,0,0,0
/home/yunzhuoz/Desktop/ABL_resist/Structures/3ue4_DB8_prep.pdb.F.359.C.env.pdb,530.456,36,5.19038,8,1,10,9,4,220.807619291,82.88,6,0,0,0,0,6,-1,-1,33466,27300,21297,15755,10728,6717,3654,1801,431,0,0,0,0,0,0,0,0,0
/home/yunzhuoz/Desktop/ABL_resist/Structures/3ue4_DB8_prep.pdb.F.359.I.env.pdb,530.456,36,5.19038,8,1,10,9,4,220.807619291,82.88,3,0,0,0,0,6,0,0,33466,27300,21297,15755,10728,6717,3654,1801,431,0,0,0,0,0,0,0,0,0
/home/yunzhuoz/Desktop/ABL_resist/Structures/3ue4_DB8_prep.pdb.F.359.V.env.pdb,530.456,36,5.19038,8,1,10,9,4,220.807619291,82.88,4,0,0,0,0,6,0,0,33466,27300,21297,15755,10728,6717,3654,1801,431,0,0,0,0,0,0,0,0,0
/home/yunzhuoz/Desktop/ABL_resist/Structures/3ue4_DB8_prep.pdb.H.396.R.env.pdb,530.456,36,5.19038,8,1,10,9,4,220.807619291,82.88,1,0,0,0,-1,5,0,-1,6776,5801,4788,3759,2761,1895,1095,579,144,0,0,0,0,0,0,0,0,0
/home/yunzhuoz/Desktop/ABL_resist/Structures/3ue4_DB8_prep.pdb.E.459.K.env.pdb,530.456,36,5.19038,8,1,10,9,4,220.807619291,82.88,-1,-1,2,2,-1,0,0,0,13714,11511,9159,7004,4968,3246,1812,896,227,0,0,0,0,0,0,0,0,0
/home/yunzhuoz/Desktop/ABL_resist/Structures/4xey_1N1_full_prep.pdb.M.244.V.env.pdb,488.017,33,3.31354,9,3,11,7,4,201.001960408,106.51,0,0,0,0,0,0,1,0,34006,27427,21331,15862,10928,6874,3680,1841,438,0,0,0,0,0,0,0,0,0
/home/yunzhuoz/Desktop/ABL_resist/Structures/4xey_1N1_full_prep.pdb.L.248.R.env.pdb,488.017,33,3.31354,9,3,11,7,4,201.001960408,106.51,1,-2,0,0,-3,0,0,-1,17625,14787,11890,9103,6508,4352,2491,1321,330,5446,4193,3008,2018,1248,642,244,34,3
/home/yunzhuoz/Desktop/ABL_resist/Structures/4xey_1N1_full_prep.pdb.L.248.V.env.pdb,488.017,33,3.31354,9,3,11,7,4,201.001960408,106.51,1,0,0,0,0,0,0,0,17625,14787,11890,9103,6508,4352,2491,1321,330,5446,4193,3008,2018,1248,642,244,34,3
/home/yunzhuoz/Desktop/ABL_resist/Structures/4xey_1N1_full_prep.pdb.G.250.E.env.pdb,488.017,33,3.31354,9,3,11,7,4,201.001960408,106.51,-2,0,-2,-2,0,0,0,-1,6158,5418,4519,3559,2598,1778,1123,647,169,787,640,510,397,258,146,56,9,1
/home/yunzhuoz/Desktop/ABL_resist/Structures/4xey_1N1_full_prep.pdb.Y.253.F.env.pdb,488.017,33,3.31354,9,3,11,7,4,201.001960408,106.51,0,0,0,0,1,0,0,0,9733,8101,6361,4758,3355,2228,1345,743,203,0,0,0,0,0,0,0,0,0
/home/yunzhuoz/Desktop/ABL_resist/Structures/4xey_1N1_full_prep.pdb.E.255.K.env.pdb,488.017,33,3.31354,9,3,11,7,4,201.001960408,106.51,-1,-1,2,2,-1,0,0,0,18589,15498,12244,9188,6381,4138,2371,1253,311,968,734,555,405,264,153,61,15,1
/home/yunzhuoz/Desktop/ABL_resist/Structures/4xey_1N1_full_prep.pdb.E.255.V.env.pdb,488.017,33,3.31354,9,3,11,7,4,201.001960408,106.51,-1,0,2,2,0,0,0,1,18589,15498,12244,9188,6381,4138,2371,1253,311,968,734,555,405,264,153,61,15,1
/home/yunzhuoz/Desktop/ABL_resist/Structures/4xey_1N1_full_prep.pdb.V.299.L.env.pdb,488.017,33,3.31354,9,3,11,7,4,201.001960408,106.51,-1,0,0,0,0,0,0,0,34119,27836,21837,16250,11250,7041,3867,1952,473,5256,4100,2972,2053,1305,720,306,61,4
/home/yunzhuoz/Desktop/ABL_resist/Structures/4xey_1N1_full_prep.pdb.T.315.A.env.pdb,488.017,33,3.31354,9,3,11,7,4,201.001960408,106.51,0,0,0,0,1,0,0,1,34815,28248,22098,16447,11368,7196,3927,1956,478,6095,4880,3596,2499,1575,842,340,66,4
/home/yunzhuoz/Desktop/ABL_resist/Structures/4xey_1N1_full_prep.pdb.T.315.I.env.pdb,488.017,33,3.31354,9,3,11,7,4,201.001960408,106.51,-3,0,0,0,1,0,0,1,34815,28248,22098,16447,11368,7196,3927,1956,478,6095,4880,3596,2499,1575,842,340,66,4
/home/yunzhuoz/Desktop/ABL_resist/Structures/4xey_1N1_full_prep.pdb.F.317.C.env.pdb,488.017,33,3.31354,9,3,11,7,4,201.001960408,106.51,6,0,0,0,0,6,-1,-1,24695,20331,16253,12393,8811,5762,3248,1690,418,6634,5225,3833,2596,1597,820,316,48,5
/home/yunzhuoz/Desktop/ABL_resist/Structures/4xey_1N1_full_prep.pdb.F.317.I.env.pdb,488.017,33,3.31354,9,3,11,7,4,201.001960408,106.51,3,0,0,0,0,6,0,0,24695,20331,16253,12393,8811,5762,3248,1690,418,6634,5225,3833,2596,1597,820,316,48,5
/home/yunzhuoz/Desktop/ABL_resist/Structures/4xey_1N1_full_prep.pdb.F.317.L.env.pdb,488.017,33,3.31354,9,3,11,7,4,201.001960408,106.51,3,0,0,0,0,6,0,0,24695,20331,16253,12393,8811,5762,3248,1690,418,6634,5225,3833,2596,1597,820,316,48,5
/home/yunzhuoz/Desktop/ABL_resist/Structures/4xey_1N1_full_prep.pdb.F.317.V.env.pdb,488.017,33,3.31354,9,3,11,7,4,201.001960408,106.51,4,0,0,0,0,6,0,0,24695,20331,16253,12393,8811,5762,3248,1690,418,6634,5225,3833,2596,1597,820,316,48,5
/home/yunzhuoz/Desktop/ABL_resist/Structures/4xey_1N1_full_prep.pdb.M.351.T.env.pdb,488.017,33,3.31354,9,3,11,7,4,201.001960408,106.51,2,0,0,0,-1,0,1,-1,49447,39764,30533,22435,15248,9470,5068,2410,538,0,0,0,0,0,0,0,0,0
/home/yunzhuoz/Desktop/ABL_resist/Structures/4xey_1N1_full_prep.pdb.E.355.A.env.pdb,488.017,33,3.31354,9,3,11,7,4,201.001960408,106.51,1,0,2,2,0,0,0,1,29777,24664,19328,14471,10045,6382,3462,1739,385,0,0,0,0,0,0,0,0,0
/home/yunzhuoz/Desktop/ABL_resist/Structures/4xey_1N1_full_prep.pdb.F.359.C.env.pdb,488.017,33,3.31354,9,3,11,7,4,201.001960408,106.51,6,0,0,0,0,6,-1,-1,34158,27879,21707,16031,10912,6823,3703,1848,439,0,0,0,0,0,0,0,0,0
/home/yunzhuoz/Desktop/ABL_resist/Structures/4xey_1N1_full_prep.pdb.F.359.I.env.pdb,488.017,33,3.31354,9,3,11,7,4,201.001960408,106.51,3,0,0,0,0,6,0,0,34158,27879,21707,16031,10912,6823,3703,1848,439,0,0,0,0,0,0,0,0,0
/home/yunzhuoz/Desktop/ABL_resist/Structures/4xey_1N1_full_prep.pdb.F.359.V.env.pdb,488.017,33,3.31354,9,3,11,7,4,201.001960408,106.51,4,0,0,0,0,6,0,0,34158,27879,21707,16031,10912,6823,3703,1848,439,0,0,0,0,0,0,0,0,0
/home/yunzhuoz/Desktop/ABL_resist/Structures/4xey_1N1_full_prep.pdb.H.396.R.env.pdb,488.017,33,3.31354,9,3,11,7,4,201.001960408,106.51,1,0,0,0,-1,5,0,-1,8150,6804,5441,4199,3023,2048,1229,668,179,0,0,0,0,0,0,0,0,0
/home/yunzhuoz/Desktop/ABL_resist/Structures/4xey_1N1_full_prep.pdb.E.459.K.env.pdb,488.017,33,3.31354,9,3,11,7,4,201.001960408,106.51,-1,-1,2,2,-1,0,0,0,15742,13102,10312,7801,5532,3670,2034,1019,253,0,0,0,0,0,0,0,0,0
/home/yunzhuoz/Desktop/ABL_resist/Structures/Erlotinib_glide_pose_1.pdb.Q.252.H.env.pdb,393.443,29,3.4051,7,1,7,10,3,169.532263228,74.73,-2,-2,0,1,-1,-5,0,1,12077,10303,8407,6447,4594,3006,1708,932,242,2385,1824,1319,903,589,327,130,24,0
/home/yunzhuoz/Desktop/ABL_resist/Structures/Erlotinib_glide_pose_1.pdb.Y.253.F.env.pdb,393.443,29,3.4051,7,1,7,10,3,169.532263228,74.73,0,0,0,0,1,0,0,0,15633,12988,10271,7697,5474,3584,2038,1079,270,1381,1062,776,554,361,197,89,24,0
/home/yunzhuoz/Desktop/ABL_resist/Structures/Erlotinib_glide_pose_1.pdb.E.255.K.env.pdb,393.443,29,3.4051,7,1,7,10,3,169.532263228,74.73,-1,-1,2,2,-1,0,0,0,21755,18059,14481,10973,7688,4916,2712,1429,334,1640,1250,905,602,401,221,86,16,0
/home/yunzhuoz/Desktop/ABL_resist/Structures/Erlotinib_glide_pose_1.pdb.T.315.I.env.pdb,393.443,29,3.4051,7,1,7,10,3,169.532263228,74.73,-3,0,0,0,1,0,0,1,34432,27947,21817,16294,11237,7110,3873,1958,480,5882,4587,3380,2296,1411,764,291,59,0
/home/yunzhuoz/Desktop/ABL_resist/Structures/Erlotinib_glide_pose_1.pdb.F.317.I.env.pdb,393.443,29,3.4051,7,1,7,10,3,169.532263228,74.73,3,0,0,0,0,6,0,0,22298,18478,14753,11299,8068,5284,2976,1490,371,4559,3541,2620,1753,1068,537,189,30,0
/home/yunzhuoz/Desktop/ABL_resist/Structures/Erlotinib_glide_pose_1.pdb.F.317.L.env.pdb,393.443,29,3.4051,7,1,7,10,3,169.532263228,74.73,3,0,0,0,0,6,0,0,22298,18478,14753,11299,8068,5284,2976,1490,371,4559,3541,2620,1753,1068,537,189,30,0
/home/yunzhuoz/Desktop/ABL_resist/Structures/Erlotinib_glide_pose_1.pdb.M.351.T.env.pdb,393.443,29,3.4051,7,1,7,10,3,169.532263228,74.73,2,0,0,0,-1,0,1,-1,47884,38470,29501,21694,14753,9133,4919,2323,528,0,0,0,0,0,0,0,0,0
/home/yunzhuoz/Desktop/ABL_resist/Structures/Gef_glide_pose_1.pdb.Q.252.H.env.pdb,446.91,31,4.2756,7,1,9,8,4,184.642296753,68.74,-2,-2,0,1,-1,-5,0,1,12345,10572,8662,6684,4786,3166,1813,995,254,3409,2669,1907,1276,765,393,134,25,1
/home/yunzhuoz/Desktop/ABL_resist/Structures/Gef_glide_pose_1.pdb.Y.253.F.env.pdb,446.91,31,4.2756,7,1,9,8,4,184.642296753,68.74,0,0,0,0,1,0,0,0,15880,13220,10476,7871,5613,3704,2132,1150,289,2661,2062,1459,978,583,310,112,23,1
/home/yunzhuoz/Desktop/ABL_resist/Structures/Gef_glide_pose_1.pdb.E.255.K.env.pdb,446.91,31,4.2756,7,1,9,8,4,184.642296753,68.74,-1,-1,2,2,-1,0,0,0,21842,18144,14563,11051,7746,4963,2739,1445,340,2370,1851,1327,904,560,316,121,23,1
/home/yunzhuoz/Desktop/ABL_resist/Structures/Gef_glide_pose_1.pdb.F.317.I.env.pdb,446.91,31,4.2756,7,1,9,8,4,184.642296753,68.74,3,0,0,0,0,6,0,0,22363,18543,14821,11360,8109,5303,2991,1496,375,4930,3934,2885,1972,1211,634,224,34,1
/home/yunzhuoz/Desktop/ABL_resist/Structures/Gef_glide_pose_1.pdb.F.317.L.env.pdb,446.91,31,4.2756,7,1,9,8,4,184.642296753,68.74,3,0,0,0,0,6,0,0,22363,18543,14821,11360,8109,5303,2991,1496,375,4930,3934,2885,1972,1211,634,224,34,1
/home/yunzhuoz/Desktop/ABL_resist/Structures/Gef_glide_pose_1.pdb.M.351.T.env.pdb,446.91,31,4.2756,7,1,9,8,4,184.642296753,68.74,2,0,0,0,-1,0,1,-1,47884,38470,29501,21694,14753,9133,4919,2323,528,0,0,0,0,0,0,0,0,0
/home/yunzhuoz/Desktop/ABL_resist/Structures/1opj_STI_model_prep_noCl.pdb.M.244.V.env.pdb,493.615,37,4.59032,7,2,8,7,5,216.95624925,86.28,0,0,0,0,0,0,1,0,23877,19643,15594,11783,8231,5234,2867,1449,335,0,0,0,0,0,0,0,0,0
/home/yunzhuoz/Desktop/ABL_resist/Structures/1opj_STI_model_prep_noCl.pdb.L.248.R.env.pdb,493.615,37,4.59032,7,2,8,7,5,216.95624925,86.28,1,-2,0,0,-3,0,0,-1,26016,21383,16806,12692,8840,5665,3158,1618,393,4768,3805,2822,2007,1283,727,291,46,2
/home/yunzhuoz/Desktop/ABL_resist/Structures/1opj_STI_model_prep_noCl.pdb.L.248.V.env.pdb,493.615,37,4.59032,7,2,8,7,5,216.95624925,86.28,1,0,0,0,0,0,0,0,26016,21383,16806,12692,8840,5665,3158,1618,393,4768,3805,2822,2007,1283,727,291,46,2
/home/yunzhuoz/Desktop/ABL_resist/Structures/1opj_STI_model_prep_noCl.pdb.G.250.E.env.pdb,493.615,37,4.59032,7,2,8,7,5,216.95624925,86.28,-2,0,-2,-2,0,0,0,-1,9900,8579,7065,5563,4018,2640,1499,805,194,530,436,333,241,156,92,40,5,0
/home/yunzhuoz/Desktop/ABL_resist/Structures/1opj_STI_model_prep_noCl.pdb.Y.253.F.env.pdb,493.615,37,4.59032,7,2,8,7,5,216.95624925,86.28,0,0,0,0,1,0,0,0,26387,21542,16823,12612,8879,5693,3217,1691,414,5232,4116,3032,2089,1264,685,249,40,2
/home/yunzhuoz/Desktop/ABL_resist/Structures/1opj_STI_model_prep_noCl.pdb.E.255.K.env.pdb,493.615,37,4.59032,7,2,8,7,5,216.95624925,86.28,-1,-1,2,2,-1,0,0,0,20604,17001,13474,10202,7161,4595,2565,1359,328,935,729,539,385,236,145,66,17,0
/home/yunzhuoz/Desktop/ABL_resist/Structures/1opj_STI_model_prep_noCl.pdb.E.255.V.env.pdb,493.615,37,4.59032,7,2,8,7,5,216.95624925,86.28,-1,0,2,2,0,0,0,1,20604,17001,13474,10202,7161,4595,2565,1359,328,935,729,539,385,236,145,66,17,0
/home/yunzhuoz/Desktop/ABL_resist/Structures/1opj_STI_model_prep_noCl.pdb.V.299.L.env.pdb,493.615,37,4.59032,7,2,8,7,5,216.95624925,86.28,-1,0,0,0,0,0,0,0,31962,25873,20154,15068,10519,6703,3774,1986,486,8096,6287,4583,3122,1937,1034,419,75,3
/home/yunzhuoz/Desktop/ABL_resist/Structures/1opj_STI_model_prep_noCl.pdb.T.315.A.env.pdb,493.615,37,4.59032,7,2,8,7,5,216.95624925,86.28,0,0,0,0,1,0,0,1,33714,27354,21354,15994,11068,7046,3903,1974,494,7976,6316,4661,3224,2008,1108,448,76,3
/home/yunzhuoz/Desktop/ABL_resist/Structures/1opj_STI_model_prep_noCl.pdb.T.315.I.env.pdb,493.615,37,4.59032,7,2,8,7,5,216.95624925,86.28,-3,0,0,0,1,0,0,1,33714,27354,21354,15994,11068,7046,3903,1974,494,7976,6316,4661,3224,2008,1108,448,76,3
/home/yunzhuoz/Desktop/ABL_resist/Structures/1opj_STI_model_prep_noCl.pdb.F.317.C.env.pdb,493.615,37,4.59032,7,2,8,7,5,216.95624925,86.28,6,0,0,0,0,6,-1,-1,21557,17887,14251,10906,7744,5069,2873,1468,365,4413,3557,2623,1869,1177,642,248,38,2
/home/yunzhuoz/Desktop/ABL_resist/Structures/1opj_STI_model_prep_noCl.pdb.F.317.I.env.pdb,493.615,37,4.59032,7,2,8,7,5,216.95624925,86.28,3,0,0,0,0,6,0,0,21557,17887,14251,10906,7744,5069,2873,1468,365,4413,3557,2623,1869,1177,642,248,38,2
/home/yunzhuoz/Desktop/ABL_resist/Structures/1opj_STI_model_prep_noCl.pdb.F.317.L.env.pdb,493.615,37,4.59032,7,2,8,7,5,216.95624925,86.28,3,0,0,0,0,6,0,0,21557,17887,14251,10906,7744,5069,2873,1468,365,4413,3557,2623,1869,1177,642,248,38,2
/home/yunzhuoz/Desktop/ABL_resist/Structures/1opj_STI_model_prep_noCl.pdb.F.317.V.env.pdb,493.615,37,4.59032,7,2,8,7,5,216.95624925,86.28,4,0,0,0,0,6,0,0,21557,17887,14251,10906,7744,5069,2873,1468,365,4413,3557,2623,1869,1177,642,248,38,2
/home/yunzhuoz/Desktop/ABL_resist/Structures/1opj_STI_model_prep_noCl.pdb.M.351.T.env.pdb,493.615,37,4.59032,7,2,8,7,5,216.95624925,86.28,2,0,0,0,-1,0,1,-1,48554,39018,29966,22060,15029,9347,5060,2425,539,1470,1096,807,548,332,153,51,8,1
/home/yunzhuoz/Desktop/ABL_resist/Structures/1opj_STI_model_prep_noCl.pdb.E.355.A.env.pdb,493.615,37,4.59032,7,2,8,7,5,216.95624925,86.28,1,0,2,2,0,0,0,1,29098,24047,19008,14254,9922,6299,3451,1733,381,0,0,0,0,0,0,0,0,0
/home/yunzhuoz/Desktop/ABL_resist/Structures/1opj_STI_model_prep_noCl.pdb.F.359.C.env.pdb,493.615,37,4.59032,7,2,8,7,5,216.95624925,86.28,6,0,0,0,0,6,-1,-1,20164,16952,13657,10441,7419,4897,2818,1494,358,4188,3252,2383,1564,890,391,137,18,1
/home/yunzhuoz/Desktop/ABL_resist/Structures/1opj_STI_model_prep_noCl.pdb.F.359.I.env.pdb,493.615,37,4.59032,7,2,8,7,5,216.95624925,86.28,3,0,0,0,0,6,0,0,20164,16952,13657,10441,7419,4897,2818,1494,358,4188,3252,2383,1564,890,391,137,18,1
/home/yunzhuoz/Desktop/ABL_resist/Structures/1opj_STI_model_prep_noCl.pdb.F.359.V.env.pdb,493.615,37,4.59032,7,2,8,7,5,216.95624925,86.28,4,0,0,0,0,6,0,0,20164,16952,13657,10441,7419,4897,2818,1494,358,4188,3252,2383,1564,890,391,137,18,1
/home/yunzhuoz/Desktop/ABL_resist/Structures/1opj_STI_model_prep_noCl.pdb.H.396.R.env.pdb,493.615,37,4.59032,7,2,8,7,5,216.95624925,86.28,1,0,0,0,-1,5,0,-1,17081,14379,11580,8884,6215,4065,2253,1155,275,0,0,0,0,0,0,0,0,0
/home/yunzhuoz/Desktop/ABL_resist/Structures/1opj_STI_model_prep_noCl.pdb.E.459.K.env.pdb,493.615,37,4.59032,7,2,8,7,5,216.95624925,86.28,-1,-1,2,2,-1,0,0,0,12959,10889,8690,6650,4737,3121,1765,873,222,0,0,0,0,0,0,0,0,0
/home/yunzhuoz/Desktop/ABL_resist/Structures/3cs9_NIL_prep_full.pdb.M.244.V.env.pdb,529.526,39,6.35584,7,2,11,6,5,221.175124909,97.62,0,0,0,0,0,0,1,0,23407,19301,15276,11597,8034,5139,2817,1406,329,0,0,0,0,0,0,0,0,0
/home/yunzhuoz/Desktop/ABL_resist/Structures/3cs9_NIL_prep_full.pdb.L.248.R.env.pdb,529.526,39,6.35584,7,2,11,6,5,221.175124909,97.62,1,-2,0,0,-3,0,0,-1,25027,20569,16121,12174,8465,5489,3031,1565,377,4763,3834,2878,2043,1330,741,276,44,1
/home/yunzhuoz/Desktop/ABL_resist/Structures/3cs9_NIL_prep_full.pdb.L.248.V.env.pdb,529.526,39,6.35584,7,2,11,6,5,221.175124909,97.62,1,0,0,0,0,0,0,0,25027,20569,16121,12174,8465,5489,3031,1565,377,4763,3834,2878,2043,1330,741,276,44,1
/home/yunzhuoz/Desktop/ABL_resist/Structures/3cs9_NIL_prep_full.pdb.G.250.E.env.pdb,529.526,39,6.35584,7,2,11,6,5,221.175124909,97.62,-2,0,-2,-2,0,0,0,-1,8383,7278,6006,4715,3419,2286,1320,717,174,506,423,335,244,166,91,37,8,0
/home/yunzhuoz/Desktop/ABL_resist/Structures/3cs9_NIL_prep_full.pdb.Y.253.F.env.pdb,529.526,39,6.35584,7,2,11,6,5,221.175124909,97.62,0,0,0,0,1,0,0,0,25177,20553,16037,11918,8370,5452,3087,1653,411,5526,4352,3200,2210,1343,711,258,39,1
/home/yunzhuoz/Desktop/ABL_resist/Structures/3cs9_NIL_prep_full.pdb.E.255.K.env.pdb,529.526,39,6.35584,7,2,11,6,5,221.175124909,97.62,-1,-1,2,2,-1,0,0,0,21642,17851,14181,10678,7485,4845,2676,1408,336,772,606,451,310,187,123,49,13,0
/home/yunzhuoz/Desktop/ABL_resist/Structures/3cs9_NIL_prep_full.pdb.E.255.V.env.pdb,529.526,39,6.35584,7,2,11,6,5,221.175124909,97.62,-1,0,2,2,0,0,0,1,21642,17851,14181,10678,7485,4845,2676,1408,336,772,606,451,310,187,123,49,13,0
/home/yunzhuoz/Desktop/ABL_resist/Structures/3cs9_NIL_prep_full.pdb.V.299.L.env.pdb,529.526,39,6.35584,7,2,11,6,5,221.175124909,97.62,-1,0,0,0,0,0,0,0,31786,25938,20241,15094,10556,6789,3782,1978,478,7747,5939,4312,2919,1845,986,377,57,1
/home/yunzhuoz/Desktop/ABL_resist/Structures/3cs9_NIL_prep_full.pdb.T.315.A.env.pdb,529.526,39,6.35584,7,2,11,6,5,221.175124909,97.62,0,0,0,0,1,0,0,1,33515,27315,21336,15947,11078,7090,3876,1970,487,7939,6256,4617,3144,1954,1063,408,64,1
/home/yunzhuoz/Desktop/ABL_resist/Structures/3cs9_NIL_prep_full.pdb.T.315.I.env.pdb,529.526,39,6.35584,7,2,11,6,5,221.175124909,97.62,-3,0,0,0,1,0,0,1,33515,27315,21336,15947,11078,7090,3876,1970,487,7939,6256,4617,3144,1954,1063,408,64,1
/home/yunzhuoz/Desktop/ABL_resist/Structures/3cs9_NIL_prep_full.pdb.F.317.C.env.pdb,529.526,39,6.35584,7,2,11,6,5,221.175124909,97.62,6,0,0,0,0,6,-1,-1,21476,17817,14132,10849,7697,5060,2854,1474,356,4328,3508,2602,1816,1163,624,235,37,1
/home/yunzhuoz/Desktop/ABL_resist/Structures/3cs9_NIL_prep_full.pdb.F.317.I.env.pdb,529.526,39,6.35584,7,2,11,6,5,221.175124909,97.62,3,0,0,0,0,6,0,0,21476,17817,14132,10849,7697,5060,2854,1474,356,4328,3508,2602,1816,1163,624,235,37,1
/home/yunzhuoz/Desktop/ABL_resist/Structures/3cs9_NIL_prep_full.pdb.F.317.L.env.pdb,529.526,39,6.35584,7,2,11,6,5,221.175124909,97.62,3,0,0,0,0,6,0,0,21476,17817,14132,10849,7697,5060,2854,1474,356,4328,3508,2602,1816,1163,624,235,37,1
/home/yunzhuoz/Desktop/ABL_resist/Structures/3cs9_NIL_prep_full.pdb.F.317.V.env.pdb,529.526,39,6.35584,7,2,11,6,5,221.175124909,97.62,4,0,0,0,0,6,0,0,21476,17817,14132,10849,7697,5060,2854,1474,356,4328,3508,2602,1816,1163,624,235,37,1
/home/yunzhuoz/Desktop/ABL_resist/Structures/3cs9_NIL_prep_full.pdb.M.351.T.env.pdb,529.526,39,6.35584,7,2,11,6,5,221.175124909,97.62,2,0,0,0,-1,0,1,-1,46316,37227,28529,20955,14277,8889,4784,2294,514,610,463,344,248,168,82,27,3,0
/home/yunzhuoz/Desktop/ABL_resist/Structures/3cs9_NIL_prep_full.pdb.E.355.A.env.pdb,529.526,39,6.35584,7,2,11,6,5,221.175124909,97.62,1,0,2,2,0,0,0,1,27763,22890,17998,13470,9295,5959,3254,1669,368,0,0,0,0,0,0,0,0,0
/home/yunzhuoz/Desktop/ABL_resist/Structures/3cs9_NIL_prep_full.pdb.F.359.C.env.pdb,529.526,39,6.35584,7,2,11,6,5,221.175124909,97.62,6,0,0,0,0,6,-1,-1,24611,20345,15988,12009,8393,5447,3084,1608,401,3014,2284,1678,1135,679,332,109,15,0
/home/yunzhuoz/Desktop/ABL_resist/Structures/3cs9_NIL_prep_full.pdb.F.359.I.env.pdb,529.526,39,6.35584,7,2,11,6,5,221.175124909,97.62,3,0,0,0,0,6,0,0,24611,20345,15988,12009,8393,5447,3084,1608,401,3014,2284,1678,1135,679,332,109,15,0
/home/yunzhuoz/Desktop/ABL_resist/Structures/3cs9_NIL_prep_full.pdb.F.359.V.env.pdb,529.526,39,6.35584,7,2,11,6,5,221.175124909,97.62,4,0,0,0,0,6,0,0,24611,20345,15988,12009,8393,5447,3084,1608,401,3014,2284,1678,1135,679,332,109,15,0
/home/yunzhuoz/Desktop/ABL_resist/Structures/3cs9_NIL_prep_full.pdb.H.396.R.env.pdb,529.526,39,6.35584,7,2,11,6,5,221.175124909,97.62,1,0,0,0,-1,5,0,-1,16033,13502,10834,8304,5857,3802,2113,1093,262,0,0,0,0,0,0,0,0,0
/home/yunzhuoz/Desktop/ABL_resist/Structures/3cs9_NIL_prep_full.pdb.E.459.K.env.pdb,529.526,39,6.35584,7,2,11,6,5,221.175124909,97.62,-1,-1,2,2,-1,0,0,0,15156,12662,10100,7605,5400,3538,1956,984,258,0,0,0,0,0,0,0,0,0
/home/yunzhuoz/Desktop/ABL_resist/Structures/3oxz_0LI_prep_full.pdb.M.244.V.env.pdb,532.57,39,4.45602,6,1,10,4,5,223.806916787,65.77,0,0,0,0,0,0,1,0,24434,20129,15982,12161,8430,5397,2896,1467,345,0,0,0,0,0,0,0,0,0
/home/yunzhuoz/Desktop/ABL_resist/Structures/3oxz_0LI_prep_full.pdb.L.248.R.env.pdb,532.57,39,4.45602,6,1,10,4,5,223.806916787,65.77,1,-2,0,0,-3,0,0,-1,25975,21307,16723,12667,8792,5631,3077,1557,381,4054,3273,2448,1764,1184,659,273,43,2
/home/yunzhuoz/Desktop/ABL_resist/Structures/3oxz_0LI_prep_full.pdb.L.248.V.env.pdb,532.57,39,4.45602,6,1,10,4,5,223.806916787,65.77,1,0,0,0,0,0,0,0,25975,21307,16723,12667,8792,5631,3077,1557,381,4054,3273,2448,1764,1184,659,273,43,2
/home/yunzhuoz/Desktop/ABL_resist/Structures/3oxz_0LI_prep_full.pdb.G.250.E.env.pdb,532.57,39,4.45602,6,1,10,4,5,223.806916787,65.77,-2,0,-2,-2,0,0,0,-1,11985,10281,8412,6476,4643,3013,1677,896,214,337,275,209,156,113,68,35,6,0
/home/yunzhuoz/Desktop/ABL_resist/Structures/3oxz_0LI_prep_full.pdb.Y.253.F.env.pdb,532.57,39,4.45602,6,1,10,4,5,223.806916787,65.77,0,0,0,0,1,0,0,0,31711,25650,19909,14670,10134,6399,3502,1779,442,4371,3392,2535,1827,1180,629,240,36,2
/home/yunzhuoz/Desktop/ABL_resist/Structures/3oxz_0LI_prep_full.pdb.E.255.K.env.pdb,532.57,39,4.45602,6,1,10,4,5,223.806916787,65.77,-1,-1,2,2,-1,0,0,0,26497,21734,17041,12739,8825,5626,3025,1584,366,714,550,411,311,206,120,54,10,1
/home/yunzhuoz/Desktop/ABL_resist/Structures/3oxz_0LI_prep_full.pdb.E.255.V.env.pdb,532.57,39,4.45602,6,1,10,4,5,223.806916787,65.77,-1,0,2,2,0,0,0,1,26497,21734,17041,12739,8825,5626,3025,1584,366,714,550,411,311,206,120,54,10,1
/home/yunzhuoz/Desktop/ABL_resist/Structures/3oxz_0LI_prep_full.pdb.V.299.L.env.pdb,532.57,39,4.45602,6,1,10,4,5,223.806916787,65.77,-1,0,0,0,0,0,0,0,33149,26813,20837,15516,10716,6858,3843,1972,500,7947,6175,4537,3180,2037,1088,433,76,3
/home/yunzhuoz/Desktop/ABL_resist/Structures/3oxz_0LI_prep_full.pdb.T.315.A.env.pdb,532.57,39,4.45602,6,1,10,4,5,223.806916787,65.77,0,0,0,0,1,0,0,1,35041,28324,22017,16414,11291,7164,3944,1977,501,7330,5822,4336,3055,1986,1075,427,73,4
/home/yunzhuoz/Desktop/ABL_resist/Structures/3oxz_0LI_prep_full.pdb.T.315.I.env.pdb,532.57,39,4.45602,6,1,10,4,5,223.806916787,65.77,-3,0,0,0,1,0,0,1,35041,28324,22017,16414,11291,7164,3944,1977,501,7330,5822,4336,3055,1986,1075,427,73,4
/home/yunzhuoz/Desktop/ABL_resist/Structures/3oxz_0LI_prep_full.pdb.F.317.C.env.pdb,532.57,39,4.45602,6,1,10,4,5,223.806916787,65.77,6,0,0,0,0,6,-1,-1,22213,18254,14536,11088,7829,5062,2832,1448,360,4134,3333,2486,1761,1156,633,248,35,1
/home/yunzhuoz/Desktop/ABL_resist/Structures/3oxz_0LI_prep_full.pdb.F.317.I.env.pdb,532.57,39,4.45602,6,1,10,4,5,223.806916787,65.77,3,0,0,0,0,6,0,0,22213,18254,14536,11088,7829,5062,2832,1448,360,4134,3333,2486,1761,1156,633,248,35,1
/home/yunzhuoz/Desktop/ABL_resist/Structures/3oxz_0LI_prep_full.pdb.F.317.L.env.pdb,532.57,39,4.45602,6,1,10,4,5,223.806916787,65.77,3,0,0,0,0,6,0,0,22213,18254,14536,11088,7829,5062,2832,1448,360,4134,3333,2486,1761,1156,633,248,35,1
/home/yunzhuoz/Desktop/ABL_resist/Structures/3oxz_0LI_prep_full.pdb.F.317.V.env.pdb,532.57,39,4.45602,6,1,10,4,5,223.806916787,65.77,4,0,0,0,0,6,0,0,22213,18254,14536,11088,7829,5062,2832,1448,360,4134,3333,2486,1761,1156,633,248,35,1
/home/yunzhuoz/Desktop/ABL_resist/Structures/3oxz_0LI_prep_full.pdb.M.351.T.env.pdb,532.57,39,4.45602,6,1,10,4,5,223.806916787,65.77,2,0,0,0,-1,0,1,-1,48307,38962,29913,22032,15034,9397,5071,2410,543,1672,1252,903,624,387,199,67,16,1
/home/yunzhuoz/Desktop/ABL_resist/Structures/3oxz_0LI_prep_full.pdb.E.355.A.env.pdb,532.57,39,4.45602,6,1,10,4,5,223.806916787,65.77,1,0,2,2,0,0,0,1,29533,24501,19276,14492,10079,6436,3520,1770,395,0,0,0,0,0,0,0,0,0
/home/yunzhuoz/Desktop/ABL_resist/Structures/3oxz_0LI_prep_full.pdb.F.359.C.env.pdb,532.57,39,4.45602,6,1,10,4,5,223.806916787,65.77,6,0,0,0,0,6,-1,-1,19739,16657,13389,10266,7277,4858,2785,1476,352,4329,3354,2475,1667,965,460,159,32,1
/home/yunzhuoz/Desktop/ABL_resist/Structures/3oxz_0LI_prep_full.pdb.F.359.I.env.pdb,532.57,39,4.45602,6,1,10,4,5,223.806916787,65.77,3,0,0,0,0,6,0,0,19739,16657,13389,10266,7277,4858,2785,1476,352,4329,3354,2475,1667,965,460,159,32,1
/home/yunzhuoz/Desktop/ABL_resist/Structures/3oxz_0LI_prep_full.pdb.F.359.V.env.pdb,532.57,39,4.45602,6,1,10,4,5,223.806916787,65.77,4,0,0,0,0,6,0,0,19739,16657,13389,10266,7277,4858,2785,1476,352,4329,3354,2475,1667,965,460,159,32,1
/home/yunzhuoz/Desktop/ABL_resist/Structures/3oxz_0LI_prep_full.pdb.H.396.R.env.pdb,532.57,39,4.45602,6,1,10,4,5,223.806916787,65.77,1,0,0,0,-1,5,0,-1,23014,18801,14858,11143,7823,4955,2769,1454,347,0,0,0,0,0,0,0,0,0
/home/yunzhuoz/Desktop/ABL_resist/Structures/3oxz_0LI_prep_full.pdb.E.459.K.env.pdb,532.57,39,4.45602,6,1,10,4,5,223.806916787,65.77,-1,-1,2,2,-1,0,0,0,15699,13145,10421,7912,5613,3734,2068,1014,262,0,0,0,0,0,0,0,0,0
/home/yunzhuoz/Desktop/ABL_resist/Structures/2g1t_ATP_complex_prep.pdb.M.244.V.env.pdb,476.172,29,-0.5232,13,5,20,8,3,160.786416685,251.56,0,0,0,0,0,0,1,0,23559,19518,15443,11745,8200,5239,2865,1457,340,0,0,0,0,0,0,0,0,0
/home/yunzhuoz/Desktop/ABL_resist/Structures/2g1t_ATP_complex_prep.pdb.L.248.R.env.pdb,476.172,29,-0.5232,13,5,20,8,3,160.786416685,251.56,1,-2,0,0,-3,0,0,-1,19501,16395,13168,10183,7235,4739,2606,1371,336,4935,3887,2894,2005,1222,630,233,46,5
/home/yunzhuoz/Desktop/ABL_resist/Structures/2g1t_ATP_complex_prep.pdb.L.248.V.env.pdb,476.172,29,-0.5232,13,5,20,8,3,160.786416685,251.56,1,0,0,0,0,0,0,0,19501,16395,13168,10183,7235,4739,2606,1371,336,4935,3887,2894,2005,1222,630,233,46,5
/home/yunzhuoz/Desktop/ABL_resist/Structures/2g1t_ATP_complex_prep.pdb.G.250.E.env.pdb,476.172,29,-0.5232,13,5,20,8,3,160.786416685,251.56,-2,0,-2,-2,0,0,0,-1,14032,11899,9715,7622,5539,3683,2124,1173,287,4373,3504,2644,1829,1090,550,188,43,4
/home/yunzhuoz/Desktop/ABL_resist/Structures/2g1t_ATP_complex_prep.pdb.Q.252.H.env.pdb,476.172,29,-0.5232,13,5,20,8,3,160.786416685,251.56,-2,-2,0,1,-1,-5,0,1,10310,8491,6610,4992,3586,2412,1443,862,235,1428,1168,903,643,407,209,78,14,1
/home/yunzhuoz/Desktop/ABL_resist/Structures/2g1t_ATP_complex_prep.pdb.Y.253.F.env.pdb,476.172,29,-0.5232,13,5,20,8,3,160.786416685,251.56,0,0,0,0,1,0,0,0,23974,19535,15135,11261,7842,4966,2802,1482,365,2119,1663,1226,836,508,241,92,18,1
/home/yunzhuoz/Desktop/ABL_resist/Structures/2g1t_ATP_complex_prep.pdb.Y.253.H.env.pdb,476.172,29,-0.5232,13,5,20,8,3,160.786416685,251.56,3,-2,0,0,-1,1,0,0,23974,19535,15135,11261,7842,4966,2802,1482,365,2119,1663,1226,836,508,241,92,18,1
/home/yunzhuoz/Desktop/ABL_resist/Structures/2g1t_ATP_complex_prep.pdb.E.255.K.env.pdb,476.172,29,-0.5232,13,5,20,8,3,160.786416685,251.56,-1,-1,2,2,-1,0,0,0,18768,15827,12785,9833,6948,4468,2472,1306,306,2004,1539,1141,802,507,271,95,21,1
/home/yunzhuoz/Desktop/ABL_resist/Structures/2g1t_ATP_complex_prep.pdb.E.255.V.env.pdb,476.172,29,-0.5232,13,5,20,8,3,160.786416685,251.56,-1,0,2,2,0,0,0,1,18768,15827,12785,9833,6948,4468,2472,1306,306,2004,1539,1141,802,507,271,95,21,1
/home/yunzhuoz/Desktop/ABL_resist/Structures/2g1t_ATP_complex_prep.pdb.D.276.G.env.pdb,476.172,29,-0.5232,13,5,20,8,3,160.786416685,251.56,1,0,2,2,0,0,0,1,16968,13778,10775,8082,5712,3774,2166,1199,272,0,0,0,0,0,0,0,0,0
/home/yunzhuoz/Desktop/ABL_resist/Structures/2g1t_ATP_complex_prep.pdb.E.279.K.env.pdb,476.172,29,-0.5232,13,5,20,8,3,160.786416685,251.56,-1,-1,2,2,-1,0,0,0,9637,8340,6972,5444,3907,2541,1449,798,186,0,0,0,0,0,0,0,0,0
/home/yunzhuoz/Desktop/ABL_resist/Structures/2g1t_ATP_complex_prep.pdb.E.292.L.env.pdb,476.172,29,-0.5232,13,5,20,8,3,160.786416685,251.56,-2,0,2,2,0,0,0,1,15949,13450,10746,8112,5688,3657,2028,1094,261,0,0,0,0,0,0,0,0,0
/home/yunzhuoz/Desktop/ABL_resist/Structures/2g1t_ATP_complex_prep.pdb.V.299.L.env.pdb,476.172,29,-0.5232,13,5,20,8,3,160.786416685,251.56,-1,0,0,0,0,0,0,0,32595,26563,20781,15459,10679,6735,3703,1856,458,2302,1815,1319,914,597,292,115,23,2
/home/yunzhuoz/Desktop/ABL_resist/Structures/2g1t_ATP_complex_prep.pdb.T.315.A.env.pdb,476.172,29,-0.5232,13,5,20,8,3,160.786416685,251.56,0,0,0,0,1,0,0,1,35324,28575,22214,16545,11396,7217,4010,2001,492,3058,2400,1791,1237,803,406,157,32,3
/home/yunzhuoz/Desktop/ABL_resist/Structures/2g1t_ATP_complex_prep.pdb.T.315.I.env.pdb,476.172,29,-0.5232,13,5,20,8,3,160.786416685,251.56,-3,0,0,0,1,0,0,1,35324,28575,22214,16545,11396,7217,4010,2001,492,3058,2400,1791,1237,803,406,157,32,3
/home/yunzhuoz/Desktop/ABL_resist/Structures/2g1t_ATP_complex_prep.pdb.T.315.V.env.pdb,476.172,29,-0.5232,13,5,20,8,3,160.786416685,251.56,-2,0,0,0,1,0,0,1,35324,28575,22214,16545,11396,7217,4010,2001,492,3058,2400,1791,1237,803,406,157,32,3
/home/yunzhuoz/Desktop/ABL_resist/Structures/2g1t_ATP_complex_prep.pdb.F.317.C.env.pdb,476.172,29,-0.5232,13,5,20,8,3,160.786416685,251.56,6,0,0,0,0,6,-1,-1,22009,18130,14437,11090,7884,5128,2874,1456,363,3640,2923,2146,1483,926,473,180,33,2
/home/yunzhuoz/Desktop/ABL_resist/Structures/2g1t_ATP_complex_prep.pdb.F.317.I.env.pdb,476.172,29,-0.5232,13,5,20,8,3,160.786416685,251.56,3,0,0,0,0,6,0,0,22009,18130,14437,11090,7884,5128,2874,1456,363,3640,2923,2146,1483,926,473,180,33,2
/home/yunzhuoz/Desktop/ABL_resist/Structures/2g1t_ATP_complex_prep.pdb.F.317.L.env.pdb,476.172,29,-0.5232,13,5,20,8,3,160.786416685,251.56,3,0,0,0,0,6,0,0,22009,18130,14437,11090,7884,5128,2874,1456,363,3640,2923,2146,1483,926,473,180,33,2
/home/yunzhuoz/Desktop/ABL_resist/Structures/2g1t_ATP_complex_prep.pdb.F.317.R.env.pdb,476.172,29,-0.5232,13,5,20,8,3,160.786416685,251.56,4,-2,0,0,-3,6,0,-1,22009,18130,14437,11090,7884,5128,2874,1456,363,3640,2923,2146,1483,926,473,180,33,2
/home/yunzhuoz/Desktop/ABL_resist/Structures/2g1t_ATP_complex_prep.pdb.F.317.V.env.pdb,476.172,29,-0.5232,13,5,20,8,3,160.786416685,251.56,4,0,0,0,0,6,0,0,22009,18130,14437,11090,7884,5128,2874,1456,363,3640,2923,2146,1483,926,473,180,33,2
/home/yunzhuoz/Desktop/ABL_resist/Structures/2g1t_ATP_complex_prep.pdb.M.343.T.env.pdb,476.172,29,-0.5232,13,5,20,8,3,160.786416685,251.56,2,0,0,0,-1,0,1,-1,43332,34823,26984,19847,13522,8382,4471,2174,506,0,0,0,0,0,0,0,0,0
/home/yunzhuoz/Desktop/ABL_resist/Structures/2g1t_ATP_complex_prep.pdb.M.351.T.env.pdb,476.172,29,-0.5232,13,5,20,8,3,160.786416685,251.56,2,0,0,0,-1,0,1,-1,49934,40084,30774,22524,15350,9523,5076,2409,539,0,0,0,0,0,0,0,0,0
/home/yunzhuoz/Desktop/ABL_resist/Structures/2g1t_ATP_complex_prep.pdb.E.355.A.env.pdb,476.172,29,-0.5232,13,5,20,8,3,160.786416685,251.56,1,0,2,2,0,0,0,1,28124,23296,18391,13773,9544,6084,3315,1685,365,0,0,0,0,0,0,0,0,0
/home/yunzhuoz/Desktop/ABL_resist/Structures/2g1t_ATP_complex_prep.pdb.F.359.C.env.pdb,476.172,29,-0.5232,13,5,20,8,3,160.786416685,251.56,6,0,0,0,0,6,-1,-1,32468,26475,20808,15428,10566,6707,3695,1818,418,0,0,0,0,0,0,0,0,0
/home/yunzhuoz/Desktop/ABL_resist/Structures/2g1t_ATP_complex_prep.pdb.F.359.I.env.pdb,476.172,29,-0.5232,13,5,20,8,3,160.786416685,251.56,3,0,0,0,0,6,0,0,32468,26475,20808,15428,10566,6707,3695,1818,418,0,0,0,0,0,0,0,0,0
/home/yunzhuoz/Desktop/ABL_resist/Structures/2g1t_ATP_complex_prep.pdb.F.359.V.env.pdb,476.172,29,-0.5232,13,5,20,8,3,160.786416685,251.56,4,0,0,0,0,6,0,0,32468,26475,20808,15428,10566,6707,3695,1818,418,0,0,0,0,0,0,0,0,0
/home/yunzhuoz/Desktop/ABL_resist/Structures/2g1t_ATP_complex_prep.pdb.L.384.M.env.pdb,476.172,29,-0.5232,13,5,20,8,3,160.786416685,251.56,1,0,0,0,0,0,-1,0,32472,26304,20234,14840,10214,6389,3546,1805,443,1817,1400,1010,674,386,188,78,16,1
/home/yunzhuoz/Desktop/ABL_resist/Structures/2g1t_ATP_complex_prep.pdb.H.396.R.env.pdb,476.172,29,-0.5232,13,5,20,8,3,160.786416685,251.56,1,0,0,0,-1,5,0,-1,3983,3434,2801,2203,1608,1168,725,452,113,0,0,0,0,0,0,0,0,0
/home/yunzhuoz/Desktop/ABL_resist/Structures/2g1t_ATP_complex_prep.pdb.E.459.K.env.pdb,476.172,29,-0.5232,13,5,20,8,3,160.786416685,251.56,-1,-1,2,2,-1,0,0,0,12938,10842,8606,6524,4677,3106,1753,872,222,0,0,0,0,0,0,0,0,0
/home/yunzhuoz/Desktop/ABL_resist/Structures/2g1t_ATP_complex_prep.pdb.F.486.S.env.pdb,476.172,29,-0.5232,13,5,20,8,3,160.786416685,251.56,7,0,0,0,-1,6,0,-1,42606,34459,26713,19738,13599,8474,4527,2190,467,0,0,0,0,0,0,0,0,0
