PDB_FILE,LIG.MOL_WEIGHT,LIG.ATOM_COUNT,LIG.LOGP,LIG.NUM_ACCEPTORS,LIG.NUM_DONORS,LIG.NUM_HETEROATOMS,LIG.NUM_ROTATABLE_BONDS,LIG.NUM_RINGS,LIG.LABUTE_ASA,LIG.TPSA,Hydro,Pos,Neg,Acc,Don,Aro,Sul,Neut,Affin_wt,Affin_wt_log,10.00,9.00,8.00,7.00,6.00,5.00,4.00,3.00,2.00,1.00,Inter-10.00,Inter-9.00,Inter-8.00,Inter-7.00,Inter-6.00,Inter-5.00,Inter-4.00,Inter-3.00,Inter-2.00,Inter-1.00,
/home/yunzhuoz/Desktop/ABL_resist/Structures_revmut/MT/AXI_M244V.pdb.V.244.M.env.pdb,386.48,28,4.6391,4,2,6,5,4,166.448825749,70.67,0,0,0,0,0,0,-1,0,10,2.30258509299405,4263,3533,2841,2203,1548,971,541,298,108,0,0,0,0,0,0,0,0,0,0,0,
/home/yunzhuoz/Desktop/ABL_resist/Structures_revmut/MT/AXI_L248R.pdb.R.248.L.env.pdb,386.48,28,4.6391,4,2,6,5,4,166.448825749,70.67,-1,2,0,0,3,0,0,1,10,2.30258509299405,6432,5335,4231,3257,2315,1534,899,503,177,0,2616,2076,1522,1013,640,309,104,15,0,0,
/home/yunzhuoz/Desktop/ABL_resist/Structures_revmut/MT/AXI_L248V.pdb.V.248.L.env.pdb,386.48,28,4.6391,4,2,6,5,4,166.448825749,70.67,-1,0,0,0,0,0,0,0,10,2.30258509299405,5600,4684,3756,2923,2091,1358,758,431,154,0,1836,1401,1010,660,394,180,52,4,0,0,
/home/yunzhuoz/Desktop/ABL_resist/Structures_revmut/MT/AXI_G250E.pdb.E.250.G.env.pdb,386.48,28,4.6391,4,2,6,5,4,166.448825749,70.67,2,0,2,2,0,0,0,1,10,2.30258509299405,1664,1498,1260,987,741,507,299,163,63,0,179,128,99,70,45,21,5,0,0,0,
/home/yunzhuoz/Desktop/ABL_resist/Structures_revmut/MT/AXI_Q252H.pdb.H.252.Q.env.pdb,386.48,28,4.6391,4,2,6,5,4,166.448825749,70.67,2,2,0,-1,1,5,0,-1,10,2.30258509299405,3634,3105,2535,1934,1405,936,545,316,118,0,1405,1063,753,505,313,139,25,1,0,0,
/home/yunzhuoz/Desktop/ABL_resist/Structures_revmut/MT/AXI_Y253F.pdb.F.253.Y.env.pdb,386.48,28,4.6391,4,2,6,5,4,166.448825749,70.67,0,0,0,0,-1,0,0,0,10,2.30258509299405,4842,4005,3200,2435,1743,1158,686,416,156,0,2277,1778,1260,836,519,246,64,1,0,0,
/home/yunzhuoz/Desktop/ABL_resist/Structures_revmut/MT/AXI_Y253H.pdb.H.253.Y.env.pdb,386.48,28,4.6391,4,2,6,5,4,166.448825749,70.67,-3,2,0,0,1,-1,0,0,10,2.30258509299405,4815,3974,3180,2416,1735,1151,682,408,154,0,2237,1736,1222,801,502,233,59,1,0,0,
/home/yunzhuoz/Desktop/ABL_resist/Structures_revmut/MT/AXI_E255K.pdb.K.255.E.env.pdb,386.48,28,4.6391,4,2,6,5,4,166.448825749,70.67,1,1,-2,-2,1,0,0,0,10,2.30258509299405,4206,3497,2816,2203,1566,1019,534,301,111,0,420,329,255,176,116,55,12,1,0,0,
/home/yunzhuoz/Desktop/ABL_resist/Structures_revmut/MT/AXI_E255V.pdb.V.255.E.env.pdb,386.48,28,4.6391,4,2,6,5,4,166.448825749,70.67,1,0,-2,-2,0,0,0,-1,10,2.30258509299405,4800,4021,3235,2512,1786,1153,620,344,126,0,719,546,401,266,167,79,15,1,0,0,
/home/yunzhuoz/Desktop/ABL_resist/Structures_revmut/MT/AXI_D276G.pdb.G.276.D.env.pdb,386.48,28,4.6391,4,2,6,5,4,166.448825749,70.67,-1,0,-2,-2,0,0,0,-1,10,2.30258509299405,1722,1501,1222,967,719,493,297,176,64,0,0,0,0,0,0,0,0,0,0,0,
/home/yunzhuoz/Desktop/ABL_resist/Structures_revmut/MT/AXI_E279K.pdb.K.279.E.env.pdb,386.48,28,4.6391,4,2,6,5,4,166.448825749,70.67,1,1,-2,-2,1,0,0,0,10,2.30258509299405,3437,2895,2343,1824,1323,873,486,273,97,0,0,0,0,0,0,0,0,0,0,0,
/home/yunzhuoz/Desktop/ABL_resist/Structures_revmut/MT/AXI_E292L.pdb.L.292.E.env.pdb,386.48,28,4.6391,4,2,6,5,4,166.448825749,70.67,2,0,-2,-2,0,0,0,-1,10,2.30258509299405,3459,2887,2317,1767,1292,855,455,242,94,0,0,0,0,0,0,0,0,0,0,0,
/home/yunzhuoz/Desktop/ABL_resist/Structures_revmut/MT/AXI_V299L.pdb.L.299.V.env.pdb,386.48,28,4.6391,4,2,6,5,4,166.448825749,70.67,1,0,0,0,0,0,0,0,10,2.30258509299405,8001,6525,5162,3892,2730,1710,932,509,186,0,1373,1013,700,447,263,116,38,2,0,0,
/home/yunzhuoz/Desktop/ABL_resist/Structures_revmut/MT/AXI_T315A.pdb.A.315.T.env.pdb,386.48,28,4.6391,4,2,6,5,4,166.448825749,70.67,0,0,0,0,-1,0,0,-1,10,2.30258509299405,7805,6296,4981,3783,2668,1688,895,474,176,0,1275,950,651,398,234,113,29,2,0,0,
/home/yunzhuoz/Desktop/ABL_resist/Structures_revmut/MT/AXI_T315I.pdb.I.315.T.env.pdb,386.48,28,4.6391,4,2,6,5,4,166.448825749,70.67,3,0,0,0,-1,0,0,-1,10,2.30258509299405,7742,6300,5002,3826,2691,1690,898,474,175,0,1545,1159,803,502,295,131,37,3,0,0,
/home/yunzhuoz/Desktop/ABL_resist/Structures_revmut/MT/AXI_T315V.pdb.V.315.T.env.pdb,386.48,28,4.6391,4,2,6,5,4,166.448825749,70.67,2,0,0,0,-1,0,0,-1,10,2.30258509299405,7942,6437,5097,3899,2735,1716,915,482,180,0,1435,1078,749,457,263,120,31,2,0,0,
/home/yunzhuoz/Desktop/ABL_resist/Structures_revmut/MT/AXI_F317L.pdb.L.317.F.env.pdb,386.48,28,4.6391,4,2,6,5,4,166.448825749,70.67,-3,0,0,0,0,-6,0,0,10,2.30258509299405,5494,4514,3626,2828,2050,1317,741,412,149,0,1612,1283,937,623,380,169,51,2,0,0,
/home/yunzhuoz/Desktop/ABL_resist/Structures_revmut/MT/AXI_F317R.pdb.R.317.F.env.pdb,386.48,28,4.6391,4,2,6,5,4,166.448825749,70.67,-4,2,0,0,3,-6,0,1,10,2.30258509299405,4852,4018,3235,2531,1851,1214,701,381,140,0,1392,1130,836,553,325,143,39,2,0,0,
/home/yunzhuoz/Desktop/ABL_resist/Structures_revmut/MT/AXI_F317V.pdb.V.317.F.env.pdb,386.48,28,4.6391,4,2,6,5,4,166.448825749,70.67,-4,0,0,0,0,-6,0,0,10,2.30258509299405,5351,4417,3570,2794,2015,1307,746,412,148,0,1481,1159,829,535,315,142,39,2,0,0,
/home/yunzhuoz/Desktop/ABL_resist/Structures_revmut/MT/AXI_M343T.pdb.T.343.M.env.pdb,386.48,28,4.6391,4,2,6,5,4,166.448825749,70.67,-2,0,0,0,1,0,-1,1,10,2.30258509299405,9583,7652,5861,4364,3020,1862,995,516,188,0,0,0,0,0,0,0,0,0,0,0,
/home/yunzhuoz/Desktop/ABL_resist/Structures_revmut/MT/AXI_M351T.pdb.T.351.M.env.pdb,386.48,28,4.6391,4,2,6,5,4,166.448825749,70.67,-2,0,0,0,1,0,-1,1,10,2.30258509299405,11479,9232,7038,5185,3577,2211,1173,585,211,0,0,0,0,0,0,0,0,0,0,0,
/home/yunzhuoz/Desktop/ABL_resist/Structures_revmut/MT/AXI_F359I.pdb.I.359.F.env.pdb,386.48,28,4.6391,4,2,6,5,4,166.448825749,70.67,-3,0,0,0,0,-6,0,0,10,2.30258509299405,8475,6864,5301,3948,2706,1693,892,456,170,0,0,0,0,0,0,0,0,0,0,0,
/home/yunzhuoz/Desktop/ABL_resist/Structures_revmut/MT/AXI_F359V.pdb.V.359.F.env.pdb,386.48,28,4.6391,4,2,6,5,4,166.448825749,70.67,-4,0,0,0,0,-6,0,0,10,2.30258509299405,8421,6808,5267,3900,2677,1694,912,460,171,0,0,0,0,0,0,0,0,0,0,0,
/home/yunzhuoz/Desktop/ABL_resist/Structures_revmut/MT/AXI_L384M.pdb.M.384.L.env.pdb,386.48,28,4.6391,4,2,6,5,4,166.448825749,70.67,-1,0,0,0,0,0,1,0,10,2.30258509299405,8296,6657,5153,3863,2628,1647,872,455,169,0,0,0,0,0,0,0,0,0,0,0,
/home/yunzhuoz/Desktop/ABL_resist/Structures_revmut/MT/AXI_H396R.pdb.R.396.H.env.pdb,386.48,28,4.6391,4,2,6,5,4,166.448825749,70.67,-1,0,0,0,1,-5,0,1,10,2.30258509299405,1494,1274,1040,813,602,419,264,161,60,0,0,0,0,0,0,0,0,0,0,0,
/home/yunzhuoz/Desktop/ABL_resist/Structures_revmut/MT/AXI_F486S.pdb.S.486.F.env.pdb,386.48,28,4.6391,4,2,6,5,4,166.448825749,70.67,-7,0,0,0,1,-6,0,1,10,2.30258509299405,8644,7041,5458,4099,2915,1835,1000,483,173,0,0,0,0,0,0,0,0,0,0,0,
/home/yunzhuoz/Desktop/ABL_resist/Structures_revmut/MT/DB8_M244V.pdb.V.244.M.env.pdb,530.456,36,5.19038,8,1,10,9,4,220.807619291,82.88,0,0,0,0,0,0,-1,0,10,2.30258509299405,4207,3511,2860,2220,1544,989,545,287,107,0,0,0,0,0,0,0,0,0,0,0,
/home/yunzhuoz/Desktop/ABL_resist/Structures_revmut/MT/DB8_L248R.pdb.R.248.L.env.pdb,530.456,36,5.19038,8,1,10,9,4,220.807619291,82.88,-1,2,0,0,3,0,0,1,10,2.30258509299405,5120,4337,3545,2825,2046,1322,738,412,153,0,2061,1570,1125,721,431,212,52,3,0,0,
/home/yunzhuoz/Desktop/ABL_resist/Structures_revmut/MT/DB8_L248V.pdb.V.248.L.env.pdb,530.456,36,5.19038,8,1,10,9,4,220.807619291,82.88,-1,0,0,0,0,0,0,0,10,2.30258509299405,4007,3404,2818,2268,1657,1085,613,351,131,0,1359,1019,703,413,227,104,16,0,0,0,
/home/yunzhuoz/Desktop/ABL_resist/Structures_revmut/MT/DB8_G250E.pdb.E.250.G.env.pdb,530.456,36,5.19038,8,1,10,9,4,220.807619291,82.88,2,0,2,2,0,0,0,1,10,2.30258509299405,3159,2761,2287,1783,1302,862,453,230,83,0,142,105,71,51,28,16,4,0,0,0,
/home/yunzhuoz/Desktop/ABL_resist/Structures_revmut/MT/DB8_Y253F.pdb.F.253.Y.env.pdb,530.456,36,5.19038,8,1,10,9,4,220.807619291,82.88,0,0,0,0,-1,0,0,0,10,2.30258509299405,4519,3709,2939,2230,1653,1081,566,319,122,0,577,433,291,190,118,52,14,0,0,0,
/home/yunzhuoz/Desktop/ABL_resist/Structures_revmut/MT/DB8_E255K.pdb.K.255.E.env.pdb,530.456,36,5.19038,8,1,10,9,4,220.807619291,82.88,1,1,-2,-2,1,0,0,0,10,2.30258509299405,5526,4588,3713,2856,2048,1284,654,341,128,0,69,50,34,22,16,8,3,0,0,0,
/home/yunzhuoz/Desktop/ABL_resist/Structures_revmut/MT/DB8_E255V.pdb.V.255.E.env.pdb,530.456,36,5.19038,8,1,10,9,4,220.807619291,82.88,1,0,-2,-2,0,0,0,-1,10,2.30258509299405,5404,4514,3670,2837,2041,1319,690,360,132,0,778,563,364,223,133,65,16,0,0,0,
/home/yunzhuoz/Desktop/ABL_resist/Structures_revmut/MT/DB8_V299L.pdb.L.299.V.env.pdb,530.456,36,5.19038,8,1,10,9,4,220.807619291,82.88,1,0,0,0,0,0,0,0,10,2.30258509299405,8249,6742,5324,4038,2844,1773,985,516,189,0,1629,1214,821,517,282,132,45,2,0,0,
/home/yunzhuoz/Desktop/ABL_resist/Structures_revmut/MT/DB8_T315A.pdb.A.315.T.env.pdb,530.456,36,5.19038,8,1,10,9,4,220.807619291,82.88,0,0,0,0,-1,0,0,-1,10,2.30258509299405,7696,6254,4962,3806,2692,1709,928,483,178,0,1832,1373,947,594,328,146,40,2,0,0,
/home/yunzhuoz/Desktop/ABL_resist/Structures_revmut/MT/DB8_T315I.pdb.I.315.T.env.pdb,530.456,36,5.19038,8,1,10,9,4,220.807619291,82.88,3,0,0,0,-1,0,0,-1,10,2.30258509299405,7966,6452,5089,3905,2765,1748,936,496,179,0,2183,1674,1193,768,436,196,53,2,0,0,
/home/yunzhuoz/Desktop/ABL_resist/Structures_revmut/MT/DB8_F317C.pdb.C.317.F.env.pdb,530.456,36,5.19038,8,1,10,9,4,220.807619291,82.88,-6,0,0,0,0,-6,1,1,10,2.30258509299405,5202,4342,3481,2758,2018,1332,755,420,151,0,1902,1479,1061,684,398,187,46,2,0,0,
/home/yunzhuoz/Desktop/ABL_resist/Structures_revmut/MT/DB8_F317I.pdb.I.317.F.env.pdb,530.456,36,5.19038,8,1,10,9,4,220.807619291,82.88,-3,0,0,0,0,-6,0,0,10,2.30258509299405,5473,4553,3663,2901,2108,1389,779,430,155,0,2026,1565,1123,720,421,201,50,2,0,0,
/home/yunzhuoz/Desktop/ABL_resist/Structures_revmut/MT/DB8_F317L.pdb.L.317.F.env.pdb,530.456,36,5.19038,8,1,10,9,4,220.807619291,82.88,-3,0,0,0,0,-6,0,0,10,2.30258509299405,5304,4416,3558,2830,2072,1365,762,421,153,0,2042,1597,1152,731,427,202,50,2,0,0,
/home/yunzhuoz/Desktop/ABL_resist/Structures_revmut/MT/DB8_F317V.pdb.V.317.F.env.pdb,530.456,36,5.19038,8,1,10,9,4,220.807619291,82.88,-4,0,0,0,0,-6,0,0,10,2.30258509299405,5257,4381,3503,2776,2021,1335,755,418,149,0,1863,1448,1036,670,386,180,46,2,0,0,
/home/yunzhuoz/Desktop/ABL_resist/Structures_revmut/MT/DB8_M351T.pdb.T.351.M.env.pdb,530.456,36,5.19038,8,1,10,9,4,220.807619291,82.88,-2,0,0,0,1,0,-1,1,10,2.30258509299405,11429,9179,7016,5170,3563,2216,1196,570,207,0,0,0,0,0,0,0,0,0,0,0,
/home/yunzhuoz/Desktop/ABL_resist/Structures_revmut/MT/DB8_E355A.pdb.A.355.E.env.pdb,530.456,36,5.19038,8,1,10,9,4,220.807619291,82.88,-1,0,-2,-2,0,0,0,-1,10,2.30258509299405,6379,5305,4156,3112,2194,1414,773,389,140,0,0,0,0,0,0,0,0,0,0,0,
/home/yunzhuoz/Desktop/ABL_resist/Structures_revmut/MT/DB8_F359C.pdb.C.359.F.env.pdb,530.456,36,5.19038,8,1,10,9,4,220.807619291,82.88,-6,0,0,0,0,-6,1,1,10,2.30258509299405,7793,6315,4890,3636,2514,1590,848,425,159,0,0,0,0,0,0,0,0,0,0,0,
/home/yunzhuoz/Desktop/ABL_resist/Structures_revmut/MT/DB8_F359I.pdb.I.359.F.env.pdb,530.456,36,5.19038,8,1,10,9,4,220.807619291,82.88,-3,0,0,0,0,-6,0,0,10,2.30258509299405,8243,6673,5173,3844,2641,1656,889,446,167,0,0,0,0,0,0,0,0,0,0,0,
/home/yunzhuoz/Desktop/ABL_resist/Structures_revmut/MT/DB8_F359V.pdb.V.359.F.env.pdb,530.456,36,5.19038,8,1,10,9,4,220.807619291,82.88,-4,0,0,0,0,-6,0,0,10,2.30258509299405,8052,6523,5049,3743,2577,1630,877,436,163,0,0,0,0,0,0,0,0,0,0,0,
/home/yunzhuoz/Desktop/ABL_resist/Structures_revmut/MT/DB8_H396R.pdb.R.396.H.env.pdb,530.456,36,5.19038,8,1,10,9,4,220.807619291,82.88,-1,0,0,0,1,-5,0,1,10,2.30258509299405,1237,1089,932,754,571,400,241,145,52,0,0,0,0,0,0,0,0,0,0,0,
/home/yunzhuoz/Desktop/ABL_resist/Structures_revmut/MT/DB8_E459K.pdb.K.459.E.env.pdb,530.456,36,5.19038,8,1,10,9,4,220.807619291,82.88,1,1,-2,-2,1,0,0,0,10,2.30258509299405,2752,2345,1906,1462,1045,691,394,211,83,0,0,0,0,0,0,0,0,0,0,0,
/home/yunzhuoz/Desktop/ABL_resist/Structures_revmut/MT/1N1_M244V.pdb.V.244.M.env.pdb,488.017,33,3.31354,9,3,11,7,4,201.001960408,106.51,0,0,0,0,0,0,-1,0,10,2.30258509299405,7269,5842,4574,3476,2414,1519,820,438,157,0,0,0,0,0,0,0,0,0,0,0,
/home/yunzhuoz/Desktop/ABL_resist/Structures_revmut/MT/1N1_L248R.pdb.R.248.L.env.pdb,488.017,33,3.31354,9,3,11,7,4,201.001960408,106.51,-1,2,0,0,3,0,0,1,10,2.30258509299405,4159,3504,2848,2222,1589,1059,630,360,133,0,1444,1130,781,489,278,130,37,2,0,0,
/home/yunzhuoz/Desktop/ABL_resist/Structures_revmut/MT/1N1_L248V.pdb.V.248.L.env.pdb,488.017,33,3.31354,9,3,11,7,4,201.001960408,106.51,-1,0,0,0,0,0,0,0,10,2.30258509299405,3852,3287,2706,2130,1539,1030,597,347,124,0,1178,877,585,340,196,100,24,1,0,0,
/home/yunzhuoz/Desktop/ABL_resist/Structures_revmut/MT/1N1_G250E.pdb.E.250.G.env.pdb,488.017,33,3.31354,9,3,11,7,4,201.001960408,106.51,2,0,2,2,0,0,0,1,10,2.30258509299405,2971,2619,2213,1768,1291,857,493,251,88,0,212,156,112,78,51,26,7,0,0,0,
/home/yunzhuoz/Desktop/ABL_resist/Structures_revmut/MT/1N1_Y253F.pdb.F.253.Y.env.pdb,488.017,33,3.31354,9,3,11,7,4,201.001960408,106.51,0,0,0,0,-1,0,0,0,10,2.30258509299405,3291,2708,2088,1553,1092,724,428,245,95,0,0,0,0,0,0,0,0,0,0,0,
/home/yunzhuoz/Desktop/ABL_resist/Structures_revmut/MT/1N1_E255K.pdb.K.255.E.env.pdb,488.017,33,3.31354,9,3,11,7,4,201.001960408,106.51,1,1,-2,-2,1,0,0,0,10,2.30258509299405,4838,4030,3215,2438,1698,1108,608,329,123,0,342,260,186,128,69,36,10,0,0,0,
/home/yunzhuoz/Desktop/ABL_resist/Structures_revmut/MT/1N1_E255V.pdb.V.255.E.env.pdb,488.017,33,3.31354,9,3,11,7,4,201.001960408,106.51,1,0,-2,-2,0,0,0,-1,10,2.30258509299405,5251,4354,3495,2644,1839,1180,647,345,127,0,354,272,196,137,76,40,12,0,0,0,
/home/yunzhuoz/Desktop/ABL_resist/Structures_revmut/MT/1N1_V299L.pdb.L.299.V.env.pdb,488.017,33,3.31354,9,3,11,7,4,201.001960408,106.51,1,0,0,0,0,0,0,0,10,2.30258509299405,8251,6767,5375,4059,2851,1803,980,512,186,0,1580,1205,854,551,329,156,47,3,0,0,
/home/yunzhuoz/Desktop/ABL_resist/Structures_revmut/MT/1N1_T315A.pdb.A.315.T.env.pdb,488.017,33,3.31354,9,3,11,7,4,201.001960408,106.51,0,0,0,0,-1,0,0,-1,10,2.30258509299405,7718,6268,4959,3744,2663,1701,922,480,176,0,1624,1271,907,576,326,143,43,2,0,0,
/home/yunzhuoz/Desktop/ABL_resist/Structures_revmut/MT/1N1_T315I.pdb.I.315.T.env.pdb,488.017,33,3.31354,9,3,11,7,4,201.001960408,106.51,3,0,0,0,-1,0,0,-1,10,2.30258509299405,7726,6290,4954,3744,2665,1685,894,463,168,0,1817,1449,1064,691,406,186,54,1,0,0,
/home/yunzhuoz/Desktop/ABL_resist/Structures_revmut/MT/1N1_F317C.pdb.C.317.F.env.pdb,488.017,33,3.31354,9,3,11,7,4,201.001960408,106.51,-6,0,0,0,0,-6,1,1,10,2.30258509299405,5409,4499,3598,2835,2047,1359,761,420,154,0,1828,1459,1027,653,385,182,55,3,0,0,
/home/yunzhuoz/Desktop/ABL_resist/Structures_revmut/MT/1N1_F317I.pdb.I.317.F.env.pdb,488.017,33,3.31354,9,3,11,7,4,201.001960408,106.51,-3,0,0,0,0,-6,0,0,10,2.30258509299405,5720,4736,3792,2989,2154,1427,796,436,159,0,1941,1544,1093,694,409,191,57,3,0,0,
/home/yunzhuoz/Desktop/ABL_resist/Structures_revmut/MT/1N1_F317L.pdb.L.317.F.env.pdb,488.017,33,3.31354,9,3,11,7,4,201.001960408,106.51,-3,0,0,0,0,-6,0,0,10,2.30258509299405,5585,4625,3703,2922,2121,1407,772,428,155,0,1931,1542,1096,699,414,194,56,3,0,0,
/home/yunzhuoz/Desktop/ABL_resist/Structures_revmut/MT/1N1_F317V.pdb.V.317.F.env.pdb,488.017,33,3.31354,9,3,11,7,4,201.001960408,106.51,-4,0,0,0,0,-6,0,0,10,2.30258509299405,5385,4486,3594,2829,2042,1354,760,415,150,0,1729,1382,978,624,369,170,50,3,0,0,
/home/yunzhuoz/Desktop/ABL_resist/Structures_revmut/MT/1N1_M351T.pdb.T.351.M.env.pdb,488.017,33,3.31354,9,3,11,7,4,201.001960408,106.51,-2,0,0,0,1,0,-1,1,10,2.30258509299405,11905,9557,7308,5398,3714,2309,1233,591,212,0,0,0,0,0,0,0,0,0,0,0,
/home/yunzhuoz/Desktop/ABL_resist/Structures_revmut/MT/1N1_E355A.pdb.A.355.E.env.pdb,488.017,33,3.31354,9,3,11,7,4,201.001960408,106.51,-1,0,-2,-2,0,0,0,-1,10,2.30258509299405,6558,5459,4276,3192,2248,1461,789,390,139,0,0,0,0,0,0,0,0,0,0,0,
/home/yunzhuoz/Desktop/ABL_resist/Structures_revmut/MT/1N1_F359C.pdb.C.359.F.env.pdb,488.017,33,3.31354,9,3,11,7,4,201.001960408,106.51,-6,0,0,0,0,-6,1,1,10,2.30258509299405,8807,7116,5467,4061,2807,1761,944,470,175,0,0,0,0,0,0,0,0,0,0,0,
/home/yunzhuoz/Desktop/ABL_resist/Structures_revmut/MT/1N1_F359I.pdb.I.359.F.env.pdb,488.017,33,3.31354,9,3,11,7,4,201.001960408,106.51,-3,0,0,0,0,-6,0,0,10,2.30258509299405,9085,7333,5642,4161,2883,1822,971,484,180,0,0,0,0,0,0,0,0,0,0,0,
/home/yunzhuoz/Desktop/ABL_resist/Structures_revmut/MT/1N1_F359V.pdb.V.359.F.env.pdb,488.017,33,3.31354,9,3,11,7,4,201.001960408,106.51,-4,0,0,0,0,-6,0,0,10,2.30258509299405,8728,7043,5416,4011,2775,1759,943,472,175,0,0,0,0,0,0,0,0,0,0,0,
/home/yunzhuoz/Desktop/ABL_resist/Structures_revmut/MT/1N1_H396R.pdb.R.396.H.env.pdb,488.017,33,3.31354,9,3,11,7,4,201.001960408,106.51,-1,0,0,0,1,-5,0,1,10,2.30258509299405,1814,1526,1234,966,697,482,299,174,68,0,0,0,0,0,0,0,0,0,0,0,
/home/yunzhuoz/Desktop/ABL_resist/Structures_revmut/MT/1N1_E459K.pdb.K.459.E.env.pdb,488.017,33,3.31354,9,3,11,7,4,201.001960408,106.51,1,1,-2,-2,1,0,0,0,10,2.30258509299405,3280,2782,2226,1702,1213,807,456,245,93,0,0,0,0,0,0,0,0,0,0,0,
/home/yunzhuoz/Desktop/ABL_resist/Structures_revmut/MT/ERL_Q252H.pdb.H.252.Q.env.pdb,393.443,29,3.4051,7,1,7,10,3,169.532263228,74.73,2,2,0,-1,1,5,0,-1,10,2.30258509299405,1682,1468,1202,934,704,488,254,155,62,0,124,87,52,33,21,14,5,0,0,0,
/home/yunzhuoz/Desktop/ABL_resist/Structures_revmut/MT/ERL_Y253F.pdb.F.253.Y.env.pdb,393.443,29,3.4051,7,1,7,10,3,169.532263228,74.73,0,0,0,0,-1,0,0,0,10,2.30258509299405,4499,3686,2914,2205,1629,1058,550,306,118,0,413,309,211,151,95,55,18,0,0,0,
/home/yunzhuoz/Desktop/ABL_resist/Structures_revmut/MT/ERL_E255K.pdb.K.255.E.env.pdb,393.443,29,3.4051,7,1,7,10,3,169.532263228,74.73,1,1,-2,-2,1,0,0,0,10,2.30258509299405,5532,4594,3719,2862,2054,1290,660,346,131,0,272,208,145,101,75,42,14,0,0,0,
/home/yunzhuoz/Desktop/ABL_resist/Structures_revmut/MT/ERL_T315I.pdb.I.315.T.env.pdb,393.443,29,3.4051,7,1,7,10,3,169.532263228,74.73,3,0,0,0,-1,0,0,-1,10,2.30258509299405,8271,6692,5246,4004,2815,1780,952,507,186,0,1910,1494,1062,666,378,178,45,0,0,0,
/home/yunzhuoz/Desktop/ABL_resist/Structures_revmut/MT/ERL_F317I.pdb.I.317.F.env.pdb,393.443,29,3.4051,7,1,7,10,3,169.532263228,74.73,-3,0,0,0,0,-6,0,0,10,2.30258509299405,5372,4463,3591,2850,2068,1373,757,420,149,0,1619,1258,879,539,298,135,32,0,0,0,
/home/yunzhuoz/Desktop/ABL_resist/Structures_revmut/MT/ERL_F317L.pdb.L.317.F.env.pdb,393.443,29,3.4051,7,1,7,10,3,169.532263228,74.73,-3,0,0,0,0,-6,0,0,10,2.30258509299405,5098,4235,3405,2692,1974,1302,717,401,142,0,1552,1206,855,530,294,133,30,0,0,0,
/home/yunzhuoz/Desktop/ABL_resist/Structures_revmut/MT/ERL_M351T.pdb.T.351.M.env.pdb,393.443,29,3.4051,7,1,7,10,3,169.532263228,74.73,-2,0,0,0,1,0,-1,1,10,2.30258509299405,11429,9179,7016,5170,3563,2216,1196,570,207,0,0,0,0,0,0,0,0,0,0,0,
/home/yunzhuoz/Desktop/ABL_resist/Structures_revmut/MT/GEF_Q252H.pdb.H.252.Q.env.pdb,446.91,31,4.2756,7,1,9,8,4,184.642296753,68.74,2,2,0,-1,1,5,0,-1,10,2.30258509299405,1700,1486,1220,952,722,506,271,170,67,0,324,237,129,68,28,10,0,0,0,0,
/home/yunzhuoz/Desktop/ABL_resist/Structures_revmut/MT/GEF_Y253F.pdb.F.253.Y.env.pdb,446.91,31,4.2756,7,1,9,8,4,184.642296753,68.74,0,0,0,0,-1,0,0,0,10,2.30258509299405,4400,3629,2889,2193,1616,1060,563,327,123,0,732,534,350,221,128,60,12,0,0,0,
/home/yunzhuoz/Desktop/ABL_resist/Structures_revmut/MT/GEF_E255K.pdb.K.255.E.env.pdb,446.91,31,4.2756,7,1,9,8,4,184.642296753,68.74,1,1,-2,-2,1,0,0,0,10,2.30258509299405,5536,4598,3723,2864,2055,1290,659,345,130,0,325,243,165,110,65,33,8,0,0,0,
/home/yunzhuoz/Desktop/ABL_resist/Structures_revmut/MT/GEF_F317I.pdb.I.317.F.env.pdb,446.91,31,4.2756,7,1,9,8,4,184.642296753,68.74,-3,0,0,0,0,-6,0,0,10,2.30258509299405,5407,4483,3608,2850,2070,1363,755,419,149,0,1614,1267,902,571,323,152,38,1,0,0,
/home/yunzhuoz/Desktop/ABL_resist/Structures_revmut/MT/GEF_F317L.pdb.L.317.F.env.pdb,446.91,31,4.2756,7,1,9,8,4,184.642296753,68.74,-3,0,0,0,0,-6,0,0,10,2.30258509299405,5123,4253,3421,2702,1979,1301,720,400,142,0,1506,1189,848,541,313,142,35,1,0,0,
/home/yunzhuoz/Desktop/ABL_resist/Structures_revmut/MT/GEF_M351T.pdb.T.351.M.env.pdb,446.91,31,4.2756,7,1,9,8,4,184.642296753,68.74,-2,0,0,0,1,0,-1,1,10,2.30258509299405,11429,9179,7016,5170,3563,2216,1196,570,207,0,0,0,0,0,0,0,0,0,0,0,
/home/yunzhuoz/Desktop/ABL_resist/Structures_revmut/MT/STI_M244V.pdb.V.244.M.env.pdb,493.615,37,4.59032,7,2,8,7,5,216.95624925,86.28,0,0,0,0,0,0,-1,0,10,2.30258509299405,4377,3626,2916,2275,1599,1010,559,315,112,0,0,0,0,0,0,0,0,0,0,0,
/home/yunzhuoz/Desktop/ABL_resist/Structures_revmut/MT/STI_L248R.pdb.R.248.L.env.pdb,493.615,37,4.59032,7,2,8,7,5,216.95624925,86.28,-1,2,0,0,3,0,0,1,10,2.30258509299405,5750,4747,3759,2916,2056,1312,734,414,154,0,1257,1028,754,514,310,155,46,1,0,0,
/home/yunzhuoz/Desktop/ABL_resist/Structures_revmut/MT/STI_L248V.pdb.V.248.L.env.pdb,493.615,37,4.59032,7,2,8,7,5,216.95624925,86.28,-1,0,0,0,0,0,0,0,10,2.30258509299405,5875,4869,3864,3006,2139,1366,752,426,150,0,1220,971,694,467,279,145,43,1,0,0,
/home/yunzhuoz/Desktop/ABL_resist/Structures_revmut/MT/STI_G250E.pdb.E.250.G.env.pdb,493.615,37,4.59032,7,2,8,7,5,216.95624925,86.28,2,0,2,2,0,0,0,1,10,2.30258509299405,1499,1355,1161,923,695,460,270,153,54,0,0,0,0,0,0,0,0,0,0,0,
/home/yunzhuoz/Desktop/ABL_resist/Structures_revmut/MT/STI_Y253F.pdb.F.253.Y.env.pdb,493.615,37,4.59032,7,2,8,7,5,216.95624925,86.28,0,0,0,0,-1,0,0,0,10,2.30258509299405,6544,5385,4222,3256,2314,1487,799,461,169,0,1674,1284,907,583,332,160,45,1,0,0,
/home/yunzhuoz/Desktop/ABL_resist/Structures_revmut/MT/STI_E255K.pdb.K.255.E.env.pdb,493.615,37,4.59032,7,2,8,7,5,216.95624925,86.28,1,1,-2,-2,1,0,0,0,10,2.30258509299405,4761,3958,3209,2477,1764,1121,589,323,117,0,0,0,0,0,0,0,0,0,0,0,
/home/yunzhuoz/Desktop/ABL_resist/Structures_revmut/MT/STI_E255V.pdb.V.255.E.env.pdb,493.615,37,4.59032,7,2,8,7,5,216.95624925,86.28,1,0,-2,-2,0,0,0,-1,10,2.30258509299405,5388,4472,3607,2776,1951,1248,656,353,126,0,489,360,257,168,84,44,16,0,0,0,
/home/yunzhuoz/Desktop/ABL_resist/Structures_revmut/MT/STI_V299L.pdb.L.299.V.env.pdb,493.615,37,4.59032,7,2,8,7,5,216.95624925,86.28,1,0,0,0,0,0,0,0,10,2.30258509299405,7853,6388,5032,3828,2744,1766,972,547,197,0,2482,1903,1364,891,505,240,78,4,0,0,
/home/yunzhuoz/Desktop/ABL_resist/Structures_revmut/MT/STI_T315A.pdb.A.315.T.env.pdb,493.615,37,4.59032,7,2,8,7,5,216.95624925,86.28,0,0,0,0,-1,0,0,-1,10,2.30258509299405,7704,6225,4916,3744,2651,1686,906,494,180,0,2007,1529,1074,694,387,193,56,2,0,0,
/home/yunzhuoz/Desktop/ABL_resist/Structures_revmut/MT/STI_T315I.pdb.I.315.T.env.pdb,493.615,37,4.59032,7,2,8,7,5,216.95624925,86.28,3,0,0,0,-1,0,0,-1,10,2.30258509299405,7706,6263,4917,3742,2663,1695,907,488,176,0,2315,1786,1290,853,494,252,77,3,0,0,
/home/yunzhuoz/Desktop/ABL_resist/Structures_revmut/MT/STI_F317C.pdb.C.317.F.env.pdb,493.615,37,4.59032,7,2,8,7,5,216.95624925,86.28,-6,0,0,0,0,-6,1,1,10,2.30258509299405,5150,4282,3459,2726,1989,1301,719,398,144,0,1372,1065,749,498,277,135,44,2,0,0,
/home/yunzhuoz/Desktop/ABL_resist/Structures_revmut/MT/STI_F317I.pdb.I.317.F.env.pdb,493.615,37,4.59032,7,2,8,7,5,216.95624925,86.28,-3,0,0,0,0,-6,0,0,10,2.30258509299405,5326,4444,3588,2821,2049,1337,740,404,145,0,1329,1035,726,479,266,120,39,2,0,0,
/home/yunzhuoz/Desktop/ABL_resist/Structures_revmut/MT/STI_F317L.pdb.L.317.F.env.pdb,493.615,37,4.59032,7,2,8,7,5,216.95624925,86.28,-3,0,0,0,0,-6,0,0,10,2.30258509299405,5146,4296,3480,2731,1987,1303,710,394,140,0,1300,1016,714,475,264,121,39,2,0,0,
/home/yunzhuoz/Desktop/ABL_resist/Structures_revmut/MT/STI_F317V.pdb.V.317.F.env.pdb,493.615,37,4.59032,7,2,8,7,5,216.95624925,86.28,-4,0,0,0,0,-6,0,0,10,2.30258509299405,5159,4296,3479,2734,1990,1306,716,395,142,0,1297,1008,706,467,262,120,37,2,0,0,
/home/yunzhuoz/Desktop/ABL_resist/Structures_revmut/MT/STI_M351T.pdb.T.351.M.env.pdb,493.615,37,4.59032,7,2,8,7,5,216.95624925,86.28,-2,0,0,0,1,0,-1,1,10,2.30258509299405,11736,9395,7177,5302,3665,2295,1206,584,211,0,128,91,65,45,20,5,0,0,0,0,
/home/yunzhuoz/Desktop/ABL_resist/Structures_revmut/MT/STI_E355A.pdb.A.355.E.env.pdb,493.615,37,4.59032,7,2,8,7,5,216.95624925,86.28,-1,0,-2,-2,0,0,0,-1,10,2.30258509299405,6130,5116,4043,3039,2176,1414,769,381,137,0,0,0,0,0,0,0,0,0,0,0,
/home/yunzhuoz/Desktop/ABL_resist/Structures_revmut/MT/STI_F359C.pdb.C.359.F.env.pdb,493.615,37,4.59032,7,2,8,7,5,216.95624925,86.28,-6,0,0,0,0,-6,1,1,10,2.30258509299405,5044,4164,3327,2546,1859,1232,698,367,135,0,644,497,377,263,141,50,12,1,0,0,
/home/yunzhuoz/Desktop/ABL_resist/Structures_revmut/MT/STI_F359I.pdb.I.359.F.env.pdb,493.615,37,4.59032,7,2,8,7,5,216.95624925,86.28,-3,0,0,0,0,-6,0,0,10,2.30258509299405,5202,4310,3438,2623,1900,1257,716,374,139,0,764,596,454,319,173,61,15,1,0,0,
/home/yunzhuoz/Desktop/ABL_resist/Structures_revmut/MT/STI_F359V.pdb.V.359.F.env.pdb,493.615,37,4.59032,7,2,8,7,5,216.95624925,86.28,-4,0,0,0,0,-6,0,0,10,2.30258509299405,5113,4209,3340,2557,1859,1230,701,365,134,0,684,534,412,295,167,60,16,1,0,0,
/home/yunzhuoz/Desktop/ABL_resist/Structures_revmut/MT/STI_H396R.pdb.R.396.H.env.pdb,493.615,37,4.59032,7,2,8,7,5,216.95624925,86.28,-1,0,0,0,1,-5,0,1,10,2.30258509299405,4259,3564,2842,2202,1549,1011,549,300,110,0,0,0,0,0,0,0,0,0,0,0,
/home/yunzhuoz/Desktop/ABL_resist/Structures_revmut/MT/STI_E459K.pdb.K.459.E.env.pdb,493.615,37,4.59032,7,2,8,7,5,216.95624925,86.28,1,1,-2,-2,1,0,0,0,10,2.30258509299405,3246,2742,2225,1689,1220,776,444,238,91,0,0,0,0,0,0,0,0,0,0,0,
/home/yunzhuoz/Desktop/ABL_resist/Structures_revmut/MT/NIL_M244V.pdb.V.244.M.env.pdb,529.526,39,6.35584,7,2,11,6,5,221.175124909,97.62,0,0,0,0,0,0,-1,0,10,2.30258509299405,4911,4053,3253,2496,1754,1100,621,342,124,0,0,0,0,0,0,0,0,0,0,0,
/home/yunzhuoz/Desktop/ABL_resist/Structures_revmut/MT/NIL_L248R.pdb.R.248.L.env.pdb,529.526,39,6.35584,7,2,11,6,5,221.175124909,97.62,-1,2,0,0,3,0,0,1,10,2.30258509299405,6754,5556,4435,3443,2444,1547,846,459,166,0,1525,1199,885,584,361,180,49,4,0,0,
/home/yunzhuoz/Desktop/ABL_resist/Structures_revmut/MT/NIL_L248V.pdb.V.248.L.env.pdb,529.526,39,6.35584,7,2,11,6,5,221.175124909,97.62,-1,0,0,0,0,0,0,0,10,2.30258509299405,5517,4579,3673,2861,2048,1329,743,424,150,0,1332,1035,751,489,291,146,36,1,0,0,
/home/yunzhuoz/Desktop/ABL_resist/Structures_revmut/MT/NIL_G250E.pdb.E.250.G.env.pdb,529.526,39,6.35584,7,2,11,6,5,221.175124909,97.62,2,0,2,2,0,0,0,1,10,2.30258509299405,1545,1376,1188,947,700,487,285,160,57,0,0,0,0,0,0,0,0,0,0,0,
/home/yunzhuoz/Desktop/ABL_resist/Structures_revmut/MT/NIL_Y253F.pdb.F.253.Y.env.pdb,529.526,39,6.35584,7,2,11,6,5,221.175124909,97.62,0,0,0,0,-1,0,0,0,10,2.30258509299405,6207,5112,4017,3042,2185,1422,774,453,166,0,1722,1318,943,599,347,167,37,0,0,0,
/home/yunzhuoz/Desktop/ABL_resist/Structures_revmut/MT/NIL_E255K.pdb.K.255.E.env.pdb,529.526,39,6.35584,7,2,11,6,5,221.175124909,97.62,1,1,-2,-2,1,0,0,0,10,2.30258509299405,5073,4252,3409,2589,1851,1205,655,346,128,0,125,101,74,44,21,10,5,0,0,0,
/home/yunzhuoz/Desktop/ABL_resist/Structures_revmut/MT/NIL_E255V.pdb.V.255.E.env.pdb,529.526,39,6.35584,7,2,11,6,5,221.175124909,97.62,1,0,-2,-2,0,0,0,-1,10,2.30258509299405,5649,4694,3756,2869,2030,1312,702,367,136,0,462,357,252,159,83,37,13,0,0,0,
/home/yunzhuoz/Desktop/ABL_resist/Structures_revmut/MT/NIL_V299L.pdb.L.299.V.env.pdb,529.526,39,6.35584,7,2,11,6,5,221.175124909,97.62,1,0,0,0,0,0,0,0,10,2.30258509299405,7429,6081,4784,3636,2638,1705,943,532,190,0,2588,1979,1408,928,566,274,82,4,0,0,
/home/yunzhuoz/Desktop/ABL_resist/Structures_revmut/MT/NIL_T315A.pdb.A.315.T.env.pdb,529.526,39,6.35584,7,2,11,6,5,221.175124909,97.62,0,0,0,0,-1,0,0,-1,10,2.30258509299405,7780,6298,4967,3781,2709,1736,914,504,184,0,2082,1602,1116,704,407,192,46,2,0,0,
/home/yunzhuoz/Desktop/ABL_resist/Structures_revmut/MT/NIL_T315I.pdb.I.315.T.env.pdb,529.526,39,6.35584,7,2,11,6,5,221.175124909,97.62,3,0,0,0,-1,0,0,-1,10,2.30258509299405,7716,6281,4950,3744,2688,1714,897,480,174,0,2238,1747,1244,802,475,227,59,3,0,0,
/home/yunzhuoz/Desktop/ABL_resist/Structures_revmut/MT/NIL_F317C.pdb.C.317.F.env.pdb,529.526,39,6.35584,7,2,11,6,5,221.175124909,97.62,-6,0,0,0,0,-6,1,1,10,2.30258509299405,5225,4325,3478,2739,2002,1312,713,402,147,0,1382,1088,775,498,295,138,38,2,0,0,
/home/yunzhuoz/Desktop/ABL_resist/Structures_revmut/MT/NIL_F317I.pdb.I.317.F.env.pdb,529.526,39,6.35584,7,2,11,6,5,221.175124909,97.62,-3,0,0,0,0,-6,0,0,10,2.30258509299405,5380,4466,3607,2850,2091,1368,736,412,149,0,1420,1112,774,482,280,128,35,2,0,0,
/home/yunzhuoz/Desktop/ABL_resist/Structures_revmut/MT/NIL_F317L.pdb.L.317.F.env.pdb,529.526,39,6.35584,7,2,11,6,5,221.175124909,97.62,-3,0,0,0,0,-6,0,0,10,2.30258509299405,5147,4291,3457,2728,2002,1316,711,398,145,0,1365,1067,749,474,278,127,35,2,0,0,
/home/yunzhuoz/Desktop/ABL_resist/Structures_revmut/MT/NIL_F317V.pdb.V.317.F.env.pdb,529.526,39,6.35584,7,2,11,6,5,221.175124909,97.62,-4,0,0,0,0,-6,0,0,10,2.30258509299405,5205,4329,3479,2748,2009,1326,715,402,145,0,1334,1040,732,460,267,123,35,2,0,0,
/home/yunzhuoz/Desktop/ABL_resist/Structures_revmut/MT/NIL_M351T.pdb.T.351.M.env.pdb,529.526,39,6.35584,7,2,11,6,5,221.175124909,97.62,-2,0,0,0,1,0,-1,1,10,2.30258509299405,11403,9165,7010,5157,3548,2234,1186,593,211,0,143,99,73,51,36,17,6,0,0,0,
/home/yunzhuoz/Desktop/ABL_resist/Structures_revmut/MT/NIL_E355A.pdb.A.355.E.env.pdb,529.526,39,6.35584,7,2,11,6,5,221.175124909,97.62,-1,0,-2,-2,0,0,0,-1,10,2.30258509299405,6250,5169,4068,3038,2154,1410,766,400,139,0,0,0,0,0,0,0,0,0,0,0,
/home/yunzhuoz/Desktop/ABL_resist/Structures_revmut/MT/NIL_F359C.pdb.C.359.F.env.pdb,529.526,39,6.35584,7,2,11,6,5,221.175124909,97.62,-6,0,0,0,0,-6,1,1,10,2.30258509299405,5651,4659,3696,2806,2003,1330,734,403,148,0,613,441,310,185,94,41,6,0,0,0,
/home/yunzhuoz/Desktop/ABL_resist/Structures_revmut/MT/NIL_F359I.pdb.I.359.F.env.pdb,529.526,39,6.35584,7,2,11,6,5,221.175124909,97.62,-3,0,0,0,0,-6,0,0,10,2.30258509299405,5301,4411,3518,2689,1924,1286,705,389,143,0,632,450,311,179,89,38,5,0,0,0,
/home/yunzhuoz/Desktop/ABL_resist/Structures_revmut/MT/NIL_F359V.pdb.V.359.F.env.pdb,529.526,39,6.35584,7,2,11,6,5,221.175124909,97.62,-4,0,0,0,0,-6,0,0,10,2.30258509299405,5503,4549,3607,2749,1967,1314,723,400,145,0,623,445,309,179,89,38,5,0,0,0,
/home/yunzhuoz/Desktop/ABL_resist/Structures_revmut/MT/NIL_H396R.pdb.R.396.H.env.pdb,529.526,39,6.35584,7,2,11,6,5,221.175124909,97.62,-1,0,0,0,1,-5,0,1,10,2.30258509299405,3109,2633,2121,1656,1180,764,427,244,90,0,0,0,0,0,0,0,0,0,0,0,
/home/yunzhuoz/Desktop/ABL_resist/Structures_revmut/MT/NIL_E459K.pdb.K.459.E.env.pdb,529.526,39,6.35584,7,2,11,6,5,221.175124909,97.62,1,1,-2,-2,1,0,0,0,10,2.30258509299405,3373,2831,2295,1747,1236,804,444,240,91,0,0,0,0,0,0,0,0,0,0,0,
/home/yunzhuoz/Desktop/ABL_resist/Structures_revmut/MT/0LI_M244V.pdb.V.244.M.env.pdb,532.57,39,4.45602,6,1,10,4,5,223.806916787,65.77,0,0,0,0,0,0,-1,0,10,2.30258509299405,5184,4276,3446,2659,1864,1205,643,350,125,0,0,0,0,0,0,0,0,0,0,0,
/home/yunzhuoz/Desktop/ABL_resist/Structures_revmut/MT/0LI_L248R.pdb.R.248.L.env.pdb,532.57,39,4.45602,6,1,10,4,5,223.806916787,65.77,-1,2,0,0,3,0,0,1,10,2.30258509299405,5682,4700,3737,2904,2079,1335,742,402,151,0,1112,920,704,474,292,141,39,1,0,0,
/home/yunzhuoz/Desktop/ABL_resist/Structures_revmut/MT/0LI_L248V.pdb.V.248.L.env.pdb,532.57,39,4.45602,6,1,10,4,5,223.806916787,65.77,-1,0,0,0,0,0,0,0,10,2.30258509299405,5544,4607,3684,2889,2052,1314,720,401,146,0,1059,831,602,396,235,109,31,0,0,0,
/home/yunzhuoz/Desktop/ABL_resist/Structures_revmut/MT/0LI_G250E.pdb.E.250.G.env.pdb,532.57,39,4.45602,6,1,10,4,5,223.806916787,65.77,2,0,2,2,0,0,0,1,10,2.30258509299405,2576,2243,1841,1427,1037,677,391,208,79,0,0,0,0,0,0,0,0,0,0,0,
/home/yunzhuoz/Desktop/ABL_resist/Structures_revmut/MT/0LI_Y253F.pdb.F.253.Y.env.pdb,532.57,39,4.45602,6,1,10,4,5,223.806916787,65.77,0,0,0,0,-1,0,0,0,10,2.30258509299405,8355,6757,5281,3964,2826,1770,949,520,191,0,1549,1142,812,540,329,156,46,2,0,0,
/home/yunzhuoz/Desktop/ABL_resist/Structures_revmut/MT/0LI_E255K.pdb.K.255.E.env.pdb,532.57,39,4.45602,6,1,10,4,5,223.806916787,65.77,1,1,-2,-2,1,0,0,0,10,2.30258509299405,6248,5164,4102,3091,2188,1388,716,383,143,0,68,50,34,28,19,8,5,0,0,0,
/home/yunzhuoz/Desktop/ABL_resist/Structures_revmut/MT/0LI_E255V.pdb.V.255.E.env.pdb,532.57,39,4.45602,6,1,10,4,5,223.806916787,65.77,1,0,-2,-2,0,0,0,-1,10,2.30258509299405,6542,5356,4240,3189,2236,1430,738,392,148,0,344,258,179,123,74,32,10,0,0,0,
/home/yunzhuoz/Desktop/ABL_resist/Structures_revmut/MT/0LI_V299L.pdb.L.299.V.env.pdb,532.57,39,4.45602,6,1,10,4,5,223.806916787,65.77,1,0,0,0,0,0,0,0,10,2.30258509299405,7669,6242,4900,3716,2674,1700,964,532,195,0,2636,2005,1446,998,622,306,92,5,0,0,
/home/yunzhuoz/Desktop/ABL_resist/Structures_revmut/MT/0LI_T315A.pdb.A.315.T.env.pdb,532.57,39,4.45602,6,1,10,4,5,223.806916787,65.77,0,0,0,0,-1,0,0,-1,10,2.30258509299405,7592,6143,4803,3647,2597,1643,871,476,175,0,1830,1426,1027,675,407,189,57,2,0,0,
/home/yunzhuoz/Desktop/ABL_resist/Structures_revmut/MT/0LI_T315I.pdb.I.315.T.env.pdb,532.57,39,4.45602,6,1,10,4,5,223.806916787,65.77,3,0,0,0,-1,0,0,-1,10,2.30258509299405,7474,6064,4743,3599,2558,1619,853,461,171,0,2184,1728,1260,863,536,257,78,4,0,0,
/home/yunzhuoz/Desktop/ABL_resist/Structures_revmut/MT/0LI_F317C.pdb.C.317.F.env.pdb,532.57,39,4.45602,6,1,10,4,5,223.806916787,65.77,-6,0,0,0,0,-6,1,1,10,2.30258509299405,5142,4250,3398,2654,1936,1256,691,386,142,0,1316,1052,761,508,311,148,44,1,0,0,
/home/yunzhuoz/Desktop/ABL_resist/Structures_revmut/MT/0LI_F317I.pdb.I.317.F.env.pdb,532.57,39,4.45602,6,1,10,4,5,223.806916787,65.77,-3,0,0,0,0,-6,0,0,10,2.30258509299405,5415,4457,3569,2781,2018,1296,711,393,144,0,1344,1086,785,523,323,154,47,1,0,0,
/home/yunzhuoz/Desktop/ABL_resist/Structures_revmut/MT/0LI_F317L.pdb.L.317.F.env.pdb,532.57,39,4.45602,6,1,10,4,5,223.806916787,65.77,-3,0,0,0,0,-6,0,0,10,2.30258509299405,5332,4391,3507,2743,1988,1289,710,387,142,0,1381,1115,807,535,327,153,45,1,0,0,
/home/yunzhuoz/Desktop/ABL_resist/Structures_revmut/MT/0LI_F317V.pdb.V.317.F.env.pdb,532.57,39,4.45602,6,1,10,4,5,223.806916787,65.77,-4,0,0,0,0,-6,0,0,10,2.30258509299405,5233,4335,3474,2715,1973,1284,706,394,144,0,1314,1047,752,495,300,140,41,1,0,0,
/home/yunzhuoz/Desktop/ABL_resist/Structures_revmut/MT/0LI_M351T.pdb.T.351.M.env.pdb,532.57,39,4.45602,6,1,10,4,5,223.806916787,65.77,-2,0,0,0,1,0,-1,1,10,2.30258509299405,11718,9448,7234,5330,3674,2313,1225,587,214,0,298,208,139,95,63,34,8,1,0,0,
/home/yunzhuoz/Desktop/ABL_resist/Structures_revmut/MT/0LI_E355A.pdb.A.355.E.env.pdb,532.57,39,4.45602,6,1,10,4,5,223.806916787,65.77,-1,0,-2,-2,0,0,0,-1,10,2.30258509299405,6189,5186,4095,3071,2185,1439,782,392,139,0,0,0,0,0,0,0,0,0,0,0,
/home/yunzhuoz/Desktop/ABL_resist/Structures_revmut/MT/0LI_F359C.pdb.C.359.F.env.pdb,532.57,39,4.45602,6,1,10,4,5,223.806916787,65.77,-6,0,0,0,0,-6,1,1,10,2.30258509299405,5196,4316,3432,2638,1897,1292,732,387,142,0,859,645,482,333,187,78,20,1,0,0,
/home/yunzhuoz/Desktop/ABL_resist/Structures_revmut/MT/0LI_F359I.pdb.I.359.F.env.pdb,532.57,39,4.45602,6,1,10,4,5,223.806916787,65.77,-3,0,0,0,0,-6,0,0,10,2.30258509299405,5265,4392,3492,2674,1929,1306,739,390,142,0,953,723,533,365,204,84,23,1,0,0,
/home/yunzhuoz/Desktop/ABL_resist/Structures_revmut/MT/0LI_F359V.pdb.V.359.F.env.pdb,532.57,39,4.45602,6,1,10,4,5,223.806916787,65.77,-4,0,0,0,0,-6,0,0,10,2.30258509299405,5126,4274,3403,2609,1869,1277,725,384,141,0,922,695,513,357,201,85,23,1,0,0,
/home/yunzhuoz/Desktop/ABL_resist/Structures_revmut/MT/0LI_H396R.pdb.R.396.H.env.pdb,532.57,39,4.45602,6,1,10,4,5,223.806916787,65.77,-1,0,0,0,1,-5,0,1,10,2.30258509299405,5334,4373,3475,2627,1840,1171,636,351,128,0,0,0,0,0,0,0,0,0,0,0,
/home/yunzhuoz/Desktop/ABL_resist/Structures_revmut/MT/0LI_E459K.pdb.K.459.E.env.pdb,532.57,39,4.45602,6,1,10,4,5,223.806916787,65.77,1,1,-2,-2,1,0,0,0,10,2.30258509299405,4058,3398,2702,2042,1452,945,525,271,106,0,0,0,0,0,0,0,0,0,0,0,
/home/yunzhuoz/Desktop/ABL_resist/Structures_revmut/MT/ATP_M244V.pdb.V.244.M.env.pdb,476.172,29,-0.5232,13,5,20,8,3,160.786416685,251.56,0,0,0,0,0,0,-1,0,10,2.30258509299405,4690,3894,3160,2441,1739,1107,612,333,117,0,0,0,0,0,0,0,0,0,0,0,
/home/yunzhuoz/Desktop/ABL_resist/Structures_revmut/MT/ATP_L248R.pdb.R.248.L.env.pdb,476.172,29,-0.5232,13,5,20,8,3,160.786416685,251.56,-1,2,0,0,3,0,0,1,10,2.30258509299405,3943,3365,2766,2204,1632,1086,611,357,133,0,1596,1258,924,604,339,138,33,2,0,0,
/home/yunzhuoz/Desktop/ABL_resist/Structures_revmut/MT/ATP_L248V.pdb.V.248.L.env.pdb,476.172,29,-0.5232,13,5,20,8,3,160.786416685,251.56,-1,0,0,0,0,0,0,0,10,2.30258509299405,3919,3363,2792,2246,1652,1072,606,347,127,0,1427,1100,791,505,296,124,35,2,0,0,
/home/yunzhuoz/Desktop/ABL_resist/Structures_revmut/MT/ATP_G250E.pdb.E.250.G.env.pdb,476.172,29,-0.5232,13,5,20,8,3,160.786416685,251.56,2,0,2,2,0,0,0,1,10,2.30258509299405,3524,3061,2557,2021,1516,1008,554,302,112,0,1176,907,678,455,270,124,38,2,0,0,
/home/yunzhuoz/Desktop/ABL_resist/Structures_revmut/MT/ATP_Q252H.pdb.H.252.Q.env.pdb,476.172,29,-0.5232,13,5,20,8,3,160.786416685,251.56,2,2,0,-1,1,5,0,-1,10,2.30258509299405,2486,2046,1609,1241,911,633,367,231,98,0,674,555,428,300,178,86,28,3,0,0,
/home/yunzhuoz/Desktop/ABL_resist/Structures_revmut/MT/ATP_Y253F.pdb.F.253.Y.env.pdb,476.172,29,-0.5232,13,5,20,8,3,160.786416685,251.56,0,0,0,0,-1,0,0,0,10,2.30258509299405,5804,4676,3617,2722,1974,1284,703,387,147,0,870,683,520,354,205,95,32,4,0,0,
/home/yunzhuoz/Desktop/ABL_resist/Structures_revmut/MT/ATP_Y253H.pdb.H.253.Y.env.pdb,476.172,29,-0.5232,13,5,20,8,3,160.786416685,251.56,-3,2,0,0,1,-1,0,0,10,2.30258509299405,5790,4651,3608,2724,1966,1277,709,392,148,0,884,696,529,359,210,97,32,4,0,0,
/home/yunzhuoz/Desktop/ABL_resist/Structures_revmut/MT/ATP_E255K.pdb.K.255.E.env.pdb,476.172,29,-0.5232,13,5,20,8,3,160.786416685,251.56,1,1,-2,-2,1,0,0,0,10,2.30258509299405,4552,3889,3214,2503,1822,1170,635,338,125,0,859,666,488,330,198,97,27,2,0,0,
/home/yunzhuoz/Desktop/ABL_resist/Structures_revmut/MT/ATP_E255V.pdb.V.255.E.env.pdb,476.172,29,-0.5232,13,5,20,8,3,160.786416685,251.56,1,0,-2,-2,0,0,0,-1,10,2.30258509299405,5112,4325,3563,2762,2007,1281,695,370,133,0,983,761,555,365,215,101,27,2,0,0,
/home/yunzhuoz/Desktop/ABL_resist/Structures_revmut/MT/ATP_D276G.pdb.G.276.D.env.pdb,476.172,29,-0.5232,13,5,20,8,3,160.786416685,251.56,-1,0,-2,-2,0,0,0,-1,10,2.30258509299405,3614,2912,2280,1728,1243,841,499,296,107,0,0,0,0,0,0,0,0,0,0,0,
/home/yunzhuoz/Desktop/ABL_resist/Structures_revmut/MT/ATP_E279K.pdb.K.279.E.env.pdb,476.172,29,-0.5232,13,5,20,8,3,160.786416685,251.56,1,1,-2,-2,1,0,0,0,10,2.30258509299405,2579,2223,1857,1458,1049,682,390,213,78,0,0,0,0,0,0,0,0,0,0,0,
/home/yunzhuoz/Desktop/ABL_resist/Structures_revmut/MT/ATP_E292L.pdb.L.292.E.env.pdb,476.172,29,-0.5232,13,5,20,8,3,160.786416685,251.56,2,0,-2,-2,0,0,0,-1,10,2.30258509299405,3692,3126,2489,1910,1360,861,480,247,95,0,0,0,0,0,0,0,0,0,0,0,
/home/yunzhuoz/Desktop/ABL_resist/Structures_revmut/MT/ATP_V299L.pdb.L.299.V.env.pdb,476.172,29,-0.5232,13,5,20,8,3,160.786416685,251.56,1,0,0,0,0,0,0,0,10,2.30258509299405,7613,6208,4855,3644,2595,1650,887,478,171,0,770,595,417,271,166,79,23,2,0,0,
/home/yunzhuoz/Desktop/ABL_resist/Structures_revmut/MT/ATP_T315A.pdb.A.315.T.env.pdb,476.172,29,-0.5232,13,5,20,8,3,160.786416685,251.56,0,0,0,0,-1,0,0,-1,10,2.30258509299405,7568,6067,4764,3620,2582,1634,867,461,169,0,889,700,508,314,183,88,24,2,0,0,
/home/yunzhuoz/Desktop/ABL_resist/Structures_revmut/MT/ATP_T315I.pdb.I.315.T.env.pdb,476.172,29,-0.5232,13,5,20,8,3,160.786416685,251.56,3,0,0,0,-1,0,0,-1,10,2.30258509299405,7567,6129,4831,3675,2597,1652,864,461,167,0,1081,847,611,391,234,113,32,4,0,0,
/home/yunzhuoz/Desktop/ABL_resist/Structures_revmut/MT/ATP_T315V.pdb.V.315.T.env.pdb,476.172,29,-0.5232,13,5,20,8,3,160.786416685,251.56,2,0,0,0,-1,0,0,-1,10,2.30258509299405,7593,6125,4823,3649,2584,1635,856,452,165,0,927,731,535,336,194,91,25,2,0,0,
/home/yunzhuoz/Desktop/ABL_resist/Structures_revmut/MT/ATP_F317C.pdb.C.317.F.env.pdb,476.172,29,-0.5232,13,5,20,8,3,160.786416685,251.56,-6,0,0,0,0,-6,1,1,10,2.30258509299405,5118,4212,3364,2640,1927,1254,693,378,140,0,1068,825,593,374,212,96,24,2,0,0,
/home/yunzhuoz/Desktop/ABL_resist/Structures_revmut/MT/ATP_F317I.pdb.I.317.F.env.pdb,476.172,29,-0.5232,13,5,20,8,3,160.786416685,251.56,-3,0,0,0,0,-6,0,0,10,2.30258509299405,5273,4328,3467,2740,2005,1311,714,387,141,0,1196,929,667,417,240,109,28,2,0,0,
/home/yunzhuoz/Desktop/ABL_resist/Structures_revmut/MT/ATP_F317L.pdb.L.317.F.env.pdb,476.172,29,-0.5232,13,5,20,8,3,160.786416685,251.56,-3,0,0,0,0,-6,0,0,10,2.30258509299405,5185,4251,3418,2684,1975,1295,703,382,140,0,1204,933,669,419,240,110,30,2,0,0,
/home/yunzhuoz/Desktop/ABL_resist/Structures_revmut/MT/ATP_F317R.pdb.R.317.F.env.pdb,476.172,29,-0.5232,13,5,20,8,3,160.786416685,251.56,-4,2,0,0,3,-6,0,1,10,2.30258509299405,5014,4130,3316,2651,1942,1272,687,379,140,0,1286,1004,729,463,263,118,28,2,0,0,
/home/yunzhuoz/Desktop/ABL_resist/Structures_revmut/MT/ATP_F317V.pdb.V.317.F.env.pdb,476.172,29,-0.5232,13,5,20,8,3,160.786416685,251.56,-4,0,0,0,0,-6,0,0,10,2.30258509299405,5204,4268,3406,2685,1949,1267,697,379,140,0,1063,825,602,379,218,98,26,2,0,0,
/home/yunzhuoz/Desktop/ABL_resist/Structures_revmut/MT/ATP_M343T.pdb.T.343.M.env.pdb,476.172,29,-0.5232,13,5,20,8,3,160.786416685,251.56,-2,0,0,0,1,0,-1,1,10,2.30258509299405,9442,7549,5814,4323,2997,1856,994,509,184,0,0,0,0,0,0,0,0,0,0,0,
/home/yunzhuoz/Desktop/ABL_resist/Structures_revmut/MT/ATP_M351T.pdb.T.351.M.env.pdb,476.172,29,-0.5232,13,5,20,8,3,160.786416685,251.56,-2,0,0,0,1,0,-1,1,10,2.30258509299405,11627,9353,7152,5266,3605,2266,1185,585,209,0,0,0,0,0,0,0,0,0,0,0,
/home/yunzhuoz/Desktop/ABL_resist/Structures_revmut/MT/ATP_E355A.pdb.A.355.E.env.pdb,476.172,29,-0.5232,13,5,20,8,3,160.786416685,251.56,-1,0,-2,-2,0,0,0,-1,10,2.30258509299405,6189,5147,4071,3068,2159,1408,764,392,139,0,0,0,0,0,0,0,0,0,0,0,
/home/yunzhuoz/Desktop/ABL_resist/Structures_revmut/MT/ATP_F359C.pdb.C.359.F.env.pdb,476.172,29,-0.5232,13,5,20,8,3,160.786416685,251.56,-6,0,0,0,0,-6,1,1,10,2.30258509299405,7475,6009,4706,3507,2427,1581,867,449,164,0,0,0,0,0,0,0,0,0,0,0,
/home/yunzhuoz/Desktop/ABL_resist/Structures_revmut/MT/ATP_F359I.pdb.I.359.F.env.pdb,476.172,29,-0.5232,13,5,20,8,3,160.786416685,251.56,-3,0,0,0,0,-6,0,0,10,2.30258509299405,7559,6087,4789,3580,2472,1594,868,445,161,0,0,0,0,0,0,0,0,0,0,0,
/home/yunzhuoz/Desktop/ABL_resist/Structures_revmut/MT/ATP_F359V.pdb.V.359.F.env.pdb,476.172,29,-0.5232,13,5,20,8,3,160.786416685,251.56,-4,0,0,0,0,-6,0,0,10,2.30258509299405,7278,5880,4608,3441,2370,1546,847,442,159,0,0,0,0,0,0,0,0,0,0,0,
/home/yunzhuoz/Desktop/ABL_resist/Structures_revmut/MT/ATP_L384M.pdb.M.384.L.env.pdb,476.172,29,-0.5232,13,5,20,8,3,160.786416685,251.56,-1,0,0,0,0,0,1,0,10,2.30258509299405,8213,6645,5115,3767,2654,1651,873,475,182,0,600,461,321,204,104,44,17,3,0,0,
/home/yunzhuoz/Desktop/ABL_resist/Structures_revmut/MT/ATP_H396R.pdb.R.396.H.env.pdb,476.172,29,-0.5232,13,5,20,8,3,160.786416685,251.56,-1,0,0,0,1,-5,0,1,10,2.30258509299405,920,803,647,508,397,303,197,121,45,0,0,0,0,0,0,0,0,0,0,0,
/home/yunzhuoz/Desktop/ABL_resist/Structures_revmut/MT/ATP_E459K.pdb.K.459.E.env.pdb,476.172,29,-0.5232,13,5,20,8,3,160.786416685,251.56,1,1,-2,-2,1,0,0,0,10,2.30258509299405,2723,2332,1876,1448,1038,681,391,218,84,0,0,0,0,0,0,0,0,0,0,0,
/home/yunzhuoz/Desktop/ABL_resist/Structures_revmut/MT/ATP_F486S.pdb.S.486.F.env.pdb,476.172,29,-0.5232,13,5,20,8,3,160.786416685,251.56,-7,0,0,0,1,-6,0,1,10,2.30258509299405,8494,6897,5378,4031,2877,1848,998,486,170,0,0,0,0,0,0,0,0,0,0,0,
