ATP_Inter-Neut:Pos-5.00,KOSJ950100_SST,Inter-Acc:Acc-5.00,Hydro:Neut-5.00,Inter-Don:Hydro-4.00,PosIonizable_Count,Acc:Hydro-6.00,LIG.NUM_ROTATABLE_BONDS,ATP_Aro:Neg-7.00,ATP_Neut:Pos-2.00,Phenotype
0,3.2,0,1168,0,0,191,5,0,9,Susceptible
88,0.6,3,1354,9,0,257,5,22,11,Susceptible
88,3.2,3,1354,9,0,257,5,22,11,Susceptible
49,1.1,0,430,1,0,93,5,14,14,Susceptible
2,6.8,1,944,5,0,173,5,13,16,Susceptible
2,2.1,1,944,5,0,173,5,13,16,Susceptible
13,1.2,0,920,1,0,176,5,11,13,Susceptible
13,0.6,0,920,1,0,176,5,11,13,Susceptible
0,1.2,0,671,0,0,134,5,3,4,Susceptible
67,3.9,1,1412,9,0,306,5,1,11,Susceptible
105,2.9,2,1717,10,0,277,5,0,11,Susceptible
105,2.1,2,1717,10,0,277,5,0,11,Susceptible
105,2.7,2,1717,10,0,277,5,0,11,Susceptible
0,3.1,0,2098,0,0,326,5,0,1,Susceptible
0,3.1,0,2237,0,0,373,5,32,4,Susceptible
0,2.4,0,1659,0,0,299,5,16,9,Susceptible
0,2,0,1659,0,0,299,5,16,9,Susceptible
3,2.8,0,1782,0,0,306,5,24,17,Susceptible
0,1.2,0,514,0,0,81,5,3,1,Susceptible
0,0.8,0,1932,0,0,349,5,22,5,Susceptible
0,3.2,0,1261,0,2,203,9,0,9,Susceptible
88,4.2,5,1011,1,2,215,9,22,11,Susceptible
49,0.3,1,695,1,2,131,9,14,14,Susceptible
2,8.4,0,821,1,2,191,9,13,16,Susceptible
13,3.1,0,984,0,2,196,9,11,13,Susceptible
13,1.8,0,984,0,2,196,9,11,13,Susceptible
105,2.9,4,1777,3,2,312,9,0,11,Susceptible
0,3.1,0,2269,0,2,377,9,32,4,Susceptible
0,0.6,0,1673,0,2,280,9,16,9,Susceptible
0,2.4,0,1673,0,2,280,9,16,9,Susceptible
0,2,0,1673,0,2,280,9,16,9,Susceptible
0,1.2,0,425,0,2,80,9,3,1,Susceptible
0,3.2,0,1450,0,1,213,7,0,9,Susceptible
88,0.6,0,870,0,1,194,7,22,11,Susceptible
88,2.7,0,870,0,1,194,7,22,11,Susceptible
49,0.8,0,274,0,1,66,7,14,14,Susceptible
2,8.4,0,498,0,1,82,7,13,16,Susceptible
13,1.2,0,882,0,1,175,7,11,13,Susceptible
0,3.1,0,2306,0,1,391,7,32,4,Susceptible
0,0.6,0,1706,0,1,312,7,16,9,Susceptible
0,2.4,0,1706,0,1,312,7,16,9,Susceptible
0,2,0,1706,0,1,312,7,16,9,Susceptible
0,1.2,0,483,0,1,96,7,3,1,Susceptible
2,8.4,1,823,0,0,185,10,13,16,Susceptible
13,3.1,4,980,0,0,194,10,11,13,Susceptible
105,2.1,3,1760,0,0,316,10,0,11,Susceptible
0,3.1,0,2269,0,0,377,10,32,4,Susceptible
2,8.4,3,828,0,1,193,8,13,16,Susceptible
13,3.1,0,986,0,1,194,8,11,13,Susceptible
0,3.1,0,2269,0,1,377,8,32,4,Susceptible
0,3.2,0,1167,0,2,185,7,0,9,Susceptible
88,3.1,0,1246,0,2,253,7,22,11,Susceptible
67,3.9,0,1395,0,2,253,7,1,11,Susceptible
105,2.9,0,1651,0,2,264,7,0,11,Susceptible
0,3.1,0,2265,0,2,376,7,32,4,Susceptible
0,0.2,0,1172,0,2,188,7,16,9,Susceptible
0,1.2,0,1172,0,2,188,7,16,9,Susceptible
0,1.7,0,1172,0,2,188,7,16,9,Susceptible
0,4.9,0,917,0,2,159,7,3,1,Susceptible
0,3.2,0,1184,0,5,206,6,0,9,Susceptible
88,3.2,0,1187,0,5,227,6,22,11,Susceptible
49,1.1,0,444,0,5,88,6,14,14,Susceptible
67,3.9,0,1428,0,5,251,6,1,11,Susceptible
105,2.9,0,1677,0,5,261,6,0,11,Susceptible
0,3.1,0,2194,0,5,365,6,32,4,Susceptible
0,0.2,0,1391,0,5,217,6,16,9,Susceptible
0,1.2,0,1391,0,5,217,6,16,9,Susceptible
0,1.7,0,1391,0,5,217,6,16,9,Susceptible
0,4.9,0,845,0,5,157,6,3,1,Susceptible
0,3.2,0,1209,0,7,185,4,0,9,Susceptible
88,0.6,0,1310,0,7,249,4,22,11,Susceptible
88,3.2,0,1310,0,7,249,4,22,11,Susceptible
49,1.1,0,512,0,7,106,4,14,14,Susceptible
2,6.8,0,1339,0,7,252,4,13,16,Susceptible
13,1.2,0,1243,0,7,233,4,11,13,Susceptible
67,3.9,0,1440,0,7,253,4,1,11,Susceptible
105,2.9,0,1679,0,7,260,4,0,11,Susceptible
105,2.1,0,1679,0,7,260,4,0,11,Susceptible
0,3.1,0,2325,0,7,385,4,32,4,Susceptible
0,0.2,0,1143,0,7,185,4,16,9,Susceptible
0,1.2,0,1143,0,7,185,4,16,9,Susceptible
0,1.7,0,1143,0,7,185,4,16,9,Susceptible
0,1.2,0,1059,0,7,177,4,3,1,Susceptible
0,3.2,0,184,0,0,147,5,8,2,Susceptible
1,0.6,3,247,27,0,216,5,22,4,Susceptible
0,3.2,2,247,6,0,224,5,28,2,Susceptible
2,1.1,0,91,0,0,78,5,11,4,Susceptible
2,6.8,0,194,6,0,164,5,13,4,Susceptible
3,2.1,0,189,16,0,159,5,15,4,Susceptible
2,1.2,1,197,1,0,157,5,0,5,Susceptible
2,0.6,1,243,1,0,196,5,0,4,Susceptible
0,1.2,0,165,0,0,140,5,3,2,Susceptible
0,3.9,1,346,9,0,310,5,1,1,Susceptible
0,2.9,1,370,7,0,287,5,0,2,Susceptible
0,3.1,0,335,0,0,288,5,0,0,Susceptible
0,3.1,0,402,0,0,344,5,36,0,Susceptible
0,2.4,0,328,0,0,321,5,11,3,Susceptible
0,2,0,323,0,0,301,5,11,3,Susceptible
2,2.8,0,315,0,0,308,5,27,5,Susceptible
0,1.2,0,65,0,0,47,5,0,2,Susceptible
0,0.8,0,325,0,0,272,5,10,1,Susceptible
0,3.2,0,189,0,2,177,9,8,2,Susceptible
1,0.2,4,248,7,2,204,9,22,4,Susceptible
0,4.2,4,193,0,2,194,9,28,2,Susceptible
2,0.3,1,164,0,2,137,9,11,4,Susceptible
2,8.4,0,206,1,2,205,9,13,4,Susceptible
2,3.1,0,254,0,2,180,9,0,5,Susceptible
2,1.8,1,273,1,2,197,9,0,4,Susceptible
0,3.9,3,385,2,2,305,9,1,1,Susceptible
0,2.9,4,378,1,2,298,9,0,2,Susceptible
1,2.1,4,399,1,2,327,9,0,2,Susceptible
0,3.1,0,397,0,2,355,9,36,0,Susceptible
0,0.6,0,303,0,2,278,9,16,3,Susceptible
0,2.4,0,333,0,2,282,9,11,3,Susceptible
0,2,0,320,0,2,291,9,11,3,Susceptible
0,1.2,0,68,0,2,48,9,0,2,Susceptible
0,3.2,0,241,0,1,226,7,8,2,Susceptible
1,0.6,2,180,1,1,138,7,22,4,Susceptible
0,2.7,2,168,1,1,169,7,28,2,Susceptible
2,0.8,0,163,0,1,155,7,11,4,Susceptible
2,8.4,0,111,0,1,99,7,13,4,Susceptible
2,1.2,0,220,0,1,175,7,0,5,Susceptible
2,0.6,0,231,0,1,194,7,0,4,Susceptible
0,3.9,2,364,3,1,316,7,1,1,Susceptible
0,2.9,2,369,2,1,295,7,0,2,Susceptible
1,2.1,1,383,5,1,306,7,0,2,Susceptible
0,3.1,0,416,0,1,372,7,36,0,Susceptible
0,0.6,0,347,0,1,314,7,16,3,Susceptible
0,2.4,0,367,0,1,326,7,11,3,Susceptible
0,2,0,349,0,1,310,7,11,3,Susceptible
0,1.2,0,84,0,1,71,7,0,2,Susceptible
2,8.4,1,198,0,0,199,10,13,4,Susceptible
2,3.1,3,254,0,0,180,10,0,5,Susceptible
1,2.1,3,383,1,0,330,10,0,2,Susceptible
0,3.1,0,397,0,0,355,10,36,0,Susceptible
2,8.4,3,191,0,1,198,8,13,4,Susceptible
2,3.1,0,254,0,1,180,8,0,5,Susceptible
0,3.1,0,397,0,1,355,8,36,0,Susceptible
0,3.2,0,182,0,2,152,7,8,2,Susceptible
1,2.2,0,237,0,2,193,7,22,4,Susceptible
0,3.1,0,246,0,2,229,7,28,2,Susceptible
2,1.5,0,83,0,2,76,7,11,4,Susceptible
2,6.8,0,293,0,2,246,7,13,4,Susceptible
2,1.2,0,249,0,2,187,7,0,5,Susceptible
2,0.6,0,284,0,2,215,7,0,4,Susceptible
0,3.9,0,335,0,2,259,7,1,1,Susceptible
0,2.9,0,329,0,2,268,7,0,2,Susceptible
1,2.1,0,348,0,2,289,7,0,2,Susceptible
0,3.1,0,409,0,2,354,7,36,0,Susceptible
0,0.2,0,228,0,2,197,7,16,3,Susceptible
0,1.2,0,242,0,2,204,7,11,3,Susceptible
0,1.7,0,232,0,2,203,7,11,3,Susceptible
0,4.9,0,172,0,2,149,7,0,2,Susceptible
0,3.2,0,204,0,5,156,6,8,2,Susceptible
1,0.6,0,273,0,5,226,6,22,4,Susceptible
0,3.2,0,230,0,5,199,6,28,2,Susceptible
2,1.1,0,88,0,5,81,6,11,4,Susceptible
2,6.8,0,264,0,5,232,6,13,4,Susceptible
2,1.2,0,238,0,5,181,6,0,5,Susceptible
2,0.6,0,267,0,5,215,6,0,4,Susceptible
0,3.9,0,318,0,5,255,6,1,1,Susceptible
0,2.9,0,337,0,5,265,6,0,2,Susceptible
1,2.1,0,346,0,5,296,6,0,2,Susceptible
0,3.1,0,404,0,5,333,6,36,0,Susceptible
0,0.2,0,253,0,5,204,6,16,3,Susceptible
0,1.2,0,260,0,5,199,6,11,3,Susceptible
0,1.7,0,258,0,5,207,6,11,3,Susceptible
0,4.9,0,131,0,5,104,6,0,2,Susceptible
0,3.2,0,215,0,7,173,4,8,2,Susceptible
1,0.6,0,236,0,7,197,4,22,4,Susceptible
0,3.2,0,232,0,7,210,4,28,2,Susceptible
2,1.1,0,119,0,7,93,4,11,4,Susceptible
2,6.8,0,317,0,7,271,4,13,4,Susceptible
2,1.2,0,277,0,7,210,4,0,5,Susceptible
2,0.6,0,300,0,7,232,4,0,4,Susceptible
0,3.9,0,313,0,7,265,4,1,1,Susceptible
0,2.9,0,333,0,7,260,4,0,2,Susceptible
1,2.1,0,341,0,7,281,4,0,2,Susceptible
0,3.1,0,418,0,7,352,4,36,0,Susceptible
0,0.2,0,245,0,7,194,4,16,3,Susceptible
0,1.2,0,259,0,7,200,4,11,3,Susceptible
0,1.7,0,249,0,7,191,4,11,3,Susceptible
0,1.2,0,203,0,7,142,4,0,2,Susceptible
2,2.5,0,610,2,0,114,5,10,19,Susceptible
0,1.2,0,340,0,0,55,5,3,0,Susceptible
0,1.1,0,1022,0,0,137,5,3,12,Susceptible
93,3.6,3,1137,10,0,198,5,20,6,Susceptible
93,0.4,3,1137,10,0,198,5,20,6,Susceptible
93,1.7,3,1137,10,0,198,5,20,6,Susceptible
93,0.2,5,1190,2,2,228,9,20,6,Susceptible
93,1.2,5,1190,2,2,228,9,20,6,Susceptible
93,3.6,5,1190,2,2,228,9,20,6,Susceptible
0,4,0,1336,0,2,262,9,17,4,Susceptible
0,1.2,0,1072,0,2,112,9,2,11,Susceptible
0,4,0,1410,0,1,286,7,17,4,Susceptible
0,1.2,0,1222,0,1,130,7,2,11,Susceptible
2,0.9,4,601,0,0,141,10,10,19,Susceptible
93,3.6,4,1135,0,0,232,10,20,6,Susceptible
2,0.9,2,607,1,1,139,8,10,19,Susceptible
93,3.6,5,1149,2,1,230,8,20,6,Susceptible
93,0.2,0,1038,0,2,186,7,20,6,Susceptible
93,1.2,0,1038,0,2,186,7,20,6,Susceptible
93,3.6,0,1038,0,2,186,7,20,6,Susceptible
0,4,0,1428,0,2,284,7,17,4,Susceptible
0,1.2,0,971,0,2,111,7,2,11,Susceptible
93,0.2,0,1033,0,5,184,6,20,6,Susceptible
93,1.2,0,1033,0,5,184,6,20,6,Susceptible
93,3.6,0,1033,0,5,184,6,20,6,Susceptible
93,1.7,0,1033,0,5,184,6,20,6,Susceptible
0,4,0,1333,0,5,280,6,17,4,Susceptible
0,1.2,0,1177,0,5,96,6,2,11,Susceptible
93,0.2,0,1070,0,7,196,4,20,6,Susceptible
93,1.2,0,1070,0,7,196,4,20,6,Susceptible
93,3.6,0,1070,0,7,196,4,20,6,Susceptible
93,1.7,0,1070,0,7,196,4,20,6,Susceptible
0,4,0,1441,0,7,275,4,17,4,Susceptible
0,1.2,0,1209,0,7,106,4,2,11,Susceptible
88,0.2,5,1011,1,2,215,9,22,11,Resistant
67,3.9,3,1527,2,2,300,9,1,11,Resistant
105,2.1,4,1777,3,2,312,9,0,11,Resistant
13,0.6,0,882,0,1,175,7,11,13,Resistant
67,3.9,0,1418,0,1,294,7,1,11,Resistant
105,2.9,0,1661,0,1,281,7,0,11,Resistant
105,2.1,0,1661,0,1,281,7,0,11,Resistant
88,2.2,0,1246,0,2,253,7,22,11,Resistant
49,1.5,0,560,0,2,105,7,14,14,Resistant
2,6.8,0,1274,0,2,241,7,13,16,Resistant
13,1.2,0,1041,0,2,210,7,11,13,Resistant
13,0.6,0,1041,0,2,210,7,11,13,Resistant
105,2.1,0,1651,0,2,264,7,0,11,Resistant
88,0.6,0,1187,0,5,227,6,22,11,Resistant
2,6.8,0,1194,0,5,226,6,13,16,Resistant
13,1.2,0,1017,0,5,210,6,11,13,Resistant
13,0.6,0,1017,0,5,210,6,11,13,Resistant
105,2.1,0,1677,0,5,261,6,0,11,Resistant
13,0.6,0,1243,0,7,233,4,11,13,Resistant
1,2.1,1,382,8,0,296,5,0,2,Resistant
0,2.7,1,388,7,0,298,5,0,2,Resistant
93,1.7,5,1190,2,2,228,9,20,6,Resistant
93,0.2,0,1187,0,1,224,7,20,6,Resistant
93,1.2,0,1187,0,1,224,7,20,6,Resistant
93,3.6,0,1187,0,1,224,7,20,6,Resistant
93,1.7,0,1187,0,1,224,7,20,6,Resistant
93,1.2,4,1135,0,0,232,10,20,6,Resistant
93,1.2,5,1149,2,1,230,8,20,6,Resistant
93,1.7,0,1038,0,2,186,7,20,6,Resistant
