ID,position,actual,predicted,old_ID,error,trans_predicted,dist.to_bestfit,outlier
122,317,1.58,0.14,122,1.44,0.3,0.31,True
116,317,1.79,0.78,116,1.01,0.15,0.27,True
125,317,1.35,0.13,125,1.22,0.55,0.27,True
112,317,1.72,0.24,112,1.48,0.31,0.25,True
117,317,0.96,0.56,117,0.4,0.18,0.23,False
128,317,0.17,0.36,128,0.19,0.28,0.2,False
127,317,0.28,0.38,127,0.1,0.64,0.19,False
115,317,1.86,0.68,115,1.18,0.63,0.16,False
133,317,0.04,0.27,133,0.23,0.44,0.14,False
107,317,0.27,0.05,107,0.22,0.35,0.13,False
120,459,0.41,0.34,120,0.07,0.59,0.13,False
124,252,-0.44,-0.1,124,0.34,0.56,0.13,False
104,276,0.18,0.03,104,0.15,1.55,0.12,False
138,459,0.55,0.36,138,0.19,1.74,0.12,False
118,317,2.36,0.73,118,1.63,1.28,0.11,False
105,292,0.03,0.22,105,0.19,1.66,0.09,False
134,317,0.3,0.27,134,0.03,0.41,0.09,False
108,317,0.28,0.09,108,0.19,0.14,0.08,False
123,317,0.4,0.13,123,0.27,-0.14,0.08,False
126,317,0.29,0.09,126,0.2,0.82,0.08,False
142,317,0.72,0.19,142,0.53,0.36,0.08,False
143,355,0.51,0.14,143,0.37,0.38,0.08,False
103,252,0.2,0.1,103,0.1,0.89,0.06,False
106,317,0.23,0.11,106,0.12,0.85,0.06,False
121,252,-0.13,0.03,121,0.16,0.37,0.06,False
139,317,0,0.18,139,0.18,0.28,0.06,False
131,355,0.47,0.18,131,0.29,0.65,0.04,False
109,317,0.5,0.26,109,0.24,0.78,0.03,False
111,317,0.09,0.17,111,0.08,0.38,0.03,False
114,459,0.35,0.22,114,0.13,0.67,0.03,False
132,459,0.66,0.23,132,0.43,0.57,0.03,False
136,317,0.33,0.22,136,0.11,0.54,0.03,False
141,317,0.17,0.19,141,0.02,0.46,0.03,False
144,459,0.3,0.15,144,0.15,0.66,0.03,False
119,355,0.24,0.15,119,0.09,0.84,0.02,False
135,317,0.2,0.14,135,0.06,0.39,0.02,False
110,317,0.71,0.26,110,0.45,0.47,0.01,False
129,317,0.72,0.26,129,0.46,0.48,0.01,False
140,317,0.51,0.24,140,0.27,0.59,0.01,False
113,355,0.02,0.12,113,0.1,0.41,0,False
130,317,0.97,0.33,130,0.64,0.39,0,False
137,355,0.11,0.15,137,0.04,0.49,0,False
