feature_id,Pearson
1,0.445
2,0.466
3,0.507
4,0.577
5,0.58
6,0.586
7,0.591
8,0.612
9,0.618
10,0.629
11,0.643
12,0.659
13,0.659
14,0.655
15,0.651
16,0.647
17,0.644
18,0.642
19,0.643
20,0.643
21,0.639
22,0.635
23,0.631
24,0.626
25,0.621
26,0.615
27,0.613
28,0.609
29,0.604
30,0.599
31,0.595
32,0.59
33,0.593
34,0.589
35,0.585
36,0.581
37,0.58
38,0.599
39,0.619
40,0.629
41,0.635
42,0.638
43,0.641
44,0.642
45,0.644
46,0.646
47,0.647
48,0.649
49,0.65
50,0.65
51,0.652
52,0.653
53,0.656
54,0.657
55,0.658
56,0.659
57,0.66
58,0.661
59,0.662
60,0.663
61,0.665
62,0.666
63,0.667
64,0.667
65,0.667
66,0.667
67,0.668
68,0.669
69,0.669
70,0.67
71,0.67
72,0.67
73,0.67
74,0.67
75,0.67
76,0.67
77,0.67
78,0.67
79,0.67
80,0.67
81,0.67
82,0.669
83,0.669
84,0.67
85,0.67
86,0.67
87,0.67
88,0.673
89,0.691
90,0.697
91,0.701
92,0.704
93,0.706
94,0.708
95,0.71
96,0.712
97,0.713
98,0.715
99,0.715
100,0.715
101,0.716
102,0.716
103,0.716
104,0.716
105,0.716
106,0.715
107,0.715
108,0.714
109,0.713
110,0.714
111,0.713
112,0.714
113,0.713
114,0.713
115,0.713
116,0.712
117,0.712
118,0.712
119,0.711
120,0.716
121,0.718
122,0.72
123,0.72
124,0.719
125,0.718
126,0.718
127,0.717
128,0.716
129,0.716
130,0.716
131,0.715
132,0.714
