,blind-test,feature_name,training
1,0.228,Inter-Aro:Neut-4.00,0.305
2,0.27,Inter-Don:Neut-6.00,0.32
3,0.415,BRYS930101,0.434
4,0.415,ATP_Hydro:Neg-4.00,0.463
5,0.415,Aro:Neut-3.00,0.441
6,0.415,Amide-Amide,0.507
7,0.48,ATP_Inter-Don:Don-4.00,0.463
8,0.48,Aro:Neut-2.00,0.507
9,0.48,ATP_Aro:Hydro-2.00,0.507
10,0.48,FCount,0.566
11,0.48,CROG050101,0.507
12,0.48,ATP_Inter-Acc:Don-3.00,0.507
13,0.48,ATP_Acc,0.563
14,0.48,ATP_Aro:Neg-10.00,0.563
15,0.48,Inter-Hydro:Neut-7.00,0.563
16,0.48,ATP_Inter-Aro:Don-3.00,0.507
17,0.415,Inter-Don:Don-7.00,0.507
