,blind-test,feature_name,training
1,0.0,Inter-Acc:Hydro-7.00,0.096
2,0.0,Inter-Neut:Neut-3.00,0.099
3,0.563,Don:Pos-4.00,0.488
4,0.563,RIER950101,0.58
5,0.563,ATP_Inter-Acc:Don-3.00,0.62
6,0.548,ATP_Acc:Neut-3.00,0.62
7,0.548,ATP_Inter-Don:Don-4.00,0.62
8,0.548,ATP_Aro:Neut-8.00,0.62
9,0.548,ATP_Inter-Aro:Don-3.00,0.62
10,0.548,ATP_Don:Neut-3.00,0.62
