,blind-test,feature_name,training
1,0.283,Acc:Don-6.00,0.36
2,0.383,Inter-Don:Neg-10.00,0.473
3,0.546,Inter-Hydro:Neut-9.00,0.473
4,0.625,LIG.NUM_DONORS,0.539
5,0.546,ATP_Aromatic,0.562
6,0.546,d_Amide-Ring,0.625
7,0.632,Neut:Pos-4.00,0.681
8,0.632,Proximal,0.731
9,0.632,ATP_d_PI-PI,0.731
10,0.632,Polar,0.731
11,0.632,PI-PI,0.731
12,0.632,ATP_d_Aromatic,0.731
13,0.632,ATP_Acc:Neg-3.00,0.731
14,0.632,LIG.TPSA,0.627
15,0.632,ATP_Inter-Don:Don-8.00,0.681
16,0.632,ATP_Inter-Neg:Neut-5.00,0.731
17,0.632,Dynamut2,0.681
18,0.608,ATP_Hydro:Neut-8.00,0.681
19,0.632,Amide-Ring,0.681
20,0.608,ATP_Carbon-PI,0.681
21,0.608,Inter-Neut:Neut-7.00,0.681
22,0.608,Inter-Neut:Neut-3.00,0.681
23,0.608,Hydrophobic,0.681
24,0.608,ATP_d_Amide-Ring,0.681
25,0.632,ATP_Amide-Ring,0.681
26,0.608,Inter-Aro:Hydro-6.00,0.681
27,0.608,ATP_Inter-Acc:Neut-4.00,0.681
28,0.608,Don:Pos-6.00,0.681
29,0.608,Inter-Hydro:Neut-3.00,0.681
30,0.608,RSA,0.681
31,0.608,Inter-Neut:Neut-10.00,0.681
32,0.608,ATP_Inter-Don:Pos-9.00,0.681
33,0.608,WeakPolar,0.627
34,0.425,ATP_d_WeakHbond,0.507
35,0.425,ATP_Hydro,0.507
36,0.425,ATP_d_Hydrophobic,0.507
37,0.425,KOSJ950100_SST,0.507
38,0.425,ATP_d_Proximal,0.507
39,0.425,ATP_Polar,0.507
40,0.425,ATP_Hbond,0.507
41,0.425,mCSM_stability,0.355
42,0.425,blosum55,0.507
43,0.425,ATP_d_Carbon-PI,0.507
44,0.425,ResDepth,0.507
45,0.425,ATP_Aro:Hydro-7.00,0.507
46,0.425,Inter-Neut:Neut-5.00,0.436
47,0.425,GIAG010101,0.507
48,0.425,ATP_Inter-Acc:Neut-10.00,0.507
