ID,group,ATP_Inter-Neut:Neut-7.00,LIG.LABUTE_ASA,Inter-Don:Neut-4.00,Fluctuation,Neut:Pos-7.00,ddg_sdm,ATP_Inter-Neg:Pos-8.00,Hydro:Neut-3.00,ATP_Inter-Acc:Aro-8.00,LIG.NUM_ACCEPTORS,PRLA000101,ATP_Inter-Hydro:Pos-6.00,Proximal,LIG.NUM_ROTATABLE_BONDS,ATP_Inter-Neg:Pos-9.00,ATP_Polar,Don:Pos-6.00,Acc:Pos-3.00,DDG_exp
1,244,0,166.448825749,0,0.1083704,131,1.23,0,324,0,4,0.61,0,50,5,0,0,9,1,-0.11
2,248,829,166.448825749,37,0.08009548,63,-0.73,0,390,43,4,-1.19,57,100,5,1,1,7,0,0.31
3,248,829,166.448825749,37,0.08009548,63,-0.24,0,390,43,4,0.81,57,100,5,1,1,7,0,0.32
4,250,678,166.448825749,5,0.1301729,37,-3.27,10,142,55,4,-0.41,25,14,5,11,0,4,0,0.27
5,253,282,166.448825749,28,0.07445152,87,0.39,0,330,30,4,1.96,0,107,5,0,3,8,0,0.26
6,253,282,166.448825749,28,0.07445152,87,0.07,0,330,30,4,-0.12,0,107,5,0,3,8,0,0.03
7,255,341,166.448825749,8,0.09066566,100,-0.57,0,287,6,4,1.11,4,67,5,0,5,6,0,0.26
8,255,341,166.448825749,8,0.09066566,100,1.03,0,287,6,4,-1.84,4,67,5,0,5,6,0,0.3
9,279,0,166.448825749,0,0.3354318,0,-0.27,0,231,0,4,1.11,0,50,5,0,4,0,0,-0.03
10,299,349,166.448825749,27,0.02489762,142,-0.09,14,471,42,4,0.81,40,71,5,14,1,11,3,-0.88
11,315,476,166.448825749,33,0.01679734,81,0.33,14,528,39,4,0.13,64,83,5,14,4,3,3,-0.45
12,315,476,166.448825749,33,0.01679734,81,1.91,14,528,39,4,-0.96,64,83,5,14,4,3,3,-1.27
13,315,476,166.448825749,33,0.01679734,81,2.44,14,528,39,4,0.05,64,83,5,14,4,3,3,-1.73
14,343,0,166.448825749,0,0.02008809,93,-3.37,0,584,0,4,-1.58,0,104,5,0,5,8,0,0.21
15,351,0,166.448825749,0,0.01539874,273,-2.46,0,606,0,4,-1.58,0,117,5,0,6,29,2,-0.24
16,359,0,166.448825749,0,0.02454344,167,0.43,0,488,0,4,0.76,0,135,5,0,2,16,0,0.1
17,359,0,166.448825749,0,0.02454344,167,-1.65,0,488,0,4,0.51,0,135,5,0,2,16,0,0.07
18,384,214,166.448825749,0,0.0229849,264,-0.99,0,513,31,4,1.61,0,95,5,0,3,32,1,0.06
19,396,0,166.448825749,0,0.128798,145,-0.11,0,155,0,4,0.54,0,32,5,0,2,21,1,0.25
20,486,0,166.448825749,0,0.01220938,176,-3.38,0,519,0,4,-1.11,0,177,5,0,5,19,2,0.05
21,244,0,220.807619291,0,0.1304075,59,1.39,0,363,0,8,0.61,0,48,9,0,0,6,1,0.43
22,248,829,220.807619291,13,0.1440437,131,-0.62,0,284,43,8,-1.19,57,93,9,1,1,10,0,1.5
23,248,829,220.807619291,13,0.1440437,131,0.84,0,284,43,8,0.81,57,93,9,1,1,10,0,0.56
24,250,678,220.807619291,3,0.1595601,120,-3.79,10,229,55,8,-0.41,25,35,9,11,0,6,1,0.11
25,253,282,220.807619291,1,0.1403993,106,0.47,0,243,30,8,1.96,0,67,9,0,3,8,1,-0.34
26,255,341,220.807619291,3,0.1117195,135,-0.79,0,309,6,8,1.11,4,103,9,0,5,7,1,0.56
27,255,341,220.807619291,3,0.1117195,135,1.1,0,309,6,8,-1.84,4,103,9,0,5,7,1,0.66
28,299,349,220.807619291,14,0.02275371,146,-0.05,14,487,42,8,0.81,40,85,9,14,1,13,3,1.7
29,315,476,220.807619291,24,0.01736117,59,0.03,14,556,39,8,0.13,64,97,9,14,4,2,2,0.32
30,315,476,220.807619291,24,0.01736117,59,1.21,14,556,39,8,-0.96,64,97,9,14,4,2,2,2.45
31,351,0,220.807619291,0,0.01221075,208,-3.37,0,604,0,8,-1.58,0,123,9,0,6,18,1,0.19
32,359,0,220.807619291,0,0.02104121,143,-1.31,0,490,0,8,1.13,0,145,9,0,2,12,2,-0.01
33,359,0,220.807619291,0,0.02104121,143,0.43,0,490,0,8,0.76,0,145,9,0,2,12,2,0.04
34,359,0,220.807619291,0,0.02104121,143,-1.65,0,490,0,8,0.51,0,145,9,0,2,12,2,-0.11
35,396,0,220.807619291,0,0.1977773,81,-0.11,0,115,0,8,0.54,0,40,9,0,2,12,0,-0.1
36,244,0,201.001960408,0,0.07673319,180,0.73,0,419,0,9,0.61,0,55,7,0,0,23,1,0
37,248,829,201.001960408,13,0.1158771,98,-0.8,0,244,43,9,-1.19,57,91,7,1,1,9,2,0.65
38,248,829,201.001960408,13,0.1158771,98,0.54,0,244,43,9,0.81,57,91,7,1,1,9,2,0.55
39,250,678,201.001960408,2,0.126469,52,-0.51,10,123,55,9,-0.41,25,13,7,11,0,6,2,0.41
40,253,282,201.001960408,0,0.1439446,106,0.39,0,185,30,9,1.96,0,18,7,0,3,11,2,0.24
41,255,341,201.001960408,4,0.1028385,102,-0.5,0,292,6,9,1.11,4,89,7,0,5,7,2,0.9
42,255,341,201.001960408,4,0.1028385,102,0.97,0,292,6,9,-1.84,4,89,7,0,5,7,2,1.02
43,299,349,201.001960408,20,0.05384838,147,-0.35,14,451,42,9,0.81,40,91,7,14,1,13,2,1.24
44,315,476,201.001960408,21,0.06620603,63,-0.68,14,508,39,9,0.13,64,108,7,14,4,2,1,2.02
45,315,476,201.001960408,21,0.06620603,63,1.65,14,508,39,9,-0.96,64,108,7,14,4,2,1,5.08
46,351,0,201.001960408,0,0.02029063,252,-2.46,0,627,0,9,-1.58,0,125,7,0,6,26,1,0
47,359,0,201.001960408,0,0.05127537,116,-0.9,0,503,0,9,1.13,0,134,7,0,2,9,2,0
48,359,0,201.001960408,0,0.05127537,116,0.43,0,503,0,9,0.76,0,134,7,0,2,9,2,0.24
49,359,0,201.001960408,0,0.05127537,116,-1.65,0,503,0,9,0.51,0,134,7,0,2,9,2,0
50,396,0,201.001960408,0,0.2093501,119,-0.11,0,146,0,9,0.54,0,39,7,0,2,18,2,0
51,253,282,169.532263228,4,0.1403993,106,0.47,0,244,30,7,1.96,0,67,10,0,3,8,1,0
52,255,341,169.532263228,6,0.1117195,135,-0.79,0,305,6,7,1.11,4,103,10,0,5,7,1,-0.11
53,315,476,169.532263228,11,0.01736117,59,1.21,14,553,39,7,-0.96,64,95,10,14,4,2,2,-0.15
54,351,0,169.532263228,0,0.01221075,208,-3.37,0,604,0,7,-1.58,0,123,10,0,6,18,1,-0.08
55,253,282,184.642296753,11,0.1403993,120,0.47,0,243,30,7,1.96,0,67,8,0,3,8,2,-0.17
56,255,341,184.642296753,12,0.1117195,150,-0.79,0,308,6,7,1.11,4,103,8,0,5,7,1,-0.11
57,351,0,184.642296753,0,0.01221075,208,-3.37,0,604,0,7,-1.58,0,123,8,0,6,18,1,0.05
58,244,0,216.95624925,0,0.06482869,80,1.04,0,328,0,7,0.61,0,41,7,0,0,6,1,0.21
59,248,829,216.95624925,21,0.04471078,56,-0.81,0,352,43,7,-1.19,57,99,7,1,1,4,0,2.33
60,248,829,216.95624925,21,0.04471078,56,-0.24,0,352,43,7,0.81,57,99,7,1,1,4,0,0.64
61,250,678,216.95624925,1,0.05858455,59,-2.58,10,177,55,7,-0.41,25,27,7,11,0,6,0,1.01
62,253,282,216.95624925,9,0.03116053,56,0.16,0,401,30,7,1.96,0,108,7,0,3,2,0,1.9
63,255,341,216.95624925,5,0.04477886,110,-0.3,0,340,6,7,1.11,4,87,7,0,5,2,0,1.5
64,255,341,216.95624925,5,0.04477886,110,0.66,0,340,6,7,-1.84,4,87,7,0,5,2,0,2.22
65,299,349,216.95624925,18,0.02225299,164,-0.09,14,459,42,7,0.81,40,62,7,14,1,13,3,0.23
66,315,476,216.95624925,20,0.02188889,39,0.33,14,526,39,7,0.13,64,105,7,14,4,3,1,0.51
67,315,476,216.95624925,20,0.02188889,39,1.91,14,526,39,7,-0.96,64,105,7,14,4,3,1,2.32
68,351,0,216.95624925,1,0.02357251,241,-3.37,0,613,0,7,-1.58,0,123,7,0,6,27,1,0.42
69,359,0,216.95624925,1,0.03895296,56,0.04,0,369,0,7,1.13,0,90,7,0,2,3,0,0.77
70,359,0,216.95624925,1,0.03895296,56,0.54,0,369,0,7,0.76,0,90,7,0,2,3,0,0.28
71,359,0,216.95624925,1,0.03895296,56,0.48,0,369,0,7,0.51,0,90,7,0,2,3,0,0.32
72,396,0,216.95624925,0,0.09502504,159,-0.52,0,273,0,7,0.54,0,91,7,0,2,11,1,0.4
73,244,0,221.175124909,0,0.07150715,92,1.39,0,332,0,7,0.61,0,44,6,0,0,5,1,-0.13
74,248,829,221.175124909,20,0.04127098,53,-0.62,0,322,43,7,-1.19,57,102,6,1,1,5,0,2.15
75,248,829,221.175124909,20,0.04127098,53,-0.24,0,322,43,7,0.81,57,102,6,1,1,5,0,0.33
76,250,678,221.175124909,2,0.05885056,43,-2.62,10,149,55,7,-0.41,25,17,6,11,0,4,0,0.6
77,253,282,221.175124909,11,0.03286406,55,0.16,0,382,30,7,1.96,0,106,6,0,3,3,0,1.48
78,255,341,221.175124909,5,0.04020337,120,-1.21,0,310,6,7,1.11,4,96,6,0,5,6,1,1.27
79,255,341,221.175124909,5,0.04020337,120,0.54,0,310,6,7,-1.84,4,96,6,0,5,6,1,2.36
80,299,349,221.175124909,20,0.01807608,167,-0.09,14,450,42,7,0.81,40,65,6,14,1,13,2,0.28
81,315,476,221.175124909,23,0.01820659,36,1.02,14,508,39,7,0.13,64,99,6,14,4,2,1,0.72
82,315,476,221.175124909,23,0.01820659,36,2.64,14,508,39,7,-0.96,64,99,6,14,4,2,1,3.75
83,351,0,221.175124909,2,0.01760319,242,-2.46,0,586,0,7,-1.58,0,121,6,0,6,24,1,0
84,359,0,221.175124909,1,0.0372023,181,-0.07,0,429,0,7,1.13,0,86,6,0,2,18,0,0.68
85,359,0,221.175124909,1,0.0372023,181,0.54,0,429,0,7,0.76,0,86,6,0,2,18,0,0.86
86,359,0,221.175124909,1,0.0372023,181,0.48,0,429,0,7,0.51,0,86,6,0,2,18,0,0.6
87,396,0,221.175124909,0,0.09868823,113,-0.52,0,250,0,7,0.54,0,87,6,0,2,8,1,0.25
88,244,0,223.806916787,0,0.05936583,116,1.23,0,341,0,6,0.61,0,46,4,0,0,7,0,0
89,248,829,223.806916787,22,0.03438098,135,-0.81,0,335,43,6,-1.19,57,106,4,1,1,12,0,0.58
90,248,829,223.806916787,22,0.03438098,135,-0.24,0,335,43,6,0.81,57,106,4,1,1,12,0,0.17
91,250,678,223.806916787,2,0.04266198,65,-3.27,10,156,55,6,-0.41,25,17,4,11,0,4,1,0.3
92,253,282,223.806916787,5,0.02279927,38,0.33,0,386,30,6,1.96,0,125,4,0,3,2,0,0.3
93,255,341,223.806916787,6,0.02968031,119,-1.21,0,354,6,6,1.11,4,88,4,0,5,2,1,0.41
94,255,341,223.806916787,6,0.02968031,119,0.54,0,354,6,6,-1.84,4,88,4,0,5,2,1,1
95,299,349,223.806916787,22,0.02247987,215,-0.09,14,450,42,6,0.81,40,66,4,14,1,18,4,0.17
96,315,476,223.806916787,28,0.02074751,116,1.02,14,516,39,6,0.13,64,101,4,14,4,7,3,0.17
97,315,476,223.806916787,28,0.02074751,116,2.64,14,516,39,6,-0.96,64,101,4,14,4,7,3,0.41
98,351,0,223.806916787,3,0.01985243,240,-2.46,0,620,0,6,-1.58,0,131,4,0,6,28,1,0.17
99,359,0,223.806916787,2,0.03509533,40,-0.08,0,362,0,6,1.13,0,86,4,0,2,3,0,0.41
100,359,0,223.806916787,2,0.03509533,40,0.46,0,362,0,6,0.76,0,86,4,0,2,3,0,0.77
101,359,0,223.806916787,2,0.03509533,40,0.3,0,362,0,6,0.51,0,86,4,0,2,3,0,0.17
102,396,0,223.806916787,0,0.03036278,376,-1.18,0,307,0,6,0.54,0,88,4,0,2,40,5,0.17
145,244,0,166.448825749,0,0.1067624,35,-1.38,0,46,0,4,0.61,0,21,5,0,0,12,0,0.11
146,248,62,166.448825749,6,0.08387172,24,0.63,0,56,76,4,-1.19,40,129,5,2,2,12,0,-0.31
147,248,59,166.448825749,3,0.08019498,17,0.24,0,54,62,4,0.81,32,68,5,2,1,7,0,-0.32
148,250,70,166.448825749,0,0.1359215,10,2.43,0,24,24,4,-0.41,9,14,5,0,1,3,0,-0.27
149,253,49,166.448825749,0,0.07341917,25,-0.38,0,54,28,4,1.96,0,98,5,0,2,9,0,-0.26
150,253,49,166.448825749,0,0.07291965,52,-0.06,0,54,28,4,-0.12,0,77,5,0,4,18,0,-0.03
151,255,48,166.448825749,1,0.09066542,30,0.57,0,45,20,4,1.11,9,76,5,0,3,12,1,-0.26
152,255,54,166.448825749,1,0.08998891,18,-1.02,0,52,23,4,-1.84,15,53,5,0,3,6,1,-0.3
153,279,0,166.448825749,0,0.3311285,11,0.4,0,45,0,4,1.11,0,50,5,0,4,0,1,0.03
154,299,0,166.448825749,5,0.02469625,40,-2.99,10,86,57,4,0.81,28,83,5,10,1,12,3,0.88
155,315,0,166.448825749,5,0.01665194,12,-1.75,10,86,72,4,0.13,42,60,5,10,2,2,2,0.45
156,315,5,166.448825749,5,0.01694307,12,-3.36,10,90,81,4,-0.96,54,94,5,10,2,3,2,1.27
157,315,0,166.448825749,5,0.01685568,12,-2.93,10,94,72,4,0.05,45,84,5,10,2,2,2,1.73
158,343,0,166.448825749,0,0.02003181,11,0.51,0,71,0,4,-1.58,0,92,5,0,5,7,0,-0.21
159,351,0,166.448825749,0,0.01555244,79,0.51,0,85,0,4,-1.58,0,104,5,0,6,28,1,0.24
160,359,0,166.448825749,0,0.02450208,41,-1.54,0,71,0,4,0.76,0,88,5,0,2,16,0,-0.1
161,359,0,166.448825749,0,0.02454949,38,-2.06,0,71,0,4,0.51,0,72,5,0,2,16,0,-0.07
162,384,18,166.448825749,0,0.02302529,80,0.17,0,70,30,4,1.61,0,100,5,0,3,33,2,-0.06
163,396,0,166.448825749,0,0.1366158,11,0.08,0,20,0,4,0.54,0,25,5,0,1,12,0,-0.25
164,486,0,166.448825749,0,0.01215007,53,0.84,0,80,0,4,-1.11,0,93,5,0,4,19,2,-0.05
165,244,0,220.807619291,0,0.1296484,27,-1.03,0,47,0,8,0.61,0,21,9,0,0,10,0,-0.43
166,248,62,220.807619291,4,0.1529726,72,0.66,0,54,76,8,-1.19,40,138,9,2,2,25,1,-1.5
167,248,59,220.807619291,0,0.1460767,34,-0.56,0,44,62,8,0.81,32,54,9,2,1,10,0,-0.56
168,250,70,220.807619291,0,0.1767065,29,0.65,0,41,24,8,-0.41,9,57,9,0,1,6,1,-0.11
169,253,49,220.807619291,0,0.1382139,15,-0.47,0,45,28,8,1.96,0,60,9,0,2,4,0,0.34
170,255,48,220.807619291,0,0.1111633,45,0.16,0,53,20,8,1.11,9,107,9,0,3,14,0,-0.56
171,255,54,220.807619291,2,0.111606,31,-2.07,0,59,23,8,-1.84,15,92,9,0,3,7,0,-0.66
172,299,0,220.807619291,4,0.022641,38,-3.03,10,89,57,8,0.81,28,97,9,10,1,13,3,-1.7
173,315,0,220.807619291,3,0.017057,9,-0.72,10,84,72,8,0.13,42,66,9,10,2,2,2,-0.32
174,315,5,220.807619291,3,0.01744719,10,-1.21,10,93,81,8,-0.96,54,110,9,10,2,2,2,-2.45
175,351,0,220.807619291,0,0.01210715,77,1.42,0,81,0,8,-1.58,0,104,9,0,6,27,0,-0.19
176,359,0,220.807619291,0,0.02097402,33,-0.88,0,66,0,8,1.13,0,72,9,0,2,12,1,0.01
177,359,0,220.807619291,0,0.02099796,48,-1.54,0,74,0,8,0.76,0,96,9,0,2,19,1,-0.04
178,359,0,220.807619291,0,0.02105701,34,-2.06,0,70,0,8,0.51,0,82,9,0,2,12,1,0.11
179,396,0,220.807619291,0,0.2162042,8,0.12,0,16,0,8,0.54,0,20,9,0,1,6,0,0.1
180,244,0,201.001960408,0,0.07607137,69,-2.39,0,54,0,9,0.61,0,44,7,0,0,31,1,0
181,248,62,201.001960408,6,0.1168096,52,0.81,0,45,76,9,-1.19,40,70,7,2,2,14,2,-0.65
182,248,59,201.001960408,2,0.1165099,36,-0.53,0,39,62,9,0.81,32,53,7,2,1,11,3,-0.55
183,250,70,201.001960408,1,0.132785,21,0.57,0,36,24,9,-0.41,9,85,7,0,1,7,3,-0.41
184,253,49,201.001960408,0,0.1426016,25,-0.39,0,30,28,9,1.96,0,21,7,0,2,14,2,-0.24
185,255,48,201.001960408,3,0.103156,41,0.84,0,50,20,9,1.11,9,72,7,0,3,11,2,-0.9
186,255,54,201.001960408,3,0.1023408,25,-0.98,0,50,23,9,-1.84,15,65,7,0,3,7,2,-1.02
187,299,0,201.001960408,4,0.05402132,39,-2.73,10,85,57,9,0.81,28,105,7,10,1,13,2,-1.24
188,315,0,201.001960408,4,0.06611715,9,-0.72,10,84,72,9,0.13,42,73,7,10,2,2,1,-2.02
189,315,5,201.001960408,3,0.06619656,11,-2.38,10,85,81,9,-0.96,54,122,7,10,2,2,1,-5.08
190,351,0,201.001960408,0,0.02044629,70,1.42,0,86,0,9,-1.58,0,105,7,0,6,28,0,0
191,359,0,201.001960408,0,0.05133624,33,-0.88,0,72,0,9,1.13,0,76,7,0,2,12,1,0
192,359,0,201.001960408,0,0.05163327,45,-1.54,0,76,0,9,0.76,0,103,7,0,2,19,2,-0.24
193,359,0,201.001960408,0,0.05132957,43,-2.06,0,76,0,9,0.51,0,86,7,0,2,16,1,0
194,396,0,201.001960408,0,0.2114718,24,0.12,0,24,0,9,0.54,0,24,7,0,1,17,1,0
195,253,49,169.532263228,2,0.1382139,15,-0.47,0,41,28,7,1.96,0,60,10,0,2,4,0,0
196,255,48,169.532263228,2,0.1111633,45,0.16,0,53,20,7,1.11,9,107,10,0,3,14,0,0.11
197,315,5,169.532263228,0,0.01742673,9,-1.94,10,85,81,7,-0.96,54,114,10,10,2,2,2,0.15
198,351,0,169.532263228,0,0.01210715,77,1.42,0,81,0,7,-1.58,0,104,10,0,6,27,0,0.08
199,253,49,184.642296753,3,0.1393867,19,-0.47,0,39,28,7,1.96,0,54,8,0,2,4,1,0.17
200,255,48,184.642296753,2,0.1111633,48,0.16,0,53,20,7,1.11,9,107,8,0,3,14,0,0.11
201,351,0,184.642296753,0,0.01210715,77,1.42,0,81,0,7,-1.58,0,104,8,0,6,27,0,-0.05
202,244,0,216.95624925,0,0.06426118,26,-0.87,0,46,0,7,0.61,0,18,7,0,0,9,1,-0.21
203,248,62,216.95624925,4,0.04570653,18,0.82,0,44,76,7,-1.19,40,89,7,2,2,10,0,-2.33
204,248,59,216.95624925,4,0.04509507,16,0.24,0,47,62,7,0.81,32,77,7,2,1,4,0,-0.64
205,250,70,216.95624925,0,0.06147795,6,2.58,0,23,24,7,-0.41,9,14,7,0,1,0,0,-1.01
206,253,49,216.95624925,2,0.0312437,17,-1,0,56,28,7,1.96,0,109,7,0,2,2,0,-1.9
207,255,48,216.95624925,0,0.04453023,28,0.43,0,50,20,7,1.11,9,90,7,0,3,8,0,-1.5
208,255,54,216.95624925,1,0.04437982,18,-0.85,0,48,23,7,-1.84,15,78,7,0,3,2,0,-2.22
209,299,0,216.95624925,12,0.02224491,46,-2.99,10,74,57,7,0.81,28,74,7,10,1,14,3,-0.23
210,315,0,216.95624925,4,0.02160527,9,-1.72,10,71,72,7,0.13,42,68,7,10,2,3,1,-0.51
211,315,5,216.95624925,4,0.02216533,9,-3.26,10,76,81,7,-0.96,54,116,7,10,2,3,1,-2.32
212,351,0,216.95624925,0,0.02346882,62,1.42,0,85,0,7,-1.58,0,104,7,0,6,27,1,-0.42
213,359,0,216.95624925,0,0.03854841,12,-0.03,0,57,0,7,1.13,0,49,7,0,2,4,0,-0.77
214,359,0,216.95624925,0,0.03871416,19,-0.54,0,60,0,7,0.76,0,62,7,0,2,8,0,-0.28
215,359,0,216.95624925,0,0.03859194,18,-0.48,0,59,0,7,0.51,0,49,7,0,2,8,0,-0.32
216,396,0,216.95624925,0,0.09718734,16,0.52,0,38,0,7,0.54,0,80,7,0,1,5,0,-0.4
217,244,0,221.175124909,0,0.06827644,28,-1.23,0,51,0,7,0.61,0,27,6,0,0,9,0,0.13
218,248,62,221.175124909,15,0.04420138,46,0.41,0,47,76,7,-1.19,40,128,6,2,2,17,0,-2.15
219,248,59,221.175124909,4,0.04104471,14,0.24,0,46,62,7,0.81,32,71,6,2,1,5,0,-0.33
220,250,70,221.175124909,0,0.06210832,5,1.63,0,24,24,7,-0.41,9,17,6,0,1,1,0,-0.6
221,253,49,221.175124909,1,0.0325072,15,-1,0,54,28,7,1.96,0,103,6,0,2,3,1,-1.48
222,255,48,221.175124909,0,0.04035999,33,0.51,0,49,20,7,1.11,9,75,6,0,3,12,0,-1.27
223,255,54,221.175124909,1,0.03964498,21,-1.51,0,48,23,7,-1.84,15,68,6,0,3,6,1,-2.36
224,299,0,221.175124909,15,0.0181983,43,-2.99,10,72,57,7,0.81,28,77,6,10,1,13,2,-0.28
225,315,0,221.175124909,4,0.01796351,9,-1.72,10,70,72,7,0.13,42,70,6,10,2,2,1,-0.72
226,315,5,221.175124909,4,0.01865818,9,-3.36,10,72,81,7,-0.96,54,114,6,10,2,2,1,-3.75
227,351,0,221.175124909,1,0.01759284,67,0.51,0,84,0,7,-1.58,0,98,6,0,6,30,0,0
228,359,0,221.175124909,1,0.03625928,34,0.08,0,61,0,7,1.13,0,48,6,0,2,16,0,-0.68
229,359,0,221.175124909,1,0.03653514,33,-0.54,0,63,0,7,0.76,0,60,6,0,2,16,0,-0.86
230,359,0,221.175124909,1,0.03627843,32,-0.48,0,64,0,7,0.51,0,57,6,0,2,16,0,-0.6
231,396,0,221.175124909,0,0.1029724,14,0.18,0,35,0,7,0.54,0,50,6,0,1,8,0,-0.25
232,244,0,223.806916787,0,0.05753727,41,-1.38,0,49,0,6,0.61,0,30,4,0,0,13,0,0
233,248,62,223.806916787,4,0.03547688,44,0.84,0,45,76,6,-1.19,40,90,4,2,2,23,0,-0.58
234,248,59,223.806916787,2,0.03536405,34,-0.11,0,44,62,6,0.81,32,71,4,2,1,12,0,-0.17
235,250,70,223.806916787,0,0.04397612,14,2.43,0,29,24,6,-0.41,9,19,4,0,1,3,0,-0.3
236,253,49,223.806916787,4,0.02275382,20,-1,0,62,28,6,1.96,0,121,4,0,2,3,1,-0.3
237,255,48,223.806916787,2,0.0296277,38,-0.07,0,53,20,6,1.11,9,93,4,0,3,8,0,-0.41
238,255,54,223.806916787,2,0.02943776,20,-1.52,0,55,23,6,-1.84,15,78,4,0,3,2,0,-1
239,299,0,223.806916787,14,0.02249447,47,-2.99,10,74,57,6,0.81,28,75,4,10,1,15,3,-0.17
240,315,0,223.806916787,5,0.02088222,17,-1.02,10,73,72,6,0.13,42,61,4,10,2,7,2,-0.17
241,315,5,223.806916787,6,0.02050133,26,-3.36,10,76,81,6,-0.96,54,117,4,10,2,7,3,-0.41
242,351,0,223.806916787,1,0.0199585,71,0.51,0,87,0,6,-1.58,0,110,4,0,6,30,0,-0.17
243,359,0,223.806916787,1,0.03463437,19,0.07,0,62,0,6,1.13,0,47,4,0,2,8,0,-0.41
244,359,0,223.806916787,1,0.03462846,19,-0.54,0,66,0,6,0.76,0,67,4,0,2,8,0,-0.77
245,359,0,223.806916787,1,0.03451613,18,-0.48,0,64,0,6,0.51,0,56,4,0,2,8,0,-0.17
246,396,0,223.806916787,0,0.030112,82,0.53,0,48,0,6,0.54,0,96,4,0,1,42,5,-0.17
