ID,actual,fold,predicted
1,Susceptible,10,Susceptible
2,Susceptible,4,Susceptible
3,Susceptible,4,Susceptible
4,Susceptible,9,Susceptible
5,Susceptible,5,Susceptible
6,Susceptible,5,Susceptible
7,Susceptible,3,Susceptible
8,Susceptible,3,Susceptible
9,Susceptible,14,Susceptible
10,Susceptible,8,Susceptible
11,Susceptible,2,Susceptible
12,Susceptible,2,Susceptible
13,Susceptible,2,Susceptible
14,Susceptible,13,Susceptible
15,Susceptible,6,Susceptible
16,Susceptible,1,Susceptible
17,Susceptible,1,Susceptible
18,Susceptible,12,Susceptible
19,Susceptible,7,Susceptible
20,Susceptible,11,Susceptible
21,Susceptible,10,Susceptible
22,Resistant,4,Susceptible
23,Susceptible,4,Susceptible
24,Susceptible,9,Susceptible
25,Susceptible,5,Susceptible
26,Susceptible,3,Susceptible
27,Susceptible,3,Susceptible
28,Resistant,8,Susceptible
29,Susceptible,2,Susceptible
30,Resistant,2,Susceptible
31,Susceptible,6,Susceptible
32,Susceptible,1,Susceptible
33,Susceptible,1,Susceptible
34,Susceptible,1,Susceptible
35,Susceptible,7,Susceptible
36,Susceptible,10,Susceptible
37,Susceptible,4,Susceptible
38,Susceptible,4,Susceptible
39,Susceptible,9,Susceptible
40,Susceptible,5,Susceptible
41,Susceptible,3,Susceptible
42,Susceptible,3,Susceptible
43,Susceptible,8,Susceptible
44,Resistant,2,Susceptible
45,Resistant,2,Susceptible
46,Susceptible,6,Susceptible
47,Susceptible,1,Susceptible
48,Susceptible,1,Susceptible
49,Susceptible,1,Susceptible
50,Susceptible,7,Susceptible
51,Susceptible,5,Susceptible
52,Susceptible,3,Susceptible
53,Susceptible,2,Susceptible
54,Susceptible,6,Susceptible
55,Susceptible,5,Susceptible
56,Susceptible,3,Susceptible
57,Susceptible,6,Susceptible
58,Susceptible,10,Susceptible
59,Resistant,4,Resistant
60,Susceptible,4,Susceptible
61,Susceptible,9,Susceptible
62,Resistant,5,Susceptible
63,Resistant,3,Susceptible
64,Resistant,3,Susceptible
65,Susceptible,8,Susceptible
66,Susceptible,2,Susceptible
67,Resistant,2,Susceptible
68,Susceptible,6,Susceptible
69,Susceptible,1,Susceptible
70,Susceptible,1,Susceptible
71,Susceptible,1,Susceptible
72,Susceptible,7,Susceptible
73,Susceptible,10,Susceptible
74,Resistant,4,Resistant
75,Susceptible,4,Susceptible
76,Susceptible,9,Susceptible
77,Resistant,5,Susceptible
78,Susceptible,3,Susceptible
79,Resistant,3,Susceptible
80,Susceptible,8,Susceptible
81,Susceptible,2,Susceptible
82,Resistant,2,Susceptible
83,Susceptible,6,Susceptible
84,Susceptible,1,Susceptible
85,Susceptible,1,Susceptible
86,Susceptible,1,Susceptible
87,Susceptible,7,Susceptible
88,Susceptible,10,Susceptible
89,Susceptible,4,Susceptible
90,Susceptible,4,Susceptible
91,Susceptible,9,Susceptible
92,Susceptible,5,Susceptible
93,Susceptible,3,Susceptible
94,Susceptible,3,Susceptible
95,Susceptible,8,Susceptible
96,Susceptible,2,Susceptible
97,Susceptible,2,Susceptible
98,Susceptible,6,Susceptible
99,Susceptible,1,Susceptible
100,Susceptible,1,Susceptible
101,Susceptible,1,Susceptible
102,Susceptible,7,Susceptible
