244
248
248
250
253
253
255
255
279
299
315
315
315
343
351
359
359
384
396
486
244
248
248
250
253
255
255
299
315
315
351
359
359
359
396
244
248
248
250
253
255
255
299
315
315
351
359
359
359
396
253
255
315
351
253
255
351
244
248
248
250
253
255
255
299
315
315
351
359
359
359
396
244
248
248
250
253
255
255
299
315
315
351
359
359
359
396
244
248
248
250
253
255
255
299
315
315
351
359
359
359
396
