feature_id,matthew
1,0.355
2,0.436
3,0.436
4,0.436
5,0.436
6,0.436
7,0.436
8,0.436
9,0.569
10,0.507
11,0.569
12,0.627
13,0.627
14,0.569
15,0.627
16,0.627
17,0.627
18,0.627
19,0.627
20,0.627
21,0.627
22,0.627
23,0.627
24,0.627
25,0.627
26,0.627
27,0.627
28,0.627
29,0.627
30,0.627
31,0.627
32,0.627
33,0.627
34,0.627
35,0.569
36,0.569
37,0.507
38,0.519
39,0.412
40,0.506
41,0.385
42,0.385
43,0.568
44,0.378
45,0.378
