/home/yunzhuoz/Desktop/ABL_resist/Structures/MT/AXI_M244V.pdb,V244M,B,0.138
/home/yunzhuoz/Desktop/ABL_resist/Structures/MT/AXI_L248R.pdb,R248L,B,0.924
/home/yunzhuoz/Desktop/ABL_resist/Structures/MT/AXI_L248V.pdb,V248L,B,0.73
/home/yunzhuoz/Desktop/ABL_resist/Structures/MT/AXI_G250E.pdb,E250G,B,-0.776
/home/yunzhuoz/Desktop/ABL_resist/Structures/MT/AXI_Q252H.pdb,H252Q,B,0.116
/home/yunzhuoz/Desktop/ABL_resist/Structures/MT/AXI_Y253F.pdb,F253Y,B,-0.82
/home/yunzhuoz/Desktop/ABL_resist/Structures/MT/AXI_Y253H.pdb,H253Y,B,1.261
/home/yunzhuoz/Desktop/ABL_resist/Structures/MT/AXI_E255K.pdb,K255E,B,-0.039
/home/yunzhuoz/Desktop/ABL_resist/Structures/MT/AXI_E255V.pdb,V255E,B,-0.543
/home/yunzhuoz/Desktop/ABL_resist/Structures/MT/AXI_D276G.pdb,G276D,B,0.082
/home/yunzhuoz/Desktop/ABL_resist/Structures/MT/AXI_E279K.pdb,K279E,B,-0.017
/home/yunzhuoz/Desktop/ABL_resist/Structures/MT/AXI_E292L.pdb,L292E,B,0.279
/home/yunzhuoz/Desktop/ABL_resist/Structures/MT/AXI_V299L.pdb,L299V,B,-0.633
/home/yunzhuoz/Desktop/ABL_resist/Structures/MT/AXI_T315A.pdb,A315T,B,-0.636
/home/yunzhuoz/Desktop/ABL_resist/Structures/MT/AXI_T315I.pdb,I315T,B,-1.347
/home/yunzhuoz/Desktop/ABL_resist/Structures/MT/AXI_T315V.pdb,V315T,B,-1.175
/home/yunzhuoz/Desktop/ABL_resist/Structures/MT/AXI_F317L.pdb,L317F,B,0.214
/home/yunzhuoz/Desktop/ABL_resist/Structures/MT/AXI_F317R.pdb,R317F,B,3.459
/home/yunzhuoz/Desktop/ABL_resist/Structures/MT/AXI_F317V.pdb,V317F,B,-0.074
/home/yunzhuoz/Desktop/ABL_resist/Structures/MT/AXI_M343T.pdb,T343M,B,-0.477
/home/yunzhuoz/Desktop/ABL_resist/Structures/MT/AXI_M351T.pdb,T351M,B,-1.091
/home/yunzhuoz/Desktop/ABL_resist/Structures/MT/AXI_F359I.pdb,I359F,B,-0.809
/home/yunzhuoz/Desktop/ABL_resist/Structures/MT/AXI_F359V.pdb,V359F,B,-0.854
/home/yunzhuoz/Desktop/ABL_resist/Structures/MT/AXI_L384M.pdb,M384L,B,-0.57
/home/yunzhuoz/Desktop/ABL_resist/Structures/MT/AXI_H396R.pdb,R396H,B,-0.032
/home/yunzhuoz/Desktop/ABL_resist/Structures/MT/AXI_F486S.pdb,S486F,B,0.12
/home/yunzhuoz/Desktop/ABL_resist/Structures/MT/DB8_M244V.pdb,V244M,A,0.202
/home/yunzhuoz/Desktop/ABL_resist/Structures/MT/DB8_L248R.pdb,R248L,A,3.595
/home/yunzhuoz/Desktop/ABL_resist/Structures/MT/DB8_L248V.pdb,V248L,A,-0.938
/home/yunzhuoz/Desktop/ABL_resist/Structures/MT/DB8_G250E.pdb,E250G,A,-0.702
/home/yunzhuoz/Desktop/ABL_resist/Structures/MT/DB8_Y253F.pdb,F253Y,A,-1.186
/home/yunzhuoz/Desktop/ABL_resist/Structures/MT/DB8_E255K.pdb,K255E,A,-0.928
/home/yunzhuoz/Desktop/ABL_resist/Structures/MT/DB8_E255V.pdb,V255E,A,-1.423
/home/yunzhuoz/Desktop/ABL_resist/Structures/MT/DB8_V299L.pdb,L299V,A,-1.162
/home/yunzhuoz/Desktop/ABL_resist/Structures/MT/DB8_T315A.pdb,A315T,A,-1.447
/home/yunzhuoz/Desktop/ABL_resist/Structures/MT/DB8_T315I.pdb,I315T,A,-1.723
/home/yunzhuoz/Desktop/ABL_resist/Structures/MT/DB8_F317C.pdb,C317F,A,0.042
/home/yunzhuoz/Desktop/ABL_resist/Structures/MT/DB8_F317I.pdb,I317F,A,-0.567
/home/yunzhuoz/Desktop/ABL_resist/Structures/MT/DB8_F317L.pdb,L317F,A,-0.547
/home/yunzhuoz/Desktop/ABL_resist/Structures/MT/DB8_F317V.pdb,V317F,A,-0.538
/home/yunzhuoz/Desktop/ABL_resist/Structures/MT/DB8_M351T.pdb,T351M,A,-0.73
/home/yunzhuoz/Desktop/ABL_resist/Structures/MT/DB8_E355A.pdb,A355E,A,-0.96
/home/yunzhuoz/Desktop/ABL_resist/Structures/MT/DB8_F359C.pdb,C359F,A,-0.941
/home/yunzhuoz/Desktop/ABL_resist/Structures/MT/DB8_F359I.pdb,I359F,A,-1.152
/home/yunzhuoz/Desktop/ABL_resist/Structures/MT/DB8_F359V.pdb,V359F,A,-1.202
/home/yunzhuoz/Desktop/ABL_resist/Structures/MT/DB8_H396R.pdb,R396H,A,-0.241
/home/yunzhuoz/Desktop/ABL_resist/Structures/MT/DB8_E459K.pdb,K459E,A,0.072
/home/yunzhuoz/Desktop/ABL_resist/Structures/MT/1N1_M244V.pdb,V244M,A,-1.111
/home/yunzhuoz/Desktop/ABL_resist/Structures/MT/1N1_L248R.pdb,R248L,A,1.704
/home/yunzhuoz/Desktop/ABL_resist/Structures/MT/1N1_L248V.pdb,V248L,A,-0.779
/home/yunzhuoz/Desktop/ABL_resist/Structures/MT/1N1_G250E.pdb,E250G,A,-0.394
/home/yunzhuoz/Desktop/ABL_resist/Structures/MT/1N1_Y253F.pdb,F253Y,A,0.836
/home/yunzhuoz/Desktop/ABL_resist/Structures/MT/1N1_E255K.pdb,K255E,A,-0.437
/home/yunzhuoz/Desktop/ABL_resist/Structures/MT/1N1_E255V.pdb,V255E,A,-0.684
/home/yunzhuoz/Desktop/ABL_resist/Structures/MT/1N1_V299L.pdb,L299V,A,-1.393
/home/yunzhuoz/Desktop/ABL_resist/Structures/MT/1N1_T315A.pdb,A315T,A,-1.517
/home/yunzhuoz/Desktop/ABL_resist/Structures/MT/1N1_T315I.pdb,I315T,A,-1.842
/home/yunzhuoz/Desktop/ABL_resist/Structures/MT/1N1_F317C.pdb,C317F,A,-0.024
/home/yunzhuoz/Desktop/ABL_resist/Structures/MT/1N1_F317I.pdb,I317F,A,-0.72
/home/yunzhuoz/Desktop/ABL_resist/Structures/MT/1N1_F317L.pdb,L317F,A,-0.73
/home/yunzhuoz/Desktop/ABL_resist/Structures/MT/1N1_F317V.pdb,V317F,A,-0.466
/home/yunzhuoz/Desktop/ABL_resist/Structures/MT/1N1_M351T.pdb,T351M,A,-1.054
/home/yunzhuoz/Desktop/ABL_resist/Structures/MT/1N1_E355A.pdb,A355E,A,-0.865
/home/yunzhuoz/Desktop/ABL_resist/Structures/MT/1N1_F359C.pdb,C359F,A,-1.125
/home/yunzhuoz/Desktop/ABL_resist/Structures/MT/1N1_F359I.pdb,I359F,A,-1.161
/home/yunzhuoz/Desktop/ABL_resist/Structures/MT/1N1_F359V.pdb,V359F,A,-1.345
/home/yunzhuoz/Desktop/ABL_resist/Structures/MT/1N1_H396R.pdb,R396H,A,0.218
/home/yunzhuoz/Desktop/ABL_resist/Structures/MT/1N1_E459K.pdb,K459E,A,0.295
/home/yunzhuoz/Desktop/ABL_resist/Structures/MT/ERL_Q252H.pdb,H252Q,A,-0.373
/home/yunzhuoz/Desktop/ABL_resist/Structures/MT/ERL_Y253F.pdb,F253Y,A,-0.41
/home/yunzhuoz/Desktop/ABL_resist/Structures/MT/ERL_E255K.pdb,K255E,A,-0.3
/home/yunzhuoz/Desktop/ABL_resist/Structures/MT/ERL_T315I.pdb,I315T,A,-1.456
/home/yunzhuoz/Desktop/ABL_resist/Structures/MT/ERL_F317I.pdb,I317F,A,0.098
/home/yunzhuoz/Desktop/ABL_resist/Structures/MT/ERL_F317L.pdb,L317F,A,0.158
/home/yunzhuoz/Desktop/ABL_resist/Structures/MT/ERL_M351T.pdb,T351M,A,-1.264
/home/yunzhuoz/Desktop/ABL_resist/Structures/MT/GEF_Q252H.pdb,H252Q,A,-0.418
/home/yunzhuoz/Desktop/ABL_resist/Structures/MT/GEF_Y253F.pdb,F253Y,A,-0.913
/home/yunzhuoz/Desktop/ABL_resist/Structures/MT/GEF_E255K.pdb,K255E,A,-0.615
/home/yunzhuoz/Desktop/ABL_resist/Structures/MT/GEF_F317I.pdb,I317F,A,-0.249
/home/yunzhuoz/Desktop/ABL_resist/Structures/MT/GEF_F317L.pdb,L317F,A,-0.244
/home/yunzhuoz/Desktop/ABL_resist/Structures/MT/GEF_M351T.pdb,T351M,A,-0.977
/home/yunzhuoz/Desktop/ABL_resist/Structures/MT/STI_M244V.pdb,V244M,A,0.023
/home/yunzhuoz/Desktop/ABL_resist/Structures/MT/STI_L248R.pdb,R248L,A,1.775
/home/yunzhuoz/Desktop/ABL_resist/Structures/MT/STI_L248V.pdb,V248L,A,-1.464
/home/yunzhuoz/Desktop/ABL_resist/Structures/MT/STI_G250E.pdb,E250G,A,-0.818
/home/yunzhuoz/Desktop/ABL_resist/Structures/MT/STI_Y253F.pdb,F253Y,A,-1.765
/home/yunzhuoz/Desktop/ABL_resist/Structures/MT/STI_E255K.pdb,K255E,A,-0.521
/home/yunzhuoz/Desktop/ABL_resist/Structures/MT/STI_E255V.pdb,V255E,A,-0.691
/home/yunzhuoz/Desktop/ABL_resist/Structures/MT/STI_V299L.pdb,L299V,A,-2.44
/home/yunzhuoz/Desktop/ABL_resist/Structures/MT/STI_T315A.pdb,A315T,A,-2.352
/home/yunzhuoz/Desktop/ABL_resist/Structures/MT/STI_T315I.pdb,I315T,A,-2.119
/home/yunzhuoz/Desktop/ABL_resist/Structures/MT/STI_F317C.pdb,C317F,A,-0.155
/home/yunzhuoz/Desktop/ABL_resist/Structures/MT/STI_F317I.pdb,I317F,A,-0.582
/home/yunzhuoz/Desktop/ABL_resist/Structures/MT/STI_F317L.pdb,L317F,A,-0.643
/home/yunzhuoz/Desktop/ABL_resist/Structures/MT/STI_F317V.pdb,V317F,A,-0.613
/home/yunzhuoz/Desktop/ABL_resist/Structures/MT/STI_M351T.pdb,T351M,A,-0.679
/home/yunzhuoz/Desktop/ABL_resist/Structures/MT/STI_E355A.pdb,A355E,A,-0.964
/home/yunzhuoz/Desktop/ABL_resist/Structures/MT/STI_F359C.pdb,C359F,A,-0.839
/home/yunzhuoz/Desktop/ABL_resist/Structures/MT/STI_F359I.pdb,I359F,A,-1.521
/home/yunzhuoz/Desktop/ABL_resist/Structures/MT/STI_F359V.pdb,V359F,A,-1.45
/home/yunzhuoz/Desktop/ABL_resist/Structures/MT/STI_H396R.pdb,R396H,A,0.227
/home/yunzhuoz/Desktop/ABL_resist/Structures/MT/STI_E459K.pdb,K459E,A,0.143
/home/yunzhuoz/Desktop/ABL_resist/Structures/MT/NIL_M244V.pdb,V244M,A,-0.411
/home/yunzhuoz/Desktop/ABL_resist/Structures/MT/NIL_L248R.pdb,R248L,A,0.804
/home/yunzhuoz/Desktop/ABL_resist/Structures/MT/NIL_L248V.pdb,V248L,A,-1.649
/home/yunzhuoz/Desktop/ABL_resist/Structures/MT/NIL_G250E.pdb,E250G,A,-0.851
/home/yunzhuoz/Desktop/ABL_resist/Structures/MT/NIL_Y253F.pdb,F253Y,A,-2.105
/home/yunzhuoz/Desktop/ABL_resist/Structures/MT/NIL_E255K.pdb,K255E,A,-0.727
/home/yunzhuoz/Desktop/ABL_resist/Structures/MT/NIL_E255V.pdb,V255E,A,-0.944
/home/yunzhuoz/Desktop/ABL_resist/Structures/MT/NIL_V299L.pdb,L299V,A,-2.292
/home/yunzhuoz/Desktop/ABL_resist/Structures/MT/NIL_T315A.pdb,A315T,A,-2.519
/home/yunzhuoz/Desktop/ABL_resist/Structures/MT/NIL_T315I.pdb,I315T,A,-2.357
/home/yunzhuoz/Desktop/ABL_resist/Structures/MT/NIL_F317C.pdb,C317F,A,-0.512
/home/yunzhuoz/Desktop/ABL_resist/Structures/MT/NIL_F317I.pdb,I317F,A,-0.904
/home/yunzhuoz/Desktop/ABL_resist/Structures/MT/NIL_F317L.pdb,L317F,A,-0.934
/home/yunzhuoz/Desktop/ABL_resist/Structures/MT/NIL_F317V.pdb,V317F,A,-0.846
/home/yunzhuoz/Desktop/ABL_resist/Structures/MT/NIL_M351T.pdb,T351M,A,-0.488
/home/yunzhuoz/Desktop/ABL_resist/Structures/MT/NIL_E355A.pdb,A355E,A,-1.113
/home/yunzhuoz/Desktop/ABL_resist/Structures/MT/NIL_F359C.pdb,C359F,A,-0.971
/home/yunzhuoz/Desktop/ABL_resist/Structures/MT/NIL_F359I.pdb,I359F,A,-1.627
/home/yunzhuoz/Desktop/ABL_resist/Structures/MT/NIL_F359V.pdb,V359F,A,-1.674
/home/yunzhuoz/Desktop/ABL_resist/Structures/MT/NIL_H396R.pdb,R396H,A,0.108
/home/yunzhuoz/Desktop/ABL_resist/Structures/MT/NIL_E459K.pdb,K459E,A,-0.008
/home/yunzhuoz/Desktop/ABL_resist/Structures/MT/0LI_M244V.pdb,V244M,A,-0.593
/home/yunzhuoz/Desktop/ABL_resist/Structures/MT/0LI_L248R.pdb,R248L,A,1.756
/home/yunzhuoz/Desktop/ABL_resist/Structures/MT/0LI_L248V.pdb,V248L,A,-1.687
/home/yunzhuoz/Desktop/ABL_resist/Structures/MT/0LI_G250E.pdb,E250G,A,-0.668
/home/yunzhuoz/Desktop/ABL_resist/Structures/MT/0LI_Y253F.pdb,F253Y,A,-1.435
/home/yunzhuoz/Desktop/ABL_resist/Structures/MT/0LI_E255K.pdb,K255E,A,-1.252
/home/yunzhuoz/Desktop/ABL_resist/Structures/MT/0LI_E255V.pdb,V255E,A,-1.217
/home/yunzhuoz/Desktop/ABL_resist/Structures/MT/0LI_V299L.pdb,L299V,A,-2.366
/home/yunzhuoz/Desktop/ABL_resist/Structures/MT/0LI_T315A.pdb,A315T,A,-2.353
/home/yunzhuoz/Desktop/ABL_resist/Structures/MT/0LI_T315I.pdb,I315T,A,-2.354
/home/yunzhuoz/Desktop/ABL_resist/Structures/MT/0LI_F317C.pdb,C317F,A,-0.386
/home/yunzhuoz/Desktop/ABL_resist/Structures/MT/0LI_F317I.pdb,I317F,A,-0.789
/home/yunzhuoz/Desktop/ABL_resist/Structures/MT/0LI_F317L.pdb,L317F,A,-0.854
/home/yunzhuoz/Desktop/ABL_resist/Structures/MT/0LI_F317V.pdb,V317F,A,-0.804
/home/yunzhuoz/Desktop/ABL_resist/Structures/MT/0LI_M351T.pdb,T351M,A,-0.568
/home/yunzhuoz/Desktop/ABL_resist/Structures/MT/0LI_E355A.pdb,A355E,A,-1.08
/home/yunzhuoz/Desktop/ABL_resist/Structures/MT/0LI_F359C.pdb,C359F,A,-0.942
/home/yunzhuoz/Desktop/ABL_resist/Structures/MT/0LI_F359I.pdb,I359F,A,-1.83
/home/yunzhuoz/Desktop/ABL_resist/Structures/MT/0LI_F359V.pdb,V359F,A,-1.815
/home/yunzhuoz/Desktop/ABL_resist/Structures/MT/0LI_H396R.pdb,R396H,A,-0.406
/home/yunzhuoz/Desktop/ABL_resist/Structures/MT/0LI_E459K.pdb,K459E,A,-0.1
/home/yunzhuoz/Desktop/ABL_resist/Structures/MT/ATP_M244V.pdb,V244M,A,-0.142
/home/yunzhuoz/Desktop/ABL_resist/Structures/MT/ATP_L248R.pdb,R248L,A,-1.228
/home/yunzhuoz/Desktop/ABL_resist/Structures/MT/ATP_L248V.pdb,V248L,A,-0.62
/home/yunzhuoz/Desktop/ABL_resist/Structures/MT/ATP_G250E.pdb,E250G,A,-0.466
/home/yunzhuoz/Desktop/ABL_resist/Structures/MT/ATP_Q252H.pdb,H252Q,A,-1.057
/home/yunzhuoz/Desktop/ABL_resist/Structures/MT/ATP_Y253F.pdb,F253Y,A,-1.511
/home/yunzhuoz/Desktop/ABL_resist/Structures/MT/ATP_Y253H.pdb,H253Y,A,-0.924
/home/yunzhuoz/Desktop/ABL_resist/Structures/MT/ATP_E255K.pdb,K255E,A,-0.669
/home/yunzhuoz/Desktop/ABL_resist/Structures/MT/ATP_E255V.pdb,V255E,A,-0.999
/home/yunzhuoz/Desktop/ABL_resist/Structures/MT/ATP_D276G.pdb,G276D,A,-0.404
/home/yunzhuoz/Desktop/ABL_resist/Structures/MT/ATP_E279K.pdb,K279E,A,-0.387
/home/yunzhuoz/Desktop/ABL_resist/Structures/MT/ATP_E292L.pdb,L292E,A,-0.324
/home/yunzhuoz/Desktop/ABL_resist/Structures/MT/ATP_V299L.pdb,L299V,A,-1.829
/home/yunzhuoz/Desktop/ABL_resist/Structures/MT/ATP_T315A.pdb,A315T,A,-2.131
/home/yunzhuoz/Desktop/ABL_resist/Structures/MT/ATP_T315I.pdb,I315T,A,-1.766
/home/yunzhuoz/Desktop/ABL_resist/Structures/MT/ATP_T315V.pdb,V315T,A,-1.791
/home/yunzhuoz/Desktop/ABL_resist/Structures/MT/ATP_F317C.pdb,C317F,A,-0.85
/home/yunzhuoz/Desktop/ABL_resist/Structures/MT/ATP_F317I.pdb,I317F,A,-1.215
/home/yunzhuoz/Desktop/ABL_resist/Structures/MT/ATP_F317L.pdb,L317F,A,-1.064
/home/yunzhuoz/Desktop/ABL_resist/Structures/MT/ATP_F317R.pdb,R317F,A,-0.352
/home/yunzhuoz/Desktop/ABL_resist/Structures/MT/ATP_F317V.pdb,V317F,A,-1.274
/home/yunzhuoz/Desktop/ABL_resist/Structures/MT/ATP_M343T.pdb,T343M,A,-1.304
/home/yunzhuoz/Desktop/ABL_resist/Structures/MT/ATP_M351T.pdb,T351M,A,-1.308
/home/yunzhuoz/Desktop/ABL_resist/Structures/MT/ATP_E355A.pdb,A355E,A,-0.842
/home/yunzhuoz/Desktop/ABL_resist/Structures/MT/ATP_F359C.pdb,C359F,A,-1.516
/home/yunzhuoz/Desktop/ABL_resist/Structures/MT/ATP_F359I.pdb,I359F,A,-1.744
/home/yunzhuoz/Desktop/ABL_resist/Structures/MT/ATP_F359V.pdb,V359F,A,-1.736
/home/yunzhuoz/Desktop/ABL_resist/Structures/MT/ATP_L384M.pdb,M384L,A,-1.585
/home/yunzhuoz/Desktop/ABL_resist/Structures/MT/ATP_H396R.pdb,R396H,A,-0.453
/home/yunzhuoz/Desktop/ABL_resist/Structures/MT/ATP_E459K.pdb,K459E,A,-0.067
/home/yunzhuoz/Desktop/ABL_resist/Structures/MT/ATP_F486S.pdb,S486F,A,-0.032
