,Feature_ID,name,MI
225,225,Don:Neut-10.00,0.481003945241226
253,253,Don:Neut-9.00,0.4789505438034549
281,281,Don:Neut-8.00,0.47323370718282565
420,420,Don:Neut-3.00,0.45031421962977314
365,365,Don:Neut-5.00,0.44349149756598827
785,785,ATP_Don:Neut-4.00,0.43650713909300487
309,309,Don:Neut-7.00,0.4222532378848767
402,402,Neut:Neut-4.00,0.4199196430931589
393,393,Don:Neut-4.00,0.4170148031884362
830,830,ATP_Aro:Neut-2.00,0.4084604794003308
794,794,ATP_Neut:Neut-4.00,0.4082491764382046
337,337,Don:Neut-6.00,0.40553744728158314
326,326,Acc:Neut-6.00,0.4044398314026938
821,821,ATP_Neut:Neut-3.00,0.40273655710889233
522,522,Inter-Neut:Neut-7.00,0.4001221815805245
234,234,Neut:Neut-10.00,0.39586552331865343
262,262,Neut:Neut-9.00,0.39215782563641177
382,382,Acc:Neut-4.00,0.39161149577578813
801,801,ATP_Acc:Neut-3.00,0.3915265490542317
729,729,ATP_Don:Neut-6.00,0.3898663138461904
677,677,ATP_Hydro:Neut-8.00,0.3878122276217848
298,298,Acc:Neut-7.00,0.38608854179369434
839,839,ATP_Neut:Neut-2.00,0.38588774442201057
290,290,Neut:Neut-8.00,0.3856986880598656
812,812,ATP_Don:Neut-3.00,0.38397913633842773
242,242,Acc:Neut-9.00,0.3839615811093764
807,807,ATP_Aro:Neut-3.00,0.383391629700351
354,354,Acc:Neut-5.00,0.3826754410890367
655,655,ATP_Neut:Neut-9.00,0.3823680169523356
518,518,Inter-Don:Neut-7.00,0.3819350139976927
937,937,ATP_Inter-Neut:Neut-7.00,0.3817366586745101
864,864,ATP_Inter-Neut:Neut-10.00,0.38149317823250817
757,757,ATP_Don:Neut-5.00,0.3802876685287555
752,752,ATP_Aro:Neut-5.00,0.379599348785721
682,682,ATP_Neut:Neut-8.00,0.3769905278876018
710,710,ATP_Neut:Neut-7.00,0.3767990113524
627,627,ATP_Neut:Neut-10.00,0.3763889031661103
467,467,Inter-Neut:Neut-10.00,0.3763493866983958
959,959,ATP_Inter-Neut:Neut-6.00,0.37608267203023704
705,705,ATP_Hydro:Neut-7.00,0.37421197425802166
506,506,Inter-Neut:Neut-8.00,0.37420454833964767
318,318,Neut:Neut-7.00,0.37357030268486113
836,836,ATP_Hydro:Neut-2.00,0.3724493132857227
487,487,Inter-Neut:Neut-9.00,0.37020552988648214
738,738,ATP_Neut:Neut-6.00,0.369801387320313
724,724,ATP_Aro:Neut-6.00,0.3693894864301237
346,346,Neut:Neut-6.00,0.3690582607420092
538,538,Inter-Neut:Neut-6.00,0.36797719596846923
374,374,Neut:Neut-5.00,0.3674232000931523
270,270,Acc:Neut-8.00,0.36695266538744065
766,766,ATP_Neut:Neut-5.00,0.365890233436843
733,733,ATP_Hydro:Neut-6.00,0.3586329976118505
574,574,ATP_Proximal,0.35718691567392735
502,502,Inter-Don:Neut-8.00,0.35619140584100073
552,552,Inter-Neut:Neut-5.00,0.3558003187885874
761,761,ATP_Hydro:Neut-5.00,0.3551323583169732
607,607,ATP_Acc:Neut-10.00,0.35368146956348
840,840,ATP_Neut:Pos-2.00,0.35293376734348936
565,565,Inter-Neut:Neut-4.00,0.35270302496102435
646,646,ATP_Don:Neut-9.00,0.3507794227087593
388,388,Aro:Neut-4.00,0.3500566175490665
214,214,Acc:Neut-10.00,0.3467992362605874
914,914,ATP_Inter-Neut:Neut-8.00,0.34669935465000856
410,410,Acc:Neut-3.00,0.34668496100332824
650,650,ATP_Hydro:Neut-9.00,0.3456643285531742
635,635,ATP_Acc:Neut-9.00,0.3445875485343999
923,923,ATP_Inter-Acc:Pos-7.00,0.34374102869519074
504,504,Inter-Hydro:Neut-8.00,0.3431821301259985
618,618,ATP_Don:Neut-10.00,0.3431465500447528
332,332,Aro:Neut-6.00,0.343141094418705
437,437,Aro:Neut-2.00,0.34267641264325954
816,816,ATP_Hydro:Neut-3.00,0.34052368407188194
248,248,Aro:Neut-9.00,0.3399658513745538
674,674,ATP_Don:Neut-8.00,0.3394919599153776
893,893,ATP_Inter-Acc:Aro-8.00,0.33649886252618355
663,663,ATP_Acc:Neut-8.00,0.3360713952658214
889,889,ATP_Inter-Neut:Neut-9.00,0.33605576969920836
993,993,ATP_Inter-Hydro:Neut-4.00,0.33592601760700136
220,220,Aro:Neut-10.00,0.3357987896132708
429,429,Neut:Neut-3.00,0.33382361475530953
746,746,ATP_Acc:Neut-5.00,0.3317014614290743
424,424,Hydro:Neut-3.00,0.330849198166868
917,917,ATP_Inter-Acc:Acc-7.00,0.3306886237200479
276,276,Aro:Neut-8.00,0.3298087154774074
774,774,ATP_Acc:Neut-4.00,0.32809849421140935
789,789,ATP_Hydro:Neut-4.00,0.3275950381270163
164,164,mCSM_lig,0.32641646605966157
622,622,ATP_Hydro:Neut-10.00,0.32636695860943554
341,341,Hydro:Neut-6.00,0.3263486330903178
743,743,ATP_Acc:Don-5.00,0.32620890761893495
701,701,ATP_Don:Neut-7.00,0.3255492839432734
628,628,ATP_Neut:Pos-10.00,0.32528440862630337
960,960,ATP_Inter-Neut:Pos-6.00,0.32433970526866895
304,304,Aro:Neut-7.00,0.3227957411880098
984,984,ATP_Inter-Acc:Neut-4.00,0.3215781436706089
656,656,ATP_Neut:Pos-9.00,0.32138253298138153
613,613,ATP_Aro:Neut-10.00,0.32066179061442
564,564,Inter-Hydro:Neut-4.00,0.31932415246091894
442,442,Hydro:Neut-2.00,0.3184051275126758
360,360,Aro:Neut-5.00,0.31816224209439925
865,865,ATP_Inter-Neut:Pos-10.00,0.31741786410108297
978,978,ATP_Inter-Neut:Neut-5.00,0.3173596135087111
669,669,ATP_Aro:Neut-8.00,0.3171154132736498
915,915,ATP_Inter-Neut:Pos-8.00,0.3159393437543012
890,890,ATP_Inter-Neut:Pos-9.00,0.31548348153081074
631,631,ATP_Acc:Aro-9.00,0.31491152414499934
313,313,Hydro:Neut-7.00,0.3142864809652366
780,780,ATP_Aro:Neut-4.00,0.3142249414795568
462,462,Inter-Don:Neut-10.00,0.3134684579876956
718,718,ATP_Acc:Neut-6.00,0.31307351768815295
641,641,ATP_Aro:Neut-9.00,0.31306693849586287
868,868,ATP_Inter-Acc:Aro-9.00,0.3117006863026597
833,833,ATP_Don:Neut-2.00,0.31156979121196926
465,465,Inter-Hydro:Neut-10.00,0.31095702804275804
482,482,Inter-Don:Neut-9.00,0.3105897978186669
415,415,Aro:Neut-3.00,0.310510389675267
690,690,ATP_Acc:Neut-7.00,0.31033749123301124
943,943,ATP_Inter-Acc:Hydro-6.00,0.30892383075883423
458,458,Inter-Aro:Neut-10.00,0.3072551680736484
515,515,Inter-Aro:Neut-7.00,0.30542436178368426
452,452,Inter-Acc:Neut-10.00,0.3033113173480073
873,873,ATP_Inter-Acc:Pos-9.00,0.3029912095152625
696,696,ATP_Aro:Neut-7.00,0.3025950227529193
750,750,ATP_Aro:Hydro-5.00,0.3025600516242948
843,843,ATP_Inter-Acc:Aro-10.00,0.30214309183926114
825,825,ATP_Acc:Neut-2.00,0.30101242086899704
883,883,ATP_Inter-Don:Neut-9.00,0.30059941321428285
987,987,ATP_Inter-Aro:Hydro-4.00,0.29967759245326464
714,714,ATP_Acc:Aro-6.00,0.29541300993091246
369,369,Hydro:Neut-5.00,0.29538774666004297
895,895,ATP_Inter-Acc:Hydro-8.00,0.2940085402531025
969,969,ATP_Inter-Aro:Hydro-5.00,0.29388490431496894
858,858,ATP_Inter-Don:Neut-10.00,0.29361833067417775
430,430,Neut:Pos-3.00,0.2935995972708785
520,520,Inter-Hydro:Neut-7.00,0.29322679842062893
938,938,ATP_Inter-Neut:Pos-7.00,0.29278229540397804
479,479,Inter-Aro:Neut-9.00,0.29243043556167203
534,534,Inter-Don:Neut-6.00,0.29215122826465834
920,920,ATP_Inter-Acc:Hydro-7.00,0.2920117549708485
551,551,Inter-Hydro:Neut-5.00,0.2912833287949268
846,846,ATP_Inter-Acc:Neg-10.00,0.29111167302568974
285,285,Hydro:Neut-8.00,0.29072175430780733
918,918,ATP_Inter-Acc:Aro-7.00,0.29030819988462264
494,494,Inter-Acc:Neut-8.00,0.29028735069919653
397,397,Hydro:Neut-4.00,0.28966852721604086
903,903,ATP_Inter-Aro:Neut-8.00,0.28869598786655715
639,639,ATP_Aro:Hydro-9.00,0.28805068169700165
748,748,ATP_Aro:Aro-5.00,0.28770497347110924
512,512,Inter-Acc:Neut-7.00,0.2860344182661918
485,485,Inter-Hydro:Neut-9.00,0.2846920318777246
949,949,ATP_Inter-Aro:Hydro-6.00,0.2840148380958891
595,595,ATP_lig_dis,0.28352515983829596
822,822,ATP_Neut:Pos-3.00,0.28247179401779565
659,659,ATP_Acc:Aro-8.00,0.28106716024823
926,926,ATP_Inter-Aro:Hydro-7.00,0.28073496493242667
778,778,ATP_Aro:Hydro-4.00,0.27962375708311926
741,741,ATP_Acc:Acc-5.00,0.2791439400756084
739,739,ATP_Neut:Pos-6.00,0.27868085338349013
549,549,Inter-Don:Neut-5.00,0.27782240398701274
403,403,Neut:Pos-4.00,0.27669411616979067
611,611,ATP_Aro:Hydro-10.00,0.2759093298395934
898,898,ATP_Inter-Acc:Pos-8.00,0.27548207030877503
683,683,ATP_Neut:Pos-8.00,0.27491396183977335
570,570,Inter-Neut:Neut-3.00,0.27487785667086184
229,229,Hydro:Neut-10.00,0.2744678778255767
945,945,ATP_Inter-Acc:Neut-6.00,0.27434081154053747
941,941,ATP_Inter-Acc:Aro-6.00,0.2732825128539793
474,474,Inter-Acc:Neut-9.00,0.2716521802679859
792,792,ATP_Neg:Neut-4.00,0.27086606097244736
754,754,ATP_Don:Don-5.00,0.2708196891237642
966,966,ATP_Inter-Acc:Neut-5.00,0.2700418126729849
536,536,Inter-Hydro:Neut-6.00,0.2697928843218351
803,803,ATP_Aro:Aro-3.00,0.26975080715311606
847,847,ATP_Inter-Acc:Neut-10.00,0.26951235911889615
975,975,ATP_Inter-Hydro:Neut-5.00,0.26903680892260073
908,908,ATP_Inter-Don:Neut-8.00,0.2689471249459978
872,872,ATP_Inter-Acc:Neut-9.00,0.2687386905590916
870,870,ATP_Inter-Acc:Hydro-9.00,0.26808798042591375
767,767,ATP_Neut:Pos-5.00,0.26721186477543357
194,194,LIG.MOL_WEIGHT,0.26707111929305816
997,997,ATP_Inter-Acc:Don-3.00,0.26695422097067234
940,940,ATP_Inter-Acc:Acc-6.00,0.26605022933327493
994,994,ATP_Inter-Hydro:Pos-4.00,0.2654785817027343
531,531,Inter-Aro:Neut-6.00,0.26519453293069173
347,347,Neut:Pos-6.00,0.2647365208784187
711,711,ATP_Neut:Pos-7.00,0.2646252310885133
853,853,ATP_Inter-Aro:Neut-10.00,0.26460683146798125
721,721,ATP_Aro:Don-6.00,0.2644534560873444
667,667,ATP_Aro:Hydro-8.00,0.2641192231274312
726,726,ATP_Don:Don-6.00,0.2639650979380286
528,528,Inter-Acc:Neut-6.00,0.263481562589746
713,713,ATP_Acc:Acc-6.00,0.2629884479456366
933,933,ATP_Inter-Don:Pos-7.00,0.2625528325148814
848,848,ATP_Inter-Acc:Pos-10.00,0.26165917011094697
845,845,ATP_Inter-Acc:Hydro-10.00,0.26164295198397447
897,897,ATP_Inter-Acc:Neut-8.00,0.26135413073489255
257,257,Hydro:Neut-9.00,0.26032200872288813
878,878,ATP_Inter-Aro:Neut-9.00,0.2598579824057885
665,665,ATP_Aro:Aro-8.00,0.2585524576365339
849,849,ATP_Inter-Aro:Aro-10.00,0.2573936739061291
193,193,Sift,0.2573862428696072
809,809,ATP_Don:Don-3.00,0.25726333966068715
1005,1005,ATP_Inter-Neut:Pos-3.00,0.2569026111615096
440,440,Don:Neut-2.00,0.25669314792699893
964,964,ATP_Inter-Acc:Hydro-5.00,0.2563696194478955
499,499,Inter-Aro:Neut-8.00,0.25598523615407354
642,642,ATP_Aro:Pos-9.00,0.25544888578333325
445,445,Neut:Neut-2.00,0.2526310813306609
264,264,Pos:Pos-9.00,0.25230838104405295
851,851,ATP_Inter-Aro:Hydro-10.00,0.2490008255203211
692,692,ATP_Aro:Aro-7.00,0.24861423138009586
954,954,ATP_Inter-Don:Neut-6.00,0.24858213774617832
909,909,ATP_Inter-Don:Pos-8.00,0.24835354241570906
976,976,ATP_Inter-Hydro:Pos-5.00,0.2471345082827221
446,446,Neut:Pos-2.00,0.24704727860811637
946,946,ATP_Inter-Acc:Pos-6.00,0.24676780128580855
603,603,ATP_Acc:Aro-10.00,0.24557040912535388
130,130,Fluctuation,0.24525179156839494
163,163,lig_dis,0.24282691343724716
983,983,ATP_Inter-Acc:Hydro-4.00,0.2421601315323434
934,934,ATP_Inter-Hydro:Neut-7.00,0.24171410713920238
344,344,Neg:Neut-6.00,0.24130796111392172
859,859,ATP_Inter-Don:Pos-10.00,0.24106311292402482
927,927,ATP_Inter-Aro:Neut-7.00,0.24081598728987297
586,586,ATP_d_Proximal,0.24077927042462166
805,805,ATP_Aro:Hydro-3.00,0.23965392911037187
860,860,ATP_Inter-Hydro:Neut-10.00,0.23933862585175225
942,942,ATP_Inter-Acc:Don-6.00,0.23884943809227321
753,753,ATP_Aro:Pos-5.00,0.23882131129896633
970,970,ATP_Inter-Aro:Neut-5.00,0.23859149966889737
664,664,ATP_Acc:Pos-8.00,0.2385841907028694
991,991,ATP_Inter-Don:Neut-4.00,0.23856881378973638
781,781,ATP_Aro:Pos-4.00,0.2383397407779042
202,202,LIG.LABUTE_ASA,0.23702667479545347
770,770,ATP_Acc:Aro-4.00,0.2355355185591237
694,694,ATP_Aro:Hydro-7.00,0.23523538646138276
922,922,ATP_Inter-Acc:Neut-7.00,0.23507164634804
981,981,ATP_Inter-Acc:Aro-4.00,0.2348550232435087
593,593,ATP_d_Amide-Ring,0.23358613167352904
995,995,ATP_Inter-Neut:Neut-4.00,0.2331554673833489
777,777,ATP_Aro:Don-4.00,0.23215548057117497
819,819,ATP_Neg:Neut-3.00,0.23206112728475903
932,932,ATP_Inter-Don:Neut-7.00,0.2319405348000103
866,866,ATP_Inter-Pos:Pos-10.00,0.2305647059983822
637,637,ATP_Aro:Aro-9.00,0.23013303035517207
885,885,ATP_Inter-Hydro:Neut-9.00,0.22982228238818614
693,693,ATP_Aro:Don-7.00,0.22959690000809863
614,614,ATP_Aro:Pos-10.00,0.2271161718230279
544,544,Inter-Acc:Neut-5.00,0.2265540219437452
827,827,ATP_Aro:Aro-2.00,0.22580640572255506
775,775,ATP_Acc:Pos-4.00,0.22570901921831732
829,829,ATP_Aro:Hydro-2.00,0.2255188714328673
900,900,ATP_Inter-Aro:Don-8.00,0.22502974048643543
736,736,ATP_Neg:Neut-6.00,0.22451625663420227
776,776,ATP_Aro:Aro-4.00,0.22407501911995098
925,925,ATP_Inter-Aro:Don-7.00,0.22405342564389885
140,140,Proximal,0.22339163743568946
203,203,LIG.TPSA,0.2226592037155628
764,764,ATP_Neg:Neut-5.00,0.2219949552142073
1001,1001,ATP_Inter-Aro:Neut-3.00,0.2218906582806366
749,749,ATP_Aro:Don-5.00,0.22170336493549536
722,722,ATP_Aro:Hydro-6.00,0.2215521919837311
730,730,ATP_Don:Pos-6.00,0.220914428864039
319,319,Neut:Pos-7.00,0.22090973151492266
291,291,Neut:Pos-8.00,0.22049724820630878
961,961,ATP_Inter-Acc:Acc-5.00,0.22043194994629411
904,904,ATP_Inter-Aro:Pos-8.00,0.219919431015545
950,950,ATP_Inter-Aro:Neut-6.00,0.2196362197868953
956,956,ATP_Inter-Hydro:Neut-6.00,0.21963050069572265
957,957,ATP_Inter-Hydro:Pos-6.00,0.21945077548226744
1002,1002,ATP_Inter-Don:Neut-3.00,0.21891693355071684
854,854,ATP_Inter-Aro:Pos-10.00,0.2177914897085489
678,678,ATP_Hydro:Pos-8.00,0.21724492116048522
734,734,ATP_Hydro:Pos-6.00,0.21645772239445948
919,919,ATP_Inter-Acc:Don-7.00,0.21634679420351688
862,862,ATP_Inter-Neg:Neut-10.00,0.21633754873102573
979,979,ATP_Inter-Neut:Pos-5.00,0.21414280775906347
876,876,ATP_Inter-Aro:Hydro-9.00,0.2140928293530182
666,666,ATP_Aro:Don-8.00,0.21361347714228174
892,892,ATP_Inter-Acc:Acc-8.00,0.21343543479923532
894,894,ATP_Inter-Acc:Don-8.00,0.2127444731314423
691,691,ATP_Acc:Pos-7.00,0.2116615431494031
910,910,ATP_Inter-Hydro:Neut-8.00,0.21129016727218008
251,251,Don:Hydro-9.00,0.21119654277648348
195,195,LIG.ATOM_COUNT,0.21077832686457487
998,998,ATP_Inter-Acc:Neut-3.00,0.20986803200183068
861,861,ATP_Inter-Hydro:Pos-10.00,0.20916079510568908
653,653,ATP_Neg:Neut-9.00,0.20897767566065228
973,973,ATP_Inter-Don:Neut-5.00,0.20836828531004237
996,996,ATP_Inter-Neut:Pos-4.00,0.2075284341541539
901,901,ATP_Inter-Aro:Hydro-8.00,0.20735611549366073
615,615,ATP_Don:Don-10.00,0.2064996497726561
562,562,Inter-Don:Neut-4.00,0.2062669785765272
947,947,ATP_Inter-Aro:Aro-6.00,0.20534936431345652
824,824,ATP_Acc:Aro-2.00,0.20526285281936985
790,790,ATP_Hydro:Pos-4.00,0.20477433480612195
617,617,ATP_Don:Neg-10.00,0.204399652544748
486,486,Inter-Neg:Neut-9.00,0.20300996782315428
680,680,ATP_Neg:Neut-8.00,0.20289026665514243
850,850,ATP_Inter-Aro:Don-10.00,0.2023322072724807
715,715,ATP_Acc:Don-6.00,0.20199617250888036
935,935,ATP_Inter-Hydro:Pos-7.00,0.20186673259369137
126,126,ZHAC000104,0.20160313094909776
625,625,ATP_Neg:Neut-10.00,0.2014072432083318
762,762,ATP_Hydro:Pos-5.00,0.20099199126513367
928,928,ATP_Inter-Aro:Pos-7.00,0.20066682521839807
719,719,ATP_Acc:Pos-6.00,0.2005728093957022
609,609,ATP_Aro:Aro-10.00,0.20040669708379033
844,844,ATP_Inter-Acc:Don-10.00,0.19983021862793615
962,962,ATP_Inter-Acc:Aro-5.00,0.1985300374565484
699,699,ATP_Don:Hydro-7.00,0.19839270083063765
600,600,ATP_Aro,0.1980364936206025
644,644,ATP_Don:Hydro-9.00,0.19793137781927417
988,988,ATP_Inter-Aro:Neut-4.00,0.1977789423563283
720,720,ATP_Aro:Aro-6.00,0.1976055015486251
400,400,Neg:Neut-4.00,0.19721382798346365
296,296,Acc:Hydro-7.00,0.1969473954177876
842,842,ATP_Inter-Acc:Acc-10.00,0.19621141331545466
867,867,ATP_Inter-Acc:Acc-9.00,0.1958669555307586
589,589,ATP_d_Hydrophobic,0.19583786462448538
651,651,ATP_Hydro:Pos-9.00,0.19568689927131722
884,884,ATP_Inter-Don:Pos-9.00,0.19532880034437206
200,200,LIG.NUM_ROTATABLE_BONDS,0.19486885205085347
886,886,ATP_Inter-Hydro:Pos-9.00,0.19439375317229013
708,708,ATP_Neg:Neut-7.00,0.19336087938661617
616,616,ATP_Don:Hydro-10.00,0.19296932731587324
610,610,ATP_Aro:Don-10.00,0.19279431948111014
725,725,ATP_Aro:Pos-6.00,0.19202403285258995
547,547,Inter-Aro:Neut-5.00,0.19099417806600183
324,324,Acc:Hydro-6.00,0.1909337515115208
879,879,ATP_Inter-Aro:Pos-9.00,0.19049217582413513
826,826,ATP_Acc:Pos-2.00,0.19047528077131504
398,398,Hydro:Pos-4.00,0.19006809475068387
869,869,ATP_Inter-Acc:Don-9.00,0.18978801769245734
604,604,ATP_Acc:Don-10.00,0.1897330261022141
732,732,ATP_Hydro:Neg-6.00,0.18924478210950335
362,362,Don:Don-5.00,0.1868540190019088
771,771,ATP_Acc:Don-4.00,0.1867955284551015
361,361,Aro:Pos-5.00,0.18660568342947004
697,697,ATP_Aro:Pos-7.00,0.18652798826705563
802,802,ATP_Acc:Pos-3.00,0.1864392062488931
223,223,Don:Hydro-10.00,0.1855729015229497
505,505,Inter-Neg:Neut-8.00,0.1853345335476897
160,160,ResDepth,0.18403878469158208
688,688,ATP_Acc:Hydro-7.00,0.18320885931907283
963,963,ATP_Inter-Acc:Don-5.00,0.18302313800273584
286,286,Hydro:Pos-8.00,0.18289999618700659
930,930,ATP_Inter-Don:Hydro-7.00,0.1826631284283442
375,375,Neut:Pos-5.00,0.18183256686574722
623,623,ATP_Hydro:Pos-10.00,0.18138620911661674
267,267,Acc:Don-8.00,0.18102669107883518
1004,1004,ATP_Inter-Neut:Neut-3.00,0.18068196808612047
199,199,LIG.NUM_HETEROATOMS,0.17889374879338016
247,247,Aro:Neg-9.00,0.17821803978943462
427,427,Neg:Neut-3.00,0.1781301718812136
716,716,ATP_Acc:Hydro-6.00,0.17778656066213738
740,740,ATP_Pos:Pos-6.00,0.17764758855728902
875,875,ATP_Inter-Aro:Don-9.00,0.17750164149530967
433,433,Acc:Neut-2.00,0.1772357821333661
417,417,Don:Don-3.00,0.17722650528195016
1007,1007,ATP_Inter-Neut:Neut-2.00,0.177007059406324
685,685,ATP_Acc:Acc-7.00,0.1763694316056954
468,468,Inter-Neut:Pos-10.00,0.17428913186744177
316,316,Neg:Neut-7.00,0.17419406144167882
747,747,ATP_Acc:Pos-5.00,0.1737284592895798
798,798,ATP_Acc:Don-3.00,0.17325008390775398
260,260,Neg:Neut-9.00,0.17304327412702314
709,709,ATP_Neg:Pos-7.00,0.1726796553777703
671,671,ATP_Don:Don-8.00,0.17263988174537204
560,560,Inter-Aro:Neut-4.00,0.17263928708408915
784,784,ATP_Don:Neg-4.00,0.17235556868137714
630,630,ATP_Acc:Acc-9.00,0.1722952712828052
219,219,Aro:Neg-10.00,0.17196793429330537
261,261,Neg:Pos-9.00,0.17122960220183447
727,727,ATP_Don:Hydro-6.00,0.17100259335876533
323,323,Acc:Don-6.00,0.1691078149393208
643,643,ATP_Don:Don-9.00,0.16900529226798344
632,632,ATP_Acc:Don-9.00,0.16789217401842604
702,702,ATP_Don:Pos-7.00,0.16776189660040464
303,303,Aro:Neg-7.00,0.1676958103780013
877,877,ATP_Inter-Aro:Neg-9.00,0.16699076951825842
828,828,ATP_Aro:Don-2.00,0.16684426927959795
658,658,ATP_Acc:Acc-8.00,0.1661221554860246
645,645,ATP_Don:Neg-9.00,0.16594440196977267
924,924,ATP_Inter-Aro:Aro-7.00,0.16590162867301816
936,936,ATP_Inter-Neg:Neut-7.00,0.1657594601178456
592,592,ATP_d_PI-PI,0.16549882902117163
372,372,Neg:Neut-5.00,0.1653709373909833
263,263,Neut:Pos-9.00,0.16511170613026538
704,704,ATP_Hydro:Neg-7.00,0.16478531130539809
782,782,ATP_Don:Don-4.00,0.16426869283137213
608,608,ATP_Acc:Pos-10.00,0.16369204577629315
681,681,ATP_Neg:Pos-8.00,0.163568217586882
232,232,Neg:Neut-10.00,0.16315930923985933
772,772,ATP_Acc:Hydro-4.00,0.1629342602263404
466,466,Inter-Neg:Neut-10.00,0.16212155451635057
841,841,ATP_Pos:Pos-2.00,0.1621198422929313
882,882,ATP_Inter-Don:Neg-9.00,0.16199047905010566
686,686,ATP_Acc:Aro-7.00,0.16143336096237748
728,728,ATP_Don:Neg-6.00,0.16126139434848064
638,638,ATP_Aro:Don-9.00,0.16125117220848662
760,760,ATP_Hydro:Neg-5.00,0.16087965550613204
687,687,ATP_Acc:Don-7.00,0.16080433987450826
295,295,Acc:Don-7.00,0.16022919894553134
275,275,Aro:Neg-8.00,0.16006627061581913
418,418,Don:Hydro-3.00,0.15997623344012624
951,951,ATP_Inter-Aro:Pos-6.00,0.1597920007267204
888,888,ATP_Inter-Neg:Pos-9.00,0.15954904234312983
138,138,VDWClash,0.15862348187662123
948,948,ATP_Inter-Aro:Don-6.00,0.15782450668895942
333,333,Aro:Pos-6.00,0.15777751946104424
758,758,ATP_Don:Pos-5.00,0.15749130065661854
982,982,ATP_Inter-Acc:Don-4.00,0.1572160174775079
207,207,Aro,0.15672394430865322
1003,1003,ATP_Inter-Hydro:Neut-3.00,0.15636219701547405
236,236,Pos:Pos-10.00,0.15593032278706564
376,376,Pos:Pos-5.00,0.1553726788116052
939,939,ATP_Inter-Pos:Pos-7.00,0.15532330538487593
307,307,Don:Hydro-7.00,0.15528699034985438
306,306,Don:Don-7.00,0.15512490020165792
745,745,ATP_Acc:Neg-5.00,0.15489529766993382
700,700,ATP_Don:Neg-7.00,0.1548718914833498
51,51,LIWA970101,0.15440239038245007
911,911,ATP_Inter-Hydro:Pos-8.00,0.15397258219824828
980,980,ATP_Inter-Acc:Acc-4.00,0.1536006969887702
768,768,ATP_Pos:Pos-5.00,0.15316922527710597
235,235,Neut:Pos-10.00,0.1525125804524765
190,190,Aromatic_Count,0.15223649748523504
431,431,Pos:Pos-3.00,0.1519721211595424
394,394,Don:Pos-4.00,0.15112670092161062
569,569,Inter-Hydro:Neut-3.00,0.1511058162848129
314,314,Hydro:Pos-7.00,0.15069304217041113
292,292,Pos:Pos-8.00,0.15024131324783108
378,378,Acc:Aro-4.00,0.14974058658275569
289,289,Neg:Pos-8.00,0.14947451724685523
571,571,Inter-Neut:Neut-2.00,0.14942119055248226
810,810,ATP_Don:Hydro-3.00,0.1491626060208504
473,473,Inter-Acc:Neg-9.00,0.14903173662776426
874,874,ATP_Inter-Aro:Aro-9.00,0.14902410376333686
566,566,Inter-Acc:Neut-3.00,0.1487239719457376
670,670,ATP_Aro:Pos-8.00,0.14834953292836728
755,755,ATP_Don:Hydro-5.00,0.14796416412807378
871,871,ATP_Inter-Acc:Neg-9.00,0.146899940476092
698,698,ATP_Don:Don-7.00,0.14653831893358715
795,795,ATP_Pos:Pos-4.00,0.14637491242010148
151,151,d_Proximal,0.14625148671129562
320,320,Pos:Pos-7.00,0.14555224420047708
831,831,ATP_Aro:Pos-2.00,0.14447376446977467
243,243,Acc:Pos-9.00,0.1442964233889894
990,990,ATP_Inter-Don:Hydro-4.00,0.1438845185772757
797,797,ATP_Acc:Aro-3.00,0.1429434920989121
124,124,ZHAC000102,0.14289688898220332
366,366,Don:Pos-5.00,0.14287959552221396
629,629,ATP_Pos:Pos-10.00,0.14281791665203158
912,912,ATP_Inter-Neg:Neut-8.00,0.14188094244599903
640,640,ATP_Aro:Neg-9.00,0.1416810564677582
404,404,Pos:Pos-4.00,0.14166673897079995
379,379,Acc:Don-4.00,0.14141557355282375
568,568,Inter-Don:Neut-3.00,0.14133152133549665
197,197,LIG.NUM_ACCEPTORS,0.14078407616033228
584,584,ATP_d_VDWClash,0.1406994237475323
881,881,ATP_Inter-Don:Hydro-9.00,0.1405245435213489
788,788,ATP_Hydro:Neg-4.00,0.14050155579022272
673,673,ATP_Don:Neg-8.00,0.14007469140633066
407,407,Acc:Don-3.00,0.13977141573880303
192,192,PosIonizable_Count,0.1393124011631537
899,899,ATP_Inter-Aro:Aro-8.00,0.13908089175760918
887,887,ATP_Inter-Neg:Neut-9.00,0.13861744086872685
759,759,ATP_Hydro:Hydro-5.00,0.13837356852578253
814,814,ATP_Hydro:Hydro-3.00,0.13791416749498442
916,916,ATP_Inter-Pos:Pos-8.00,0.13788194243977392
222,222,Don:Don-10.00,0.13700440116549517
838,838,ATP_Neg:Neut-2.00,0.1369934903933161
621,621,ATP_Hydro:Neg-10.00,0.13676276401300713
288,288,Neg:Neut-8.00,0.13600452064409518
96,96,QU_C930101,0.13568671416992073
353,353,Acc:Neg-5.00,0.13480343077940704
660,660,ATP_Acc:Don-8.00,0.13463598153395706
815,815,ATP_Hydro:Neg-3.00,0.13340405250136111
863,863,ATP_Inter-Neg:Pos-10.00,0.13339158398023065
634,634,ATP_Acc:Neg-9.00,0.13218579908377492
53,53,LUTR910102,0.13217246910272884
921,921,ATP_Inter-Acc:Neg-7.00,0.13183504182484573
441,441,Hydro:Hydro-2.00,0.13171900739652687
348,348,Pos:Pos-6.00,0.131055073418469
787,787,ATP_Hydro:Hydro-4.00,0.13099280450421702
488,488,Inter-Neut:Pos-9.00,0.13043427402556995
537,537,Inter-Neg:Neut-6.00,0.13013700719062204
808,808,ATP_Aro:Pos-3.00,0.1294884362148605
425,425,Hydro:Pos-3.00,0.1280538655169483
668,668,ATP_Aro:Neg-8.00,0.12735636400988204
230,230,Hydro:Pos-10.00,0.12710892983914235
972,972,ATP_Inter-Don:Hydro-5.00,0.12684031998682066
541,541,Inter-Acc:Aro-5.00,0.12659969981120645
389,389,Aro:Pos-4.00,0.12606696791396566
657,657,ATP_Pos:Pos-9.00,0.12582528387397174
451,451,Inter-Acc:Neg-10.00,0.12564978439561525
891,891,ATP_Inter-Pos:Pos-9.00,0.12490048979555235
282,282,Don:Pos-8.00,0.12481461428532148
293,293,Acc:Acc-7.00,0.12452231000495395
268,268,Acc:Hydro-8.00,0.12295745169280314
804,804,ATP_Aro:Don-3.00,0.12270660514606391
834,834,ATP_Don:Pos-2.00,0.12242850881833411
712,712,ATP_Pos:Pos-7.00,0.12228583274920712
514,514,Inter-Aro:Hydro-7.00,0.12138068593532436
852,852,ATP_Inter-Aro:Neg-10.00,0.12112304421859932
583,583,ATP_Amide-Ring,0.12084672215151215
212,212,Acc:Hydro-10.00,0.12029596852997093
154,154,d_Hydrophobic,0.1200855979773574
216,216,Aro:Aro-10.00,0.11994021630183438
78,78,MOOG990101,0.11993383513974543
233,233,Neg:Pos-10.00,0.11987430249657027
10,10,BONM030101,0.11977770249856068
633,633,ATP_Acc:Hydro-9.00,0.11971794288354509
16,16,BRYS930101,0.11965539820912063
119,119,VENM980101,0.1193583591059082
196,196,LIG.LOGP,0.11903657742731655
907,907,ATP_Inter-Don:Neg-8.00,0.1187984248824292
672,672,ATP_Don:Hydro-8.00,0.11871820815804623
159,159,d_Carbon-PI,0.11830605977474296
953,953,ATP_Inter-Don:Hydro-6.00,0.11829026082436078
352,352,Acc:Hydro-5.00,0.11826362290907877
594,594,ATP_d_Carbon-PI,0.11756374253315416
602,602,ATP_Acc:Acc-10.00,0.11723483273578461
856,856,ATP_Inter-Don:Hydro-10.00,0.11722333838051169
107,107,SIMK990103,0.11691474588563366
416,416,Aro:Pos-3.00,0.11655601720478925
968,968,ATP_Inter-Aro:Don-5.00,0.11609119112223354
684,684,ATP_Pos:Pos-8.00,0.11531253553072096
258,258,Hydro:Pos-9.00,0.11517795265163411
331,331,Aro:Neg-6.00,0.1149019333029826
902,902,ATP_Inter-Aro:Neg-8.00,0.11465367615650224
647,647,ATP_Don:Pos-9.00,0.11422355868865441
857,857,ATP_Inter-Don:Neg-10.00,0.1139327284621432
299,299,Acc:Pos-7.00,0.11392555889826372
76,76,MIYT790101,0.11368284836105635
703,703,ATP_Hydro:Hydro-7.00,0.113389886998299
967,967,ATP_Inter-Acc:Pos-5.00,0.11244161818761489
706,706,ATP_Hydro:Pos-7.00,0.1121322505951321
357,357,Aro:Don-5.00,0.11184394008971932
557,557,Inter-Acc:Neut-4.00,0.11136188428444571
279,279,Don:Hydro-8.00,0.11130986693251899
408,408,Acc:Hydro-3.00,0.11121549680856457
409,409,Acc:Neg-3.00,0.11083688360014765
396,396,Hydro:Neg-4.00,0.11045914134398149
783,783,ATP_Don:Hydro-4.00,0.1082097153281234
421,421,Don:Pos-3.00,0.10723789152126129
955,955,ATP_Inter-Don:Pos-6.00,0.10663690694269956
111,111,SKOJ000102,0.10663348284775775
368,368,Hydro:Neg-5.00,0.10654284557127935
339,339,Hydro:Hydro-6.00,0.10635804058302822
1006,1006,ATP_Inter-Acc:Neut-2.00,0.10621387847190134
12,12,BONM030103,0.10568461573489563
556,556,Inter-Acc:Hydro-4.00,0.10496828306719319
989,989,ATP_Inter-Don:Don-4.00,0.10492367616726805
813,813,ATP_Don:Pos-3.00,0.10451948381283716
278,278,Don:Don-8.00,0.10422552024251752
201,201,LIG.NUM_RINGS,0.10382850961270274
363,363,Don:Hydro-5.00,0.1037569334589663
944,944,ATP_Inter-Acc:Neg-6.00,0.10344596924465055
649,649,ATP_Hydro:Neg-9.00,0.1027599635812737
695,695,ATP_Aro:Neg-7.00,0.10237646698178793
751,751,ATP_Aro:Neg-5.00,0.10133456577699018
905,905,ATP_Inter-Don:Don-8.00,0.10129650881377783
48,48,KOSJ950115,0.10126352822298834
742,742,ATP_Acc:Aro-5.00,0.10115085720106975
661,661,ATP_Acc:Hydro-8.00,0.10093355062423015
731,731,ATP_Hydro:Hydro-6.00,0.10092508367412067
489,489,Inter-Acc:Acc-8.00,0.10088956136198379
507,507,Inter-Neut:Pos-8.00,0.10059579824126708
168,168,blosum35,0.10052820045215949
662,662,ATP_Acc:Neg-8.00,0.09995385929907252
817,817,ATP_Hydro:Pos-3.00,0.09924904749031827
254,254,Don:Pos-9.00,0.09890415788547013
476,476,Inter-Aro:Don-9.00,0.0988915013525904
351,351,Acc:Don-5.00,0.0984453855221199
573,573,ATP_VDW,0.09827390231791888
118,118,TUDE900101,0.09759609673069747
155,155,d_Polar,0.09665695994668955
65,65,MEHP950103,0.09616201279912451
109,109,SIMK990105,0.09548701431574758
689,689,ATP_Acc:Neg-7.00,0.0947706820969425
250,250,Don:Don-9.00,0.0947132164353115
799,799,ATP_Acc:Hydro-3.00,0.0945853523311948
744,744,ATP_Acc:Hydro-5.00,0.09443688204334721
335,335,Don:Hydro-6.00,0.09416271054259484
521,521,Inter-Neg:Neut-7.00,0.09401891359549008
380,380,Acc:Hydro-4.00,0.09366553996657467
737,737,ATP_Neg:Pos-6.00,0.09306756832473129
965,965,ATP_Inter-Acc:Neg-5.00,0.09302266423020078
327,327,Acc:Pos-6.00,0.09202886684183387
579,579,ATP_Polar,0.09198269423661065
294,294,Acc:Aro-7.00,0.09141790385387294
896,896,ATP_Inter-Acc:Neg-8.00,0.09140703005017192
636,636,ATP_Acc:Pos-9.00,0.09132416538454846
835,835,ATP_Hydro:Hydro-2.00,0.09055960096082316
271,271,Acc:Pos-8.00,0.08959689742873245
144,144,Polar,0.08931472836197418
255,255,Hydro:Hydro-9.00,0.08929765615842689
496,496,Inter-Aro:Don-8.00,0.08858044570760981
619,619,ATP_Don:Pos-10.00,0.08804928236697673
906,906,ATP_Inter-Don:Hydro-8.00,0.08753651281315511
42,42,KESO980102,0.08736782185344882
11,11,BONM030102,0.08725543106187006
590,590,ATP_d_Polar,0.08683909380696697
227,227,Hydro:Hydro-10.00,0.08632851087170179
880,880,ATP_Inter-Don:Don-9.00,0.08622381124242606
198,198,LIG.NUM_DONORS,0.08622218115530722
334,334,Don:Don-6.00,0.08617613999105167
64,64,MEHP950102,0.08603159895476375
256,256,Hydro:Neg-9.00,0.08599695294537169
769,769,ATP_Acc:Acc-4.00,0.08597510002768693
612,612,ATP_Aro:Neg-10.00,0.0859688328280317
971,971,ATP_Inter-Don:Don-5.00,0.0857041846923643
546,546,Inter-Aro:Hydro-5.00,0.08516673048355461
131,131,ddg_dynamut,0.0849998430249923
280,280,Don:Neg-8.00,0.08493452549160718
349,349,Acc:Acc-5.00,0.08486908038451357
100,100,RISJ880101,0.08484995688663899
456,456,Inter-Aro:Hydro-10.00,0.08459643222121849
94,94,PRLA000102,0.0842203508735162
123,123,ZHAC000101,0.08413118401756581
110,110,SKOJ000101,0.08402340246838769
444,444,Neg:Neut-2.00,0.08380424989888757
443,443,Hydro:Pos-2.00,0.08283589675005043
438,438,Aro:Pos-2.00,0.08221090892553651
985,985,ATP_Inter-Acc:Pos-4.00,0.0818528054138552
832,832,ATP_Don:Hydro-2.00,0.08126726937350881
676,676,ATP_Hydro:Neg-8.00,0.08121162188025943
563,563,Inter-Hydro:Hydro-4.00,0.08095860132160371
588,588,ATP_d_Aromatic,0.08075619940346956
530,530,Inter-Aro:Hydro-6.00,0.08058781804388992
4,4,BENS940101,0.08053589831664709
377,377,Acc:Acc-4.00,0.0805299921837106
605,605,ATP_Acc:Hydro-10.00,0.08052127118481911
391,391,Don:Hydro-4.00,0.08034549583698292
259,259,Neg:Neg-9.00,0.08008275576367296
215,215,Acc:Pos-10.00,0.0799984539405556
464,464,Inter-Hydro:Neg-10.00,0.07931621714819226
105,105,SIMK990101,0.0792314231241873
986,986,ATP_Inter-Aro:Don-4.00,0.0791915419940199
823,823,ATP_Pos:Pos-3.00,0.07918332892655577
497,497,Inter-Aro:Hydro-8.00,0.07913503572475822
226,226,Don:Pos-10.00,0.0789568424149456
439,439,Don:Hydro-2.00,0.07854927003379686
221,221,Aro:Pos-10.00,0.07843746374710303
390,390,Don:Don-4.00,0.07812398827075073
321,321,Acc:Acc-6.00,0.07810657471251048
310,310,Don:Pos-7.00,0.07739616732401133
167,167,blosum30,0.07685436596694739
191,191,Hydrophobe_Count,0.07630827987310762
328,328,Aro:Aro-6.00,0.07600011792653794
47,47,KOSJ950110_RSA,0.07569428574941339
143,143,Hydrophobic,0.07559421020423152
305,305,Aro:Pos-7.00,0.07506758746256503
436,436,Aro:Hydro-2.00,0.07451172700487962
315,315,Neg:Neg-7.00,0.07444043722564242
7,7,BENS940104,0.07433826360950091
239,239,Acc:Don-9.00,0.07411089399770443
55,55,LUTR910104,0.07386724785783949
675,675,ATP_Hydro:Hydro-8.00,0.07330330207597768
580,580,ATP_WeakPolar,0.07316760146341972
756,756,ATP_Don:Neg-5.00,0.0728840067596277
103,103,RUSR970102,0.07270629080653723
36,36,JOHM930101,0.07265273808854555
1000,1000,ATP_Inter-Aro:Don-3.00,0.07236294325668347
6,6,BENS940103,0.07229552514975879
423,423,Hydro:Neg-3.00,0.0722344578911076
129,129,Deformation,0.0718420662169379
240,240,Acc:Hydro-9.00,0.07167885843088584
9,9,BLAJ010101,0.07161600086897568
125,125,ZHAC000103,0.07115584173758238
477,477,Inter-Aro:Hydro-9.00,0.07093834200979798
59,59,LUTR910108,0.07087337165222074
277,277,Aro:Pos-8.00,0.07016145998669376
343,343,Neg:Neg-6.00,0.06965588870657413
99,99,RIER950101,0.06963751550090347
626,626,ATP_Neg:Pos-10.00,0.06908118307136757
786,786,ATP_Don:Pos-4.00,0.06897764893890335
189,189,FCount,0.06891632472752773
561,561,Inter-Don:Hydro-4.00,0.06806309206450178
545,545,Inter-Aro:Don-5.00,0.06781996571242255
472,472,Inter-Acc:Hydro-9.00,0.06767120004458937
529,529,Inter-Aro:Don-6.00,0.06751513669671394
106,106,SIMK990102,0.06747849862383593
367,367,Hydro:Hydro-5.00,0.06727759982627735
796,796,ATP_Acc:Acc-3.00,0.0672682295406477
582,582,ATP_PI-PI,0.06721853071715467
572,572,ATP_VDWClash,0.06623584200078225
567,567,Inter-Aro:Neut-3.00,0.06443174921617612
793,793,ATP_Neg:Pos-4.00,0.06438295932619598
952,952,ATP_Inter-Don:Don-6.00,0.0637340093952301
455,455,Inter-Aro:Don-10.00,0.06347519683228753
387,387,Aro:Neg-4.00,0.06336584938672063
244,244,Aro:Aro-9.00,0.06333216541494435
66,66,MICC010101,0.06316748959418694
837,837,ATP_Hydro:Pos-2.00,0.0630681868653662
855,855,ATP_Inter-Don:Don-10.00,0.0627922629794857
371,371,Neg:Neg-5.00,0.06242938930502362
134,134,ddg_sdm,0.06239103876157426
717,717,ATP_Acc:Neg-6.00,0.06217215680444621
478,478,Inter-Aro:Neg-9.00,0.06192816979417071
22,22,DOSZ010102,0.06115488176405881
461,461,Inter-Don:Hydro-10.00,0.06032824768040412
811,811,ATP_Don:Neg-3.00,0.06020536156202638
336,336,Don:Neg-6.00,0.06004274197985815
57,57,LUTR910106,0.05909890657885519
161,161,RSA,0.059039413609972335
139,139,VDW,0.0585751084345314
77,77,MOHR870101,0.05855633133602556
654,654,ATP_Neg:Pos-9.00,0.058537628606778025
84,84,NIEK910101,0.058487112810109654
591,591,ATP_d_WeakPolar,0.058368096213617715
434,434,Aro:Aro-2.00,0.0580934753109692
620,620,ATP_Hydro:Hydro-10.00,0.05742226369861836
342,342,Hydro:Pos-6.00,0.057309848705597854
104,104,RUSR970103,0.057106598637954864
359,359,Aro:Neg-5.00,0.05668334680226339
513,513,Inter-Aro:Don-7.00,0.05658755504380952
265,265,Acc:Acc-8.00,0.05657216968165368
72,72,MIYS960102,0.05636526174420586
284,284,Hydro:Neg-8.00,0.05596427389481562
370,370,Hydro:Pos-5.00,0.05486707260671553
252,252,Don:Neg-9.00,0.05483230092325053
577,577,ATP_Aromatic,0.05480917788230255
39,39,KANM000101,0.05477792702019668
931,931,ATP_Inter-Don:Neg-7.00,0.05471486443243001
95,95,QUIB020101,0.05460547109670344
50,50,LINK010101,0.05436523261572335
448,448,Inter-Acc:Aro-10.00,0.053808095889631424
210,210,Acc:Aro-10.00,0.05339036948870879
181,181,blosum95,0.05336183347047152
509,509,Inter-Acc:Aro-7.00,0.05312132285112936
208,208,Neut,0.052564668061614306
559,559,Inter-Aro:Hydro-4.00,0.05219741101493125
18,18,CSEM940101,0.05172295840695407
355,355,Acc:Pos-5.00,0.051640856946024716
539,539,Inter-Neut:Pos-6.00,0.05076752222629333
237,237,Acc:Acc-9.00,0.050716967142522495
3,3,BASU010101,0.05060691058748068
413,413,Aro:Don-3.00,0.050563021569681954
578,578,ATP_Hydrophobic,0.05016289600417956
93,93,PRLA000101,0.05015468052431338
209,209,Acc:Acc-10.00,0.049614700491189545
493,493,Inter-Acc:Neg-8.00,0.0494898648475639
381,381,Acc:Neg-4.00,0.04936700974992103
457,457,Inter-Aro:Neg-10.00,0.04893907156537969
422,422,Hydro:Hydro-3.00,0.04880469214617422
492,492,Inter-Acc:Hydro-8.00,0.04871316476898668
929,929,ATP_Inter-Don:Don-7.00,0.048633884097318614
117,117,TOBD000102,0.04793685682742188
28,28,GIAG010101,0.047398544301075596
525,525,Inter-Acc:Aro-6.00,0.04729788537799662
535,535,Inter-Hydro:Hydro-6.00,0.04706486156957013
386,386,Aro:Hydro-4.00,0.04705148471171361
71,71,MIYS960101,0.04680238815180937
543,543,Inter-Acc:Hydro-5.00,0.04652323658415991
426,426,Neg:Neg-3.00,0.04638223136720754
80,80,MUET020101,0.04635993325428389
419,419,Don:Neg-3.00,0.04618804252175268
913,913,ATP_Inter-Neg:Pos-8.00,0.046029996005301665
475,475,Inter-Aro:Aro-9.00,0.04594681985502902
213,213,Acc:Neg-10.00,0.04563111428880218
228,228,Hydro:Neg-10.00,0.045609457422843835
102,102,RUSR970101,0.045520084145094675
177,177,blosum75,0.044849096368571484
450,450,Inter-Acc:Hydro-10.00,0.044664529674684594
977,977,ATP_Inter-Neg:Neut-5.00,0.04465159875268809
34,34,HENS920103,0.04408996241004104
179,179,blosum85,0.044046229890088995
597,597,ATP_Hydro,0.04372339198244157
81,81,MUET020102,0.043421953457563944
67,67,MIRL960101,0.043389710195566256
25,25,FEND850101,0.04334245403737569
29,29,GODA950101,0.04280877693881502
411,411,Acc:Pos-3.00,0.04271836349454938
145,145,WeakPolar,0.04254595878258405
576,576,ATP_WeakHbond,0.04227108434776605
112,112,SKOJ970101,0.04205418903917657
272,272,Aro:Aro-8.00,0.04196003619145561
249,249,Aro:Pos-9.00,0.04122178741268412
601,601,ATP_Neut,0.04038295446958129
178,178,blosum80,0.04011445348753906
21,21,DOSZ010101,0.039871652133206315
470,470,Inter-Acc:Aro-9.00,0.03967991607965837
501,501,Inter-Don:Hydro-8.00,0.03945708535349879
283,283,Hydro:Hydro-8.00,0.039321162957855815
204,204,Hydro,0.03929864261625493
308,308,Don:Neg-7.00,0.039243451491053793
133,133,ddg_mcsm,0.03921831905080486
142,142,WeakHbond,0.03913019555330699
97,97,QU_C930102,0.03906298333894398
70,70,MIYS930101,0.03898224411383078
1,1,AZAE970101,0.03860673064839437
127,127,ZHAC000105,0.038282192094643896
24,24,DOSZ010104,0.0379729182018127
15,15,BONM030106,0.037911448685848725
435,435,Aro:Don-2.00,0.03766543938627276
31,31,GRAR740104,0.03759748856674694
723,723,ATP_Aro:Neg-6.00,0.037361467925633995
498,498,Inter-Aro:Neg-8.00,0.0373310259028381
974,974,ATP_Inter-Don:Pos-5.00,0.03725203074341343
114,114,TANS760102,0.03702521071246334
765,765,ATP_Neg:Pos-5.00,0.03685511634859662
85,85,NIEK910102,0.036814348787695295
533,533,Inter-Don:Hydro-6.00,0.03665167433335936
958,958,ATP_Inter-Neg:Neut-6.00,0.03630772494409973
172,172,blosum55,0.036210672646698416
384,384,Aro:Aro-4.00,0.03583881550147483
128,128,ZHAC000106,0.03580859628016375
648,648,ATP_Hydro:Hydro-9.00,0.03562731051697465
41,41,KESO980101,0.03546400338162181
399,399,Neg:Neg-4.00,0.03510569454617363
599,599,ATP_Don,0.03476465494627856
364,364,Don:Neg-5.00,0.03446964166809563
454,454,Inter-Aro:Aro-10.00,0.03437609730802382
519,519,Inter-Hydro:Hydro-7.00,0.03339910960949566
174,174,blosum62,0.0333860579773404
137,137,Dynamut2,0.0332029697957954
405,405,Acc:Acc-3.00,0.0326336622408534
162,162,Kinact,0.032370996381742234
735,735,ATP_Neg:Neg-6.00,0.03203994904879037
35,35,HENS920104,0.032034695358621246
481,481,Inter-Don:Hydro-9.00,0.031724514257288616
311,311,Hydro:Hydro-7.00,0.031690607770421764
999,999,ATP_Inter-Acc:Pos-3.00,0.03154991979243715
550,550,Inter-Hydro:Hydro-5.00,0.030520547825016342
141,141,Hbond,0.030215796776265513
74,74,MIYS990106,0.030012044305804952
992,992,ATP_Inter-Don:Pos-4.00,0.029752729452287685
447,447,Inter-Acc:Acc-10.00,0.029292171316987137
173,173,blosum60,0.02893073642640731
598,598,ATP_Acc,0.028622522157603525
523,523,Inter-Neut:Pos-7.00,0.028250189025065264
383,383,Acc:Pos-4.00,0.027783109095262937
554,554,Inter-Acc:Aro-4.00,0.02764596550674292
287,287,Neg:Neg-8.00,0.027631839004688796
338,338,Don:Pos-6.00,0.027582502780969076
800,800,ATP_Acc:Neg-3.00,0.027325721862442087
495,495,Inter-Aro:Aro-8.00,0.027314311028238558
581,581,ATP_Carbon-PI,0.026582582829465018
68,68,MIYS850102,0.025977292026372556
350,350,Acc:Aro-5.00,0.025602128078051845
406,406,Acc:Aro-3.00,0.025462442955444864
218,218,Aro:Hydro-10.00,0.024722861225029646
60,60,LUTR910109,0.02430489179354467
211,211,Acc:Don-10.00,0.024303844298138255
340,340,Hydro:Neg-6.00,0.02411282419931604
707,707,ATP_Neg:Neg-7.00,0.023620437549664253
517,517,Inter-Don:Hydro-7.00,0.023294079930088474
8,8,BETM990101,0.023266524773772
69,69,MIYS850103,0.023149598934757876
176,176,blosum70,0.02289730289346137
13,13,BONM030104,0.02286726117907456
83,83,NGPC000101,0.022485352242823442
484,484,Inter-Hydro:Neg-9.00,0.022460800370752265
526,526,Inter-Acc:Don-6.00,0.022122873267114596
14,14,BONM030105,0.021757057738768015
356,356,Aro:Aro-5.00,0.02143607989456342
763,763,ATP_Neg:Neg-5.00,0.021272645562515624
54,54,LUTR910103,0.021265399948401598
92,92,PARB960102,0.02114389289938856
596,596,ATP_mCSM_lig,0.021140350131410468
330,330,Aro:Hydro-6.00,0.021043333763415717
224,224,Don:Neg-10.00,0.0207603473842628
606,606,ATP_Acc:Neg-10.00,0.02037718981754999
169,169,blosum40,0.020161956913931967
558,558,Inter-Aro:Don-4.00,0.019750143583975532
679,679,ATP_Neg:Neg-8.00,0.019361616964366668
171,171,blosum50,0.01924770609731663
19,19,DAYM780301,0.019163788296337803
115,115,THOP960101,0.01904243575294684
148,148,Amide-Ring,0.01902079905627896
312,312,Hydro:Neg-7.00,0.018895709189321153
205,205,Acc,0.018671585391206724
575,575,ATP_Hbond,0.018627109153600774
116,116,TOBD000101,0.018597326197467012
44,44,KOLA930101,0.01858403496890393
490,490,Inter-Acc:Aro-8.00,0.018164513142377103
453,453,Inter-Acc:Pos-10.00,0.017874567453813217
27,27,GEOD900101,0.017818313498833227
773,773,ATP_Acc:Neg-4.00,0.017775690220805274
300,300,Aro:Aro-7.00,0.017553285161767906
540,540,Inter-Acc:Acc-5.00,0.017408455920091548
274,274,Aro:Hydro-8.00,0.016725920367806957
241,241,Acc:Neg-9.00,0.016704235541680656
89,89,OVEJ920102,0.016326513092584705
432,432,Acc:Aro-2.00,0.016317011229276535
469,469,Inter-Acc:Acc-9.00,0.0161474274959732
358,358,Aro:Hydro-5.00,0.015920839831515377
463,463,Inter-Hydro:Hydro-10.00,0.015783759214116788
156,156,d_WeakPolar,0.015296065120722346
63,63,MEHP950101,0.015036447599845015
5,5,BENS940102,0.015034658839923054
206,206,Don,0.014746042569673268
26,26,FITW660101,0.014559433124016419
49,49,LEVJ860101,0.014543871555688703
165,165,mCSM_stability,0.014323170084947545
392,392,Don:Neg-4.00,0.014261128831310366
87,87,OVEJ920100_RSA,0.014166321306993801
480,480,Inter-Don:Don-9.00,0.013359107385482183
75,75,MIYS990107,0.013179081737465292
180,180,blosum90,0.011920277072066554
527,527,Inter-Acc:Hydro-6.00,0.011558405422851692
500,500,Inter-Don:Don-8.00,0.010920360695149567
542,542,Inter-Acc:Don-5.00,0.01034140220166968
246,246,Aro:Hydro-9.00,0.009298703298464606
395,395,Hydro:Hydro-4.00,0.009191777836557335
266,266,Acc:Aro-8.00,0.007679301856718279
91,91,PARB960101,0.007438731291347533
82,82,NAOD960101,0.007288459772344602
149,149,d_VDWClash,0.00672819485986631
503,503,Inter-Hydro:Hydro-8.00,0.004665441219219524
38,38,JOND940101,0.00405893883519548
146,146,Carbon-PI,0.003986058356062472
412,412,Aro:Aro-3.00,0.0038230215500933973
508,508,Inter-Acc:Acc-7.00,0.003563829768583382
150,150,d_VDW,0.003478396184157795
23,23,DOSZ010103,0.002558391514648317
555,555,Inter-Acc:Don-4.00,0.0024561040453023875
88,88,OVEJ920101,0.0019687143794260287
548,548,Inter-Don:Hydro-5.00,0.0012216403006710674
510,510,Inter-Acc:Don-7.00,0.00031734331491595213
43,43,KOLA920101,0.0
30,30,GONG920101,0.0
373,373,Neg:Pos-5.00,0.0
33,33,HENS920102,0.0
345,345,Neg:Pos-6.00,0.0
329,329,Aro:Don-6.00,0.0
414,414,Aro:Hydro-3.00,0.0
40,40,KAPO950101,0.0
20,20,DAYM780302,0.0
401,401,Neg:Pos-4.00,0.0
17,17,CROG050101,0.0
37,37,JOND920103,0.0
385,385,Aro:Don-4.00,0.0
428,428,Neg:Pos-3.00,0.0
2,2,AZAE970102,0.0
32,32,HENS920101,0.0
184,184,pam250,0.0
45,45,KOSJ950100_RSA_SST,0.0
269,269,Acc:Neg-8.00,0.0
245,245,Aro:Don-9.00,0.0
779,779,ATP_Aro:Neg-4.00,0.0
624,624,ATP_Neg:Neg-10.00,0.0
791,791,ATP_Neg:Neg-4.00,0.0
136,136,dds_encom,0.0
135,135,ddg_duet,0.0
587,587,ATP_d_WeakHbond,0.0
325,325,Acc:Neg-6.00,0.0
132,132,ddg_encom,0.0
273,273,Aro:Don-8.00,0.0
585,585,ATP_d_VDW,0.0
806,806,ATP_Aro:Neg-3.00,0.0
818,818,ATP_Neg:Neg-3.00,0.0
820,820,ATP_Neg:Pos-3.00,0.0
147,147,PI-PI,0.0
238,238,Acc:Aro-9.00,0.0
231,231,Neg:Neg-10.00,0.0
152,152,d_Hbond,0.0
153,153,d_WeakHbond,0.0
652,652,ATP_Neg:Neg-9.00,0.0
217,217,Aro:Don-10.00,0.0
157,157,d_PI-PI,0.0
158,158,d_Amide-Ring,0.0
166,166,blosum100,0.0
170,170,blosum45,0.0
188,188,pam90,0.0
187,187,pam60,0.0
175,175,blosum65,0.0
186,186,pam300,0.0
185,185,pam30,0.0
182,182,pam120,0.0
553,553,Inter-Neut:Pos-5.00,0.0
122,122,WEIL970102,0.0
121,121,WEIL970101,0.0
491,491,Inter-Acc:Don-8.00,0.0
46,46,KOSJ950100_SST,0.0
449,449,Inter-Acc:Don-10.00,0.0
52,52,LUTR910101,0.0
322,322,Acc:Aro-6.00,0.0
56,56,LUTR910105,0.0
58,58,LUTR910107,0.0
459,459,Inter-Aro:Pos-10.00,0.0
460,460,Inter-Don:Don-10.00,0.0
61,61,MCLA710101,0.0
62,62,MCLA720101,0.0
317,317,Neg:Pos-7.00,0.0
471,471,Inter-Acc:Don-9.00,0.0
483,483,Inter-Hydro:Hydro-9.00,0.0
73,73,MIYS960103,0.0
79,79,MUET010101,0.0
120,120,VOGG950101,0.0
86,86,OGAK980101,0.0
302,302,Aro:Hydro-7.00,0.0
90,90,OVEJ920103,0.0
183,183,pam180,0.0
98,98,QU_C930103,0.0
511,511,Inter-Acc:Hydro-7.00,0.0
301,301,Aro:Don-7.00,0.0
516,516,Inter-Don:Don-7.00,0.0
101,101,ROBB790102,0.0
297,297,Acc:Neg-7.00,0.0
524,524,Inter-Acc:Acc-6.00,0.0
108,108,SIMK990104,0.0
532,532,Inter-Don:Don-6.00,0.0
113,113,TANS760101,0.0
0,0,ALTS910101,0.0
