pdb_lig_mut,Substructure,VDWClash,VDW,Proximal,Hbond,WeakHbond,Aromatic,Hydrophobic,Carbonyl,Polar,WeakPolar,Carbon-PI,Amide-Amide,PI-PI,Amide-Ring,MetalSulphur-PI,d_VDWClash,d_VDW,d_Proximal,d_Hbond,d_WeakHbond,d_Ionic,d_Aromatic,d_Hydrophobic,d_Carbonyl,d_Polar,d_WeakPolar,d_Amide-Amide,d_PI-PI,d_MetalSulphur-PI,d_Amide-Ring,d_Carbon-PI,ATP_VDWClash,ATP_VDW,ATP_Proximal,ATP_Hbond,ATP_WeakHbond,ATP_Aromatic,ATP_Hydrophobic,ATP_Polar,ATP_WeakPolar,ATP_Carbon-PI,ATP_Amide-Amide,ATP_PI-PI,ATP_Amide-Ring,ATP_Donor-PI,ATP_MetalSulphur-PI,ATP_d_VDWClash,ATP_d_VDW,ATP_d_Proximal,ATP_d_Hbond,ATP_d_WeakHbond,ATP_d_Ionic,ATP_d_Aromatic,ATP_d_Hydrophobic,ATP_d_Polar,ATP_d_WeakPolar,ATP_d_Donor-PI,ATP_d_PI-PI,ATP_d_MetalSulphur-PI,ATP_d_Amide-Ring,ATP_d_Carbon-PI,Deformation,Fluctuation,ddg_dynamut,ddg_encom,ddg_mcsm,ddg_sdm,ddg_duet,dds_encom,Dynamut2,ResDepth,RSA,mCSM_lig,mCSM_stability
4wa9_AXI_M244V,others,0,0,50,0,2,0,13,0,0,0,1,0,0,0,1,0,0,29,0,2,0,0,11,0,0,0,0,0,1,0,0,0,0,37,0,1,0,11,0,0,2,0,0,0,0,2,0,0,15,0,1,0,0,9,0,0,0,0,2,0,2,16.057,0.1083704,0.157,-0.269,-1.157,1.23,-0.342,0.336,-0.82,1.8184585681,28.5,0,-1.157
4wa9_AXI_L248R,Chelix,3,1,100,2,0,0,17,0,3,0,5,0,10,1,0,-44,-6,-29,1,0,0,0,6,0,-1,0,0,0,0,0,-2,1,0,89,1,0,0,7,1,1,2,0,2,1,0,0,0,0,24,0,0,0,0,6,-1,1,0,0,0,1,0,12.09239,0.08009548,0.397,0.034,-0.913,-0.73,-0.742,-0.043,-0.21,2.8306216913,5.6,-1.317,-0.913
4wa9_AXI_L248V,Chelix,3,1,100,2,0,0,17,0,3,0,5,0,10,1,0,-2,1,32,0,-2,0,0,7,0,0,-1,0,0,0,1,1,1,0,89,1,0,0,7,1,1,2,0,2,1,0,0,-2,-1,36,0,-1,0,0,5,0,-1,0,0,0,1,0,12.09239,0.08009548,-0.644,-0.358,-1.244,-0.24,-1.063,0.448,-1.14,2.8306216913,5.6,0.115,-1.244
4wa9_AXI_G250E,Chelix,1,2,14,0,0,0,0,0,1,0,1,0,6,0,0,1,-1,0,0,0,0,0,0,0,0,0,0,6,0,0,0,1,0,40,0,0,0,0,0,2,1,0,0,0,0,0,-2,-2,-37,-1,-2,-1,0,-3,-1,1,0,0,0,0,1,4.448238,0.1301729,-1.052,-0.05,-0.557,-3.27,-0.8,0.063,0.04,1.4910603484,183.1,0.175,-0.557
4wa9_AXI_Q252H,Gloop,3,2,107,3,2,7,20,0,3,2,5,0,8,1,0,-1,0,9,2,2,0,-13,-14,0,1,2,0,-2,0,0,0,3,1,121,1,3,0,9,3,3,2,0,0,0,0,0,3,-3,7,0,-1,0,0,-10,1,2,0,0,0,0,-1,10.17115,0.1090767,0.729,0.237,-0.396,1,-0.027,-0.297,-0.43,1.6578070472,44.6,-1.123,-0.396
4wa9_AXI_Y253F,Gloop,3,2,107,3,2,7,20,0,3,2,5,0,8,1,0,1,-5,30,2,1,0,-11,16,0,1,-3,0,-2,0,0,0,3,1,121,1,3,0,9,3,3,2,0,0,0,0,0,3,-2,17,-1,-2,-1,0,5,-1,1,0,0,0,0,-1,17.67094,0.07445152,0.543,-0.015,-0.623,0.39,-0.291,0.019,-0.75,2.5159820979,3.9,0.105,-0.623
4wa9_AXI_Y253H,Gloop,3,0,67,2,2,0,1,0,2,1,2,0,6,0,0,3,-1,-9,1,0,1,0,0,0,1,1,0,0,0,0,0,2,2,90,3,2,0,2,5,2,2,0,0,0,0,0,1,2,6,0,0,1,0,-1,2,1,0,0,0,0,0,17.67094,0.07445152,-0.179,-0.471,-0.269,0.07,-0.065,0.588,0.17,2.5159820979,3.9,-1.112,-0.269
4wa9_AXI_E255K,Gloop,3,0,67,2,2,0,1,0,2,1,2,0,6,0,0,0,-1,14,0,0,1,0,-2,0,1,-1,0,0,0,0,0,2,2,90,3,2,0,2,5,2,2,0,0,0,0,0,-1,1,6,0,1,1,0,-2,2,0,0,0,0,0,0,22.32352,0.09066566,0.711,0.22,-0.35,-0.57,-0.157,-0.274,-0.07,1.7596993221,25.5,-1.353,-0.35
4wa9_AXI_E255V,Gloop,2,1,50,2,1,0,1,0,4,2,2,0,0,0,0,0,-1,0,-1,-1,0,0,0,0,0,0,-1,0,0,0,1,2,0,39,2,1,0,1,4,0,0,0,2,0,0,1,1,-1,3,0,0,0,0,0,0,0,0,0,0,0,0,22.32352,0.09066566,-0.131,-0.309,-0.164,1.03,0.271,0.386,-0.18,1.7596993221,25.5,-0.968,-0.164
4wa9_AXI_D276G,others,1,0,71,1,1,0,5,0,1,0,2,0,8,2,0,-1,-1,-12,0,0,0,0,-11,0,0,0,0,6,0,2,0,1,2,82,1,2,0,9,1,2,1,0,2,1,0,0,-3,0,-5,0,-1,0,0,-4,0,-2,0,0,0,0,0,7.15491,0.3935218,-0.339,-0.09,0.003,0.59,0.381,0.113,0.44,1.5394559953,107.1,0,0.003
4wa9_AXI_E279K,others,2,1,83,2,4,0,2,1,2,2,4,0,6,1,0,0,0,23,0,2,0,0,1,0,0,0,0,0,0,1,3,2,1,89,2,2,0,2,4,2,0,0,2,1,0,0,0,0,24,0,1,0,0,1,2,-1,0,0,0,1,0,35.13489,0.3354318,-0.085,0.008,0.034,-0.27,0.256,-0.01,0.22,1.8090715594,64.5,-0.45,0.034
4wa9_AXI_E292L,others,2,1,83,2,4,0,2,1,2,2,4,0,6,1,0,-2,0,-11,0,3,0,0,-10,0,0,0,0,0,0,1,0,2,1,89,2,2,0,2,4,2,0,0,2,1,0,0,-1,-1,-6,0,1,0,0,-5,2,-1,0,0,0,1,0,11.08161,0.05927358,0.383,-0.396,0.574,-1.15,0.613,0.495,0.29,1.7156827838,58.5,-0.053,0.574
4wa9_AXI_V299L,others,2,1,83,2,4,0,2,1,2,2,4,0,6,1,0,-1,0,-1,0,2,0,0,-5,0,0,0,0,0,0,1,2,2,1,89,2,2,0,2,4,2,0,0,2,1,0,0,0,-2,5,0,0,0,0,-3,2,-1,0,0,0,1,0,17.28389,0.02489762,0.779,0.246,-0.922,-0.09,-0.657,-0.308,-0.75,5.5111116365,0,0.276,-0.922
4wa9_AXI_T315A,Gatekeeper,2,3,104,3,3,0,14,0,6,2,6,0,0,0,0,-2,1,12,0,0,0,0,12,0,0,-1,0,0,0,0,4,4,5,108,2,5,0,14,5,3,2,0,2,1,1,0,1,1,15,0,2,0,0,12,0,-1,0,2,0,0,0,13.50646,0.01679734,-0.263,-0.091,-1.12,0.33,-0.798,0.113,-1.73,5.8847687564,0,1.321,-1.12
4wa9_AXI_T315I,Gatekeeper,3,2,117,2,3,0,22,0,6,2,4,1,4,2,2,-5,-1,13,0,1,0,0,15,0,1,-4,-1,0,2,1,1,4,2,126,3,3,0,25,6,2,7,1,6,2,1,2,-5,-2,29,1,2,0,0,18,0,-6,0,4,2,2,6,13.50646,0.01679734,1.319,0.344,-0.107,1.91,0.66,-0.431,-0.04,5.8847687564,0,1.988,-0.107
4wa9_AXI_T315V,Gatekeeper,2,2,135,1,3,0,23,1,2,2,6,0,0,0,0,-1,0,47,0,0,0,0,12,0,0,0,0,0,0,0,6,2,3,121,1,1,2,22,2,1,2,0,2,0,1,0,-2,2,52,0,-1,0,2,12,0,-2,1,2,0,0,1,13.50646,0.01679734,1.561,0.234,-0.414,2.44,0.475,-0.293,-0.36,5.8847687564,0,1.992,-0.414
4wa9_AXI_F317L,Gatekeeper,2,2,135,1,3,0,23,1,2,2,6,0,0,0,0,0,-4,63,0,3,0,0,16,0,0,-1,0,0,0,0,5,2,3,121,1,1,2,22,2,1,2,0,2,0,1,0,0,2,63,0,-1,0,2,17,0,-1,1,2,0,0,1,29.89849,0.03775582,-0.701,-0.185,-1.037,-0.11,-0.932,0.231,-1.53,2.1403592493,18,-0.057,-1.037
4wa9_AXI_F317R,Gatekeeper,2,1,95,1,1,0,10,0,1,2,2,0,0,1,1,0,0,-5,0,-1,0,0,-6,0,0,0,0,0,-1,0,0,4,3,93,3,1,0,15,3,1,3,0,2,0,1,0,2,1,1,1,-3,0,0,6,0,-1,0,0,0,0,1,29.89849,0.03775582,-0.207,-0.185,-0.069,-0.53,-0.141,0.231,0.36,2.1403592493,18,-1.262,-0.069
4wa9_AXI_F317V,Gatekeeper,2,0,32,1,0,0,0,0,2,2,1,0,0,0,0,1,-1,7,-4,-1,-5,0,0,0,-1,1,0,0,0,0,1,1,1,36,1,0,0,1,2,0,0,1,0,0,0,0,0,0,7,0,0,0,0,0,1,0,0,0,0,0,0,29.89849,0.03775582,-0.236,-0.213,-1.301,0.67,-1.07,0.267,-1.25,2.1403592493,18,-0.182,-1.301
4wa9_AXI_M343T,others,3,2,177,3,1,1,35,0,5,1,3,1,2,2,2,1,0,84,-1,0,0,1,35,0,0,-1,1,2,2,1,3,3,2,173,3,2,1,35,5,1,4,1,2,1,0,2,1,0,78,-1,2,0,1,35,1,0,0,2,2,0,4,7.433763,0.02008809,-1.798,-0.485,-2.234,-3.37,-2.38,0.606,-2.04,4.9175049622,0,0,-2.234
4wa9_AXI_M351T,others,0,0,48,0,0,0,12,0,0,0,1,0,0,0,2,-1,0,27,0,0,0,0,8,0,0,0,0,0,2,0,1,0,0,37,0,1,0,11,0,0,2,0,0,0,0,2,0,0,15,0,1,0,0,9,0,0,0,0,2,0,2,3.188005,0.01539874,-0.568,-0.494,-1.642,-2.46,-1.627,0.617,-1.72,5.8180460707,0,0,-1.642
4wa9_AXI_F359I,others,1,0,93,1,2,0,7,0,2,2,2,0,4,1,0,-9,-1,-45,-1,0,0,0,7,0,-2,0,0,0,0,1,1,1,0,89,1,0,0,7,1,1,2,0,2,1,0,0,0,0,24,0,0,0,0,6,-1,1,0,0,0,1,0,5.743315,0.02454344,-0.138,-0.591,-1.05,0.43,-0.865,0.739,-2.23,2.922280902,1.2,0,-1.05
4wa9_AXI_F359V,others,1,0,93,1,2,0,7,0,2,2,2,0,4,1,0,-3,-1,39,0,1,0,0,3,0,0,-1,0,0,0,1,2,1,0,89,1,0,0,7,1,1,2,0,2,1,0,0,-2,-1,36,0,-1,0,0,5,0,-1,0,0,0,1,0,5.743315,0.02454344,-1.09,-0.566,-1.564,-1.65,-1.79,0.708,-1.93,2.922280902,1.2,0,-1.564
4wa9_AXI_L384M,Aloop,0,0,35,0,0,0,0,0,0,0,0,2,2,0,0,-3,-1,-22,0,-1,-1,0,-3,0,0,-1,-2,2,0,0,0,1,0,40,0,0,0,0,0,2,1,0,0,0,0,0,-2,-2,-37,-1,-2,-1,0,-3,-1,1,0,0,0,0,1,14.73769,0.0229849,0.316,0.019,-0.811,-0.99,-0.85,-0.023,-0.28,3.1166852603,0.1,-0.516,-0.811
4wa9_AXI_H396R,Aloop,3,0,67,0,1,4,7,0,0,3,0,2,6,0,0,1,-1,7,0,-1,0,1,0,0,0,0,-1,4,0,0,0,3,1,121,1,3,0,9,3,3,2,0,0,0,0,0,3,-3,7,0,-1,0,0,-10,1,2,0,0,0,0,-1,19.77861,0.128798,-0.239,-0.045,-0.321,-0.11,-0.238,0.057,0,1.6196323911,92.7,0,-0.321
4wa9_AXI_F486S,others,5,1,103,3,4,0,2,1,4,4,0,2,0,0,0,2,1,-4,1,2,1,0,-3,0,2,3,0,0,0,0,0,2,2,90,3,2,0,2,5,2,2,0,0,0,0,0,1,2,6,0,0,1,0,-1,2,1,0,0,0,0,0,4.775933,0.01220938,-3.381,-1.116,-3.139,-3.38,-3.336,1.395,-3.34,5.1109002828,0,0,-3.139
3ue4_DB8_M244V,others,5,1,103,3,4,0,2,1,4,4,0,2,0,0,0,3,1,11,1,1,1,0,-4,1,2,1,0,0,0,0,0,2,2,90,3,2,0,2,5,2,2,0,0,0,0,0,-1,1,6,0,1,1,0,-2,2,0,0,0,0,0,0,18.28301,0.1304075,-0.243,-0.542,-1.025,1.39,-0.169,0.677,-0.74,1.8486725027,29.5,-0.942,-1.025
3ue4_DB8_L248R,Chelix,1,2,85,1,3,0,4,0,2,2,4,0,6,1,0,-1,0,-12,0,1,0,0,-9,0,-1,1,0,2,0,0,0,1,2,82,1,2,0,9,1,2,1,0,2,1,0,0,-3,0,-5,0,-1,0,0,-4,0,-2,0,0,0,0,0,9.875347,0.1440437,1.252,0.555,-0.151,-0.62,0.148,-0.693,0.25,2.2995971674,12.9,-2.623,-0.151
3ue4_DB8_L248V,Chelix,4,1,97,3,5,0,3,0,3,2,2,0,6,1,0,3,0,31,1,4,0,0,2,0,1,-1,0,2,0,1,1,2,1,89,2,2,0,2,4,2,0,0,2,1,0,0,0,0,24,0,1,0,0,1,2,-1,0,0,0,1,0,9.875347,0.1440437,-0.108,-0.176,-0.614,0.84,-0.005,0.22,0.46,2.2995971674,12.9,-0.693,-0.614
3ue4_DB8_G250E,Chelix,4,1,97,3,5,0,3,0,3,2,2,0,6,1,0,-6,0,-13,1,1,0,0,-9,0,1,0,0,2,0,0,0,2,1,89,2,2,0,2,4,2,0,0,2,1,0,0,-1,-1,-6,0,1,0,0,-5,2,-1,0,0,0,1,0,12.9358,0.1595601,-0.412,0.207,-0.682,-3.79,-1.057,-0.258,0.03,1.8398490353,39.9,-0.077,-0.682
3ue4_DB8_Y253F,Gloop,3,1,123,2,2,0,24,0,5,2,2,1,4,1,2,-3,0,19,-2,1,0,0,20,0,-1,-3,0,0,2,1,-1,4,2,126,3,3,0,25,6,2,7,1,6,2,1,2,-5,-2,29,1,2,0,0,18,0,-6,0,4,2,2,6,21.68073,0.1403993,-0.681,-0.313,-0.632,0.47,-0.173,0.391,-0.35,1.9088126424,39.4,-0.211,-0.632
3ue4_DB8_E255K,Gloop,2,2,145,1,1,0,23,1,2,4,5,0,0,0,0,1,1,73,0,-1,0,0,21,0,0,3,0,0,0,0,4,2,3,121,1,1,2,22,2,1,2,0,2,0,1,0,0,2,67,0,0,0,2,19,0,0,1,2,0,0,0,13.4532,0.1117195,0.394,0.031,-1.028,-0.79,-0.827,-0.039,-1.1,2.4880176716,7.9,-1.579,-1.028
3ue4_DB8_E255V,Gloop,2,2,145,1,1,0,23,1,2,4,5,0,0,0,0,-1,1,49,0,-2,0,0,8,-1,0,0,0,0,0,0,4,2,3,121,1,1,2,22,2,1,2,0,2,0,1,0,-2,2,52,0,-1,0,2,12,0,-2,1,2,0,0,1,13.4532,0.1117195,0.279,-0.083,-0.281,1.1,0.289,0.103,-0.41,2.4880176716,7.9,-0.959,-0.281
3ue4_DB8_V299L,others,2,2,145,1,1,0,23,1,2,4,5,0,0,0,0,-1,-1,63,0,-2,0,0,14,-1,0,1,0,0,0,0,4,2,3,121,1,1,2,22,2,1,2,0,2,0,1,0,0,2,63,0,-1,0,2,17,0,-1,1,2,0,0,1,20.12694,0.02275371,0.737,0.254,-0.963,-0.05,-0.692,-0.317,-0.63,4.9644831823,0,-0.281,-0.963
3ue4_DB8_T315A,Gatekeeper,1,2,40,2,0,0,0,0,3,1,1,0,0,1,0,0,1,20,0,0,0,0,0,0,1,0,0,0,0,0,1,1,1,36,1,0,0,1,2,0,0,1,0,0,0,0,0,0,7,0,0,0,0,0,1,0,0,0,0,0,0,19.39787,0.01736117,-0.285,0.033,-1.136,0.03,-0.908,-0.042,-1.51,5.9600297417,0,0.085,-1.136
3ue4_DB8_T315I,Gatekeeper,1,0,55,0,1,0,13,0,0,1,4,0,0,0,2,0,0,11,0,1,0,0,9,0,0,1,0,0,2,0,1,0,0,37,0,1,0,11,0,0,2,0,0,0,0,2,0,0,15,0,1,0,0,9,0,0,0,0,2,0,2,19.39787,0.01736117,1.672,0.359,-0.16,1.21,0.453,-0.449,-0.15,5.9600297417,0,0.602,-0.16
3ue4_DB8_F317C,Gatekeeper,1,0,91,1,0,0,8,0,1,0,5,2,4,0,0,-8,-2,21,-1,-1,-1,0,2,0,0,-2,2,4,0,0,3,1,0,89,1,0,0,7,1,1,2,0,2,1,0,0,0,0,24,0,0,0,0,6,-1,1,0,0,0,1,0,33.07018,0.04069527,-0.091,-0.69,-0.598,-0.07,-0.463,0.863,0.73,2.2591612232,17.1,-0.837,-0.598
3ue4_DB8_F317I,Gatekeeper,1,0,91,1,0,0,8,0,1,0,5,2,4,0,0,-2,-2,38,0,-1,0,0,3,0,0,-1,2,0,0,0,2,1,0,89,1,0,0,7,1,1,2,0,2,1,0,0,-2,-1,36,0,-1,0,0,5,0,-1,0,0,0,1,0,33.07018,0.04069527,-0.557,-0.278,-1.057,0.54,-0.845,0.347,-1.65,2.2591612232,17.1,-1.011,-1.057
3ue4_DB8_F317L,Gatekeeper,0,0,13,0,0,0,0,0,0,0,0,0,0,0,0,-13,-1,-72,-2,-6,-2,0,-4,0,-3,-10,0,0,0,0,-1,1,0,40,0,0,0,0,0,2,1,0,0,0,0,0,-2,-2,-37,-1,-2,-1,0,-3,-1,1,0,0,0,0,1,33.07018,0.04069527,-0.34,-0.294,-1.057,-0.11,-0.953,0.368,-1.33,2.2591612232,17.1,-1.076,-1.057
3ue4_DB8_F317V,Gatekeeper,0,0,18,0,0,0,0,0,0,0,0,0,2,0,0,0,0,-3,0,0,0,0,0,0,-1,0,0,2,0,0,0,3,1,121,1,3,0,9,3,3,2,0,0,0,0,0,3,-3,7,0,-1,0,0,-10,1,2,0,0,0,0,-1,33.07018,0.04069527,-1.003,-0.518,-1.315,0.48,-1.117,0.648,-0.99,2.2591612232,17.1,-1.194,-1.315
3ue4_DB8_M351T,others,3,1,89,3,3,0,1,1,3,3,1,0,0,0,0,0,1,17,2,0,0,0,0,1,2,1,0,0,0,0,0,2,2,90,3,2,0,2,5,2,2,0,0,0,0,0,1,2,6,0,0,1,0,-1,2,1,0,0,0,0,0,5.791444,0.01221075,-1.986,-0.355,-1.58,-3.37,-1.718,0.443,-1.45,6.4536993789,0,0,-1.58
3ue4_DB8_E355A,others,3,1,89,3,3,0,1,1,3,3,1,0,0,0,0,-1,1,24,2,0,0,0,0,1,2,1,0,0,0,0,0,2,2,90,3,2,0,2,5,2,2,0,0,0,0,0,-1,1,6,0,1,1,0,-2,2,0,0,0,0,0,0,7.16693,0.0169708,-0.985,-0.725,-1.132,0.57,-0.732,0.906,-0.83,2.1965525327,13.7,0,-1.132
3ue4_DB8_F359C,others,4,0,91,1,3,0,9,0,3,1,4,2,4,0,0,-1,-3,-14,0,0,0,0,-6,0,0,-1,2,0,0,0,1,1,2,82,1,2,0,9,1,2,1,0,2,1,0,0,-3,0,-5,0,-1,0,0,-4,0,-2,0,0,0,0,0,9.594599,0.02104121,-1.043,-0.762,-1.616,-1.31,-1.736,0.953,-2.1,3.46017006,0,0,-1.616
3ue4_DB8_F359I,others,3,4,108,3,3,0,8,0,3,4,3,2,4,0,1,1,2,35,1,2,0,0,5,-1,1,1,0,0,1,0,2,2,1,89,2,2,0,2,4,2,0,0,2,1,0,0,0,0,24,0,1,0,0,1,2,-1,0,0,0,1,0,9.594599,0.02104121,-0.196,-0.563,-1.044,0.43,-0.859,0.704,-2.06,3.46017006,0,0,-1.044
3ue4_DB8_F359V,others,3,4,108,3,3,0,8,0,3,4,3,2,4,0,1,-6,0,-14,1,1,0,0,-15,-1,1,0,0,0,0,0,1,2,1,89,2,2,0,2,4,2,0,0,2,1,0,0,-1,-1,-6,0,1,0,0,-5,2,-1,0,0,0,1,0,9.594599,0.02104121,-1.253,-0.75,-1.564,-1.65,-1.79,0.938,-2,3.46017006,0,0,-1.564
3ue4_DB8_H396R,Aloop,3,3,125,2,3,0,24,0,4,2,3,0,4,1,1,-5,-1,20,0,1,0,0,17,0,0,-3,0,0,1,0,1,4,2,126,3,3,0,25,6,2,7,1,6,2,1,2,-5,-2,29,1,2,0,0,18,0,-6,0,4,2,2,6,21.0165,0.1977773,-0.228,-0.039,-0.115,-0.11,-0.033,0.049,0.04,1.6285113065,97.1,0,-0.115
3ue4_DB8_E459K,others,2,1,134,1,4,0,22,0,2,4,3,0,0,0,0,0,1,58,-1,-2,0,0,20,0,-1,3,0,0,0,0,3,2,3,121,1,1,2,22,2,1,2,0,2,0,1,0,0,2,67,0,0,0,2,19,0,0,1,2,0,0,0,25.12033,0.05350205,-0.289,-0.073,-0.292,-0.25,-0.018,0.091,-0.46,1.5396117959,86.4,0,-0.292
4xey_1N1_M244V,others,2,1,134,1,4,0,22,0,2,4,3,0,0,0,0,-2,1,31,0,1,0,0,4,-1,0,0,0,0,0,0,2,2,3,121,1,1,2,22,2,1,2,0,2,0,1,0,-2,2,52,0,-1,0,2,12,0,-2,1,2,0,0,1,10.37029,0.07673319,-0.507,-0.384,-1.276,0.73,-0.588,0.48,-0.66,2.8192499352,1.2,-1.089,-1.276
4xey_1N1_L248R,Chelix,2,1,134,1,4,0,22,0,2,4,3,0,0,0,0,1,0,48,0,-1,0,0,14,0,0,1,0,0,0,0,3,2,3,121,1,1,2,22,2,1,2,0,2,0,1,0,0,2,63,0,-1,0,2,17,0,-1,1,2,0,0,1,5.244029,0.1158771,0.605,0.885,-0.284,-0.8,-0.146,-1.106,0.45,2.4245619786,5.2,-1.487,-0.284
4xey_1N1_L248V,Chelix,0,2,39,0,1,0,0,0,2,2,1,0,0,1,0,-1,2,15,0,1,0,0,0,0,0,1,0,0,0,0,1,1,1,36,1,0,0,1,2,0,0,1,0,0,0,0,0,0,7,0,0,0,0,0,1,0,0,0,0,0,0,5.244029,0.1158771,0.343,-0.082,-0.761,0.54,-0.353,0.102,0.54,2.4245619786,5.2,-1.163,-0.761
4xey_1N1_G250E,Chelix,3,0,67,0,1,4,7,0,0,3,0,2,6,0,0,1,-1,7,0,-1,0,1,0,0,0,0,-1,4,0,0,0,3,1,121,1,3,0,9,3,3,2,0,0,0,0,0,3,-3,7,0,-1,0,0,-10,1,2,0,0,0,0,-1,6.363124,0.126469,0.429,0.284,-0.82,-0.51,-0.541,-0.354,-0.12,1.5426021042,111.1,-0.069,-0.82
4xey_1N1_Y253F,Gloop,5,1,103,3,4,0,2,1,4,4,0,2,2,0,0,2,1,-4,1,2,1,0,-3,0,2,3,0,2,0,0,0,2,2,90,3,2,0,2,5,2,2,0,0,0,0,0,1,2,6,0,0,1,0,-1,2,1,0,0,0,0,0,9.993498,0.1439446,0.901,0.427,-0.225,0.39,0.227,-0.533,-0.27,1.5566229476,99.9,0,-0.225
4xey_1N1_E255K,Gloop,2,0,95,3,3,0,8,0,3,1,3,0,4,1,1,-1,-1,-19,1,1,0,0,-10,0,1,-3,0,2,0,1,0,2,1,89,2,2,0,2,4,2,0,0,2,1,0,0,-1,-1,-6,0,1,0,0,-5,2,-1,0,0,0,1,0,6.156549,0.1028385,0.304,0.21,-0.435,-0.5,-0.233,-0.263,-0.13,1.8282821128,20.3,-1.007,-0.435
4xey_1N1_E255V,Gloop,3,1,123,2,2,0,24,0,5,2,2,1,4,1,2,-3,0,19,-2,1,0,0,20,0,-1,-3,0,0,2,1,-1,4,2,126,3,3,0,25,6,2,7,1,6,2,1,2,-5,-2,29,1,2,0,0,18,0,-6,0,4,2,2,6,6.156549,0.1028385,-0.896,-0.327,-0.419,0.97,-0.001,0.409,-0.51,1.8282821128,20.3,-0.629,-0.419
4xey_1N1_V299L,others,3,0,67,0,1,4,7,0,0,3,0,2,6,0,0,1,-1,13,0,0,0,4,3,0,0,1,0,0,0,0,0,3,1,121,1,3,0,9,3,3,2,0,0,0,0,0,3,-3,7,0,-1,0,0,-10,1,2,0,0,0,0,-1,11.79432,0.05384838,0.699,0.206,-0.951,-0.35,-0.752,-0.258,-0.5,4.7624699958,0,-0.719,-0.951
4xey_1N1_T315A,Gatekeeper,5,1,103,3,4,0,2,1,4,4,0,2,2,0,0,2,1,-4,1,2,1,0,-3,0,2,3,0,2,0,0,0,2,2,90,3,2,0,2,5,2,2,0,0,0,0,0,1,2,6,0,0,1,0,-1,2,1,0,0,0,0,0,9.545871,0.06620603,-0.033,-0.122,-1.303,-0.68,-1.313,0.152,-1.6,5.5398350407,0,-0.532,-1.303
4xey_1N1_T315I,Gatekeeper,3,1,123,2,2,0,24,0,5,2,2,1,4,1,2,-3,0,19,-2,1,0,0,20,0,-1,-3,0,0,2,1,-1,4,2,126,3,3,0,25,6,2,7,1,6,2,1,2,-5,-2,29,1,2,0,0,18,0,-6,0,4,2,2,6,9.545871,0.06620603,1.043,0.266,-0.34,1.65,0.377,-0.333,-0.52,5.5398350407,0,0.492,-0.34
4xey_1N1_F317C,Gatekeeper,0,0,41,0,0,0,11,0,0,0,1,0,0,0,1,0,0,23,0,0,0,0,11,0,0,0,0,0,1,0,0,0,0,37,0,1,0,11,0,0,2,0,0,0,0,2,0,0,15,0,1,0,0,9,0,0,0,0,2,0,2,10.9205,0.07838592,-0.017,-0.708,-0.539,-0.07,-0.404,0.885,0.65,2.2986723,11.6,-1.398,-0.539
4xey_1N1_F317I,Gatekeeper,4,0,99,1,2,0,17,1,4,0,4,0,4,1,0,2,-2,10,0,1,0,0,12,1,1,-1,0,0,0,1,2,1,0,89,1,0,0,7,1,1,2,0,2,1,0,0,0,0,24,0,0,0,0,6,-1,1,0,0,0,1,0,10.9205,0.07838592,-0.407,-0.159,-0.995,0.54,-0.782,0.198,-1.01,2.2986723,11.6,-2.317,-0.995
4xey_1N1_F317L,Gatekeeper,4,0,99,1,2,0,17,1,4,0,4,0,4,1,0,1,-1,22,0,0,0,0,6,1,1,-2,0,0,0,1,2,1,0,89,1,0,0,7,1,1,2,0,2,1,0,0,-2,-1,36,0,-1,0,0,5,0,-1,0,0,0,1,0,10.9205,0.07838592,-0.637,-0.148,-0.995,-0.11,-0.889,0.185,-0.97,2.2986723,11.6,-2.333,-0.995
4xey_1N1_F317V,Gatekeeper,2,0,27,0,0,0,0,1,1,0,1,0,0,0,0,1,-1,13,0,0,0,0,0,1,0,0,0,0,0,0,0,1,0,40,0,0,0,0,0,2,1,0,0,0,0,0,-2,-2,-37,-1,-2,-1,0,-3,-1,1,0,0,0,0,1,10.9205,0.07838592,-0.392,-0.345,-1.242,0.48,-1.043,0.432,-0.81,2.2986723,11.6,-2.467,-1.242
4xey_1N1_M351T,others,3,1,108,2,3,6,17,0,2,2,4,0,4,0,0,-2,-2,-1,2,1,0,-1,-16,0,1,0,0,0,0,0,0,3,1,121,1,3,0,9,3,3,2,0,0,0,0,0,3,-3,7,0,-1,0,0,-10,1,2,0,0,0,0,-1,2.030352,0.02029063,-0.849,-0.432,-1.476,-2.46,-1.454,0.54,-1.37,6.3384904016,0,0,-1.476
4xey_1N1_E355A,others,4,1,87,2,2,0,3,0,4,3,0,0,0,0,0,-3,1,-3,2,-1,1,0,-2,0,4,-2,0,0,0,0,0,2,2,90,3,2,0,2,5,2,2,0,0,0,0,0,1,2,6,0,0,1,0,-1,2,1,0,0,0,0,0,2.29995,0.04378231,-1.044,-0.734,-1.141,0.57,-0.742,0.918,-0.67,2.0486562593,14.6,0,-1.141
4xey_1N1_F359C,others,4,1,87,2,2,0,3,0,4,3,0,0,0,0,0,-3,-1,9,2,-2,1,0,-1,0,4,-4,0,0,0,0,0,2,2,90,3,2,0,2,5,2,2,0,0,0,0,0,-1,1,6,0,1,1,0,-2,2,0,0,0,0,0,0,3.362519,0.05127537,-1.265,-0.627,-1.699,-0.9,-1.751,0.783,-1.99,3.1162985666,2.3,0,-1.699
4xey_1N1_F359I,others,1,0,62,1,0,0,8,0,1,1,1,0,2,1,2,-3,-1,-12,0,-1,0,0,-6,0,-1,1,0,2,2,1,-1,1,2,82,1,2,0,9,1,2,1,0,2,1,0,0,-3,0,-5,0,-1,0,0,-4,0,-2,0,0,0,0,0,3.362519,0.05127537,-0.163,-0.455,-1.04,0.43,-0.855,0.568,-1.48,3.1162985666,2.3,0,-1.04
4xey_1N1_F359V,others,4,2,105,3,3,0,8,0,3,3,1,0,2,1,2,2,0,37,1,1,0,0,5,0,1,0,0,0,2,1,1,2,1,89,2,2,0,2,4,2,0,0,2,1,0,0,0,0,24,0,1,0,0,1,2,-1,0,0,0,1,0,3.362519,0.05127537,-1.466,-0.644,-1.568,-1.65,-1.795,0.805,-1.83,3.1162985666,2.3,0,-1.568
4xey_1N1_H396R,Aloop,4,2,105,3,3,0,8,0,3,3,1,0,2,1,2,-1,-4,-11,1,0,0,0,-13,0,1,-2,0,0,0,0,0,2,1,89,2,2,0,2,4,2,0,0,2,1,0,0,-1,-1,-6,0,1,0,0,-5,2,-1,0,0,0,1,0,7.588228,0.2093501,-0.075,0.001,-0.198,-0.11,-0.115,-0.001,0,1.6260943477,89.6,0,-0.198
4xey_1N1_E459K,others,5,2,123,2,3,0,24,0,6,3,2,1,2,1,2,-1,-1,19,0,3,0,0,17,0,-1,2,0,0,2,1,0,4,2,126,3,3,0,25,6,2,7,1,6,2,1,2,-5,-2,29,1,2,0,0,18,0,-6,0,4,2,2,6,4.744713,0.1444058,0.041,-0.037,-0.101,-0.36,0.159,0.046,-0.23,1.6749564328,79.7,0,-0.101
Erlo_Q252H,Gloop,1,1,90,1,1,0,13,0,2,0,1,0,0,0,0,0,1,41,-1,0,0,0,11,0,0,0,0,0,0,0,0,2,3,121,1,1,2,22,2,1,2,0,2,0,1,0,0,2,67,0,0,0,2,19,0,0,1,2,0,0,0,21.46561,0.1910259,-0.063,-0.737,-0.285,0.48,-0.032,0.921,-0.1,1.6343220075,46.1,-0.353,-0.285
Erlo_Y253F,Gloop,1,1,90,1,1,0,13,0,2,0,1,0,0,0,0,-2,1,28,0,0,0,0,5,-1,0,0,0,0,0,0,1,2,3,121,1,1,2,22,2,1,2,0,2,0,1,0,-2,2,52,0,-1,0,2,12,0,-2,1,2,0,0,1,21.68073,0.1403993,-0.147,-0.313,-0.632,0.47,-0.173,0.391,-0.35,1.9088126424,39.4,0.341,-0.632
Erlo_E255K,Gloop,1,1,90,1,1,0,13,0,2,0,1,0,0,0,0,-2,0,41,0,-1,0,0,9,0,0,0,0,0,0,0,1,2,3,121,1,1,2,22,2,1,2,0,2,0,1,0,0,2,63,0,-1,0,2,17,0,-1,1,2,0,0,1,13.4532,0.1117195,0.695,0.031,-1.028,-0.79,-0.827,-0.039,-1.1,2.4880176716,7.9,-1.317,-1.028
Erlo_T315I,Gatekeeper,5,4,91,2,0,4,5,2,5,2,3,0,4,0,0,3,0,11,0,0,0,4,0,1,1,0,0,4,0,0,3,1,1,36,1,0,0,1,2,0,0,1,0,0,0,0,0,0,7,0,0,0,0,0,1,0,0,0,0,0,0,19.39787,0.01736117,1.267,0.359,-0.16,1.21,0.453,-0.449,-0.15,5.5148803373,0.1,1.499,-0.16
Erlo_F317I,Gatekeeper,0,0,44,0,0,0,11,0,0,0,1,0,0,0,2,0,0,17,0,0,0,0,7,0,0,0,0,0,2,0,0,0,0,37,0,1,0,11,0,0,2,0,0,0,0,2,0,0,15,0,1,0,0,9,0,0,0,0,2,0,2,33.07018,0.04069527,-0.482,-0.278,-1.057,0.54,-0.845,0.347,-1.65,2.2514254892,21.5,-0.142,-1.057
Erlo_F317L,Gatekeeper,3,2,102,2,0,0,16,0,4,0,6,0,4,1,0,-11,0,-26,-2,-2,0,0,14,0,-2,-1,0,0,0,0,2,1,0,89,1,0,0,7,1,1,2,0,2,1,0,0,0,0,24,0,0,0,0,6,-1,1,0,0,0,1,0,33.07018,0.04069527,-0.405,-0.294,-1.057,-0.11,-0.953,0.368,-1.33,2.2514254892,21.5,-0.203,-1.057
Erlo_M351T,others,3,2,102,2,0,0,16,0,4,0,6,0,4,1,0,0,0,31,0,-1,0,0,9,0,1,-1,0,0,0,1,2,1,0,89,1,0,0,7,1,1,2,0,2,1,0,0,-2,-1,36,0,-1,0,0,5,0,-1,0,0,0,1,0,5.791444,0.01221075,-1.479,-0.355,-1.58,-3.37,-1.718,0.443,-1.45,6.4536993789,0,0,-1.58
Gef_Q252H,Gloop,1,1,17,0,0,0,0,0,1,0,1,0,0,0,0,-1,1,0,0,0,0,0,0,0,0,0,0,0,0,0,0,1,0,40,0,0,0,0,0,2,1,0,0,0,0,0,-2,-2,-37,-1,-2,-1,0,-3,-1,1,0,0,0,0,1,21.46561,0.1910259,-0.063,-0.737,-0.285,0.48,-0.032,0.921,-0.1,1.754720822,40.5,-0.832,-0.285
Gef_Y253F,Gloop,2,2,106,2,2,4,17,0,2,3,6,0,4,0,0,-4,1,3,2,1,0,0,-9,0,1,2,0,0,0,0,0,3,1,121,1,3,0,9,3,3,2,0,0,0,0,0,3,-3,7,0,-1,0,0,-10,1,2,0,0,0,0,-1,21.68073,0.1403993,-0.147,-0.313,-0.632,0.47,-0.173,0.391,-0.35,1.9584424264,39,-0.039,-0.632
Gef_E255K,Gloop,5,1,96,4,2,0,4,0,5,4,1,0,0,0,0,4,-1,21,2,-1,2,0,-1,0,3,2,0,0,0,0,0,2,2,90,3,2,0,2,5,2,2,0,0,0,0,0,1,2,6,0,0,1,0,-1,2,1,0,0,0,0,0,13.4532,0.1117195,0.695,0.031,-1.028,-0.79,-0.827,-0.039,-1.1,2.4880176716,7.9,-1.577,-1.028
Gef_F317I,others,5,1,96,4,2,0,4,0,5,4,1,0,0,0,0,4,0,28,3,0,3,0,-1,0,4,3,0,0,0,0,0,2,2,90,3,2,0,2,5,2,2,0,0,0,0,0,-1,1,6,0,1,1,0,-2,2,0,0,0,0,0,0,33.07018,0.04069527,-0.482,-0.278,-1.057,0.54,-0.845,0.347,-1.65,2.2585436119,20.9,-0.374,-1.057
Gef_F317L,others,1,1,65,1,2,0,10,0,1,1,4,0,2,1,2,-5,1,-12,0,-2,0,0,-3,0,0,-1,0,0,2,0,2,1,2,82,1,2,0,9,1,2,1,0,2,1,0,0,-3,0,-5,0,-1,0,0,-4,0,-2,0,0,0,0,0,33.07018,0.04069527,-0.405,-0.294,-1.057,-0.11,-0.953,0.368,-1.33,2.2585436119,20.9,-0.435,-1.057
Gef_M351T,others,7,1,99,3,3,0,8,1,3,3,3,0,2,1,2,3,1,29,1,2,0,0,5,0,1,0,0,0,2,1,3,2,1,89,2,2,0,2,4,2,0,0,2,1,0,0,0,0,24,0,1,0,0,1,2,-1,0,0,0,1,0,5.791444,0.01221075,-1.479,-0.355,-1.58,-3.37,-1.718,0.443,-1.45,6.4536993789,0,0,-1.58
1opj_STI_M244V,others,7,1,99,3,3,0,8,1,3,3,3,0,2,1,2,0,-1,-15,1,1,0,0,-13,0,1,-1,0,0,0,0,2,2,1,89,2,2,0,2,4,2,0,0,2,1,0,0,-1,-1,-6,0,1,0,0,-5,2,-1,0,0,0,1,0,14.26237,0.06482869,0.289,-0.311,-1.085,1.04,-0.312,0.389,-0.74,1.818668064,31.9,-0.808,-1.085
1opj_STI_L248R,Chelix,2,3,121,3,2,0,25,0,6,2,4,1,4,3,2,-7,0,23,1,1,0,0,18,0,1,-5,-1,2,2,3,2,4,2,126,3,3,0,25,6,2,7,1,6,2,1,2,-5,-2,29,1,2,0,0,18,0,-6,0,4,2,2,6,12.6605,0.04471078,0.403,0.21,-0.905,-0.81,-0.745,-0.262,-0.21,2.1140394012,3.9,-2.348,-0.905
1opj_STI_L248V,Chelix,2,2,86,1,0,1,18,0,2,0,3,0,2,0,0,0,2,38,0,-1,0,1,15,0,0,0,0,2,0,0,2,2,3,121,1,1,2,22,2,1,2,0,2,0,1,0,0,2,67,0,0,0,2,19,0,0,1,2,0,0,0,12.6605,0.04471078,-0.215,-0.211,-1.164,-0.24,-0.976,0.264,-1.24,2.1140394012,3.9,-1.589,-1.164
1opj_STI_G250E,Chelix,2,2,86,1,0,1,18,0,2,0,3,0,2,0,0,0,2,26,0,-1,0,1,12,0,0,0,0,2,0,0,2,2,3,121,1,1,2,22,2,1,2,0,2,0,1,0,-2,2,52,0,-1,0,2,12,0,-2,1,2,0,0,1,4.734005,0.05858455,-1.204,-0.073,-0.632,-2.58,-0.938,0.091,0.11,1.4910814106,192.2,0.105,-0.632
1opj_STI_Y253F,Gloop,2,2,86,1,0,1,18,0,2,0,3,0,2,0,0,0,1,29,0,-1,0,1,13,0,0,-1,0,2,0,0,2,2,3,121,1,1,2,22,2,1,2,0,2,0,1,0,0,2,63,0,-1,0,2,17,0,-1,1,2,0,0,1,15.14775,0.03116053,-0.749,-0.341,-0.604,0.16,-0.331,0.426,-0.43,2.1561906278,1,-1.072,-0.604
1opj_STI_E255K,Gloop,5,1,87,2,0,4,4,1,5,0,3,0,4,0,0,4,-1,37,0,0,0,4,-1,0,1,0,0,4,0,0,3,1,1,36,1,0,0,1,2,0,0,1,0,0,0,0,0,0,7,0,0,0,0,0,1,0,0,0,0,0,0,16.80844,0.04477886,-0.179,-0.484,-0.808,-0.3,-0.59,0.605,-0.44,1.9127579849,14.8,-1.162,-0.808
1opj_STI_E255V,Gloop,0,0,46,0,1,0,11,0,0,0,1,0,0,0,2,0,0,16,0,1,0,0,7,0,0,0,0,0,2,0,0,0,0,37,0,1,0,11,0,0,2,0,0,0,0,2,0,0,15,0,1,0,0,9,0,0,0,0,2,0,2,16.80844,0.04477886,-0.073,-0.338,-0.142,0.66,0.212,0.422,-0.26,1.9127579849,14.8,-0.669,-0.142
1opj_STI_V299L,others,1,1,106,2,1,0,9,0,3,1,5,0,12,1,0,0,-1,16,0,0,-1,0,3,0,1,0,0,6,0,0,1,1,0,89,1,0,0,7,1,1,2,0,2,1,0,0,0,0,24,0,0,0,0,6,-1,1,0,0,0,1,0,15.85091,0.02225299,0.163,0.202,-0.89,-0.09,-0.623,-0.253,-0.73,2.2025887803,0,-1.955,-0.89
1opj_STI_T315A,Gatekeeper,1,1,106,2,1,0,9,0,3,1,5,0,12,1,0,-1,0,35,0,-1,0,0,0,0,1,-1,0,6,0,1,1,1,0,89,1,0,0,7,1,1,2,0,2,1,0,0,-2,-1,36,0,-1,0,0,5,0,-1,0,0,0,1,0,11.64667,0.02188889,0.241,-0.17,-1.096,0.33,-0.772,0.212,-1.2,2.3221915378,0,-1.489,-1.096
1opj_STI_T315I,Gatekeeper,0,0,17,0,0,0,0,0,1,0,1,0,0,0,0,0,-1,-2,0,0,0,0,0,0,0,0,0,0,0,0,0,1,0,40,0,0,0,0,0,2,1,0,0,0,0,0,-2,-2,-37,-1,-2,-1,0,-3,-1,1,0,0,0,0,1,11.64667,0.02188889,1.295,0.223,-0.158,1.91,0.611,-0.279,-0.12,2.3221915378,0,-0.934,-0.158
1opj_STI_F317C,Gatekeeper,2,1,125,2,2,9,15,0,3,3,5,0,8,0,0,-1,0,4,2,1,0,-8,-10,0,2,1,0,0,0,0,0,3,1,121,1,3,0,9,3,3,2,0,0,0,0,0,3,-3,7,0,-1,0,0,-10,1,2,0,0,0,0,-1,26.77962,0.04169957,0.242,-0.496,-0.562,-0.07,-0.427,0.621,0.83,1.7638648118,26.2,-0.973,-0.562
1opj_STI_F317I,Gatekeeper,3,2,88,4,2,0,3,0,4,2,3,0,2,0,0,3,0,-5,3,1,2,0,-4,0,3,1,0,2,0,0,2,2,2,90,3,2,0,2,5,2,2,0,0,0,0,0,1,2,6,0,0,1,0,-1,2,1,0,0,0,0,0,26.77962,0.04169957,0.366,-0.034,-0.923,0.54,-0.709,0.043,-1.11,1.7638648118,26.2,-1.297,-0.923
1opj_STI_F317L,Gatekeeper,3,2,88,4,2,0,3,0,4,2,3,0,2,0,0,2,1,10,3,1,2,0,-2,0,3,0,0,2,0,0,2,2,2,90,3,2,0,2,5,2,2,0,0,0,0,0,-1,1,6,0,1,1,0,-2,2,0,0,0,0,0,0,26.77962,0.04169957,-0.411,-0.124,-0.923,-0.11,-0.815,0.155,-0.66,1.7638648118,26.2,-1.28,-0.923
1opj_STI_F317V,Gatekeeper,0,1,66,1,2,0,10,0,1,1,5,0,4,0,2,-4,-2,-9,0,-1,0,0,-6,0,0,0,0,-4,0,-1,1,1,2,82,1,2,0,9,1,2,1,0,2,1,0,0,-3,0,-5,0,-1,0,0,-4,0,-2,0,0,0,0,0,26.77962,0.04169957,-0.519,-0.279,-1.185,0.48,-0.985,0.349,-1.11,1.7638648118,26.2,-1.378,-1.185
1opj_STI_M351T,others,2,1,101,2,3,0,9,0,2,3,3,0,8,1,2,1,-4,40,0,2,0,0,7,0,0,0,0,4,2,1,3,2,1,89,2,2,0,2,4,2,0,0,2,1,0,0,0,0,24,0,1,0,0,1,2,-1,0,0,0,1,0,3.374802,0.02357251,-1.633,-0.404,-1.679,-3.37,-1.819,0.504,-1.64,5.3792578724,0,-0.074,-1.679
1opj_STI_E355A,others,2,1,101,2,3,0,9,0,2,3,3,0,8,1,2,-5,1,-16,0,1,0,0,-17,0,0,0,0,4,0,1,-1,2,1,89,2,2,0,2,4,2,0,0,2,1,0,0,-1,-1,-6,0,1,0,0,-5,2,-1,0,0,0,1,0,3.558401,0.03460025,-1.24,-0.731,-1.358,0.57,-0.975,0.914,-1,2.070458429,12.5,-0.985,-1.358
1opj_STI_F359C,others,3,5,131,2,3,0,24,1,5,3,5,1,4,1,2,-5,1,21,0,2,0,0,17,1,1,-3,0,2,2,1,3,4,2,126,3,3,0,25,6,2,7,1,6,2,1,2,-5,-2,29,1,2,0,0,18,0,-6,0,4,2,2,6,8.216229,0.03895296,-0.446,-0.635,-1.408,0.04,-1.363,0.794,-0.53,1.8247716491,20.6,-1.041,-1.408
1opj_STI_F359I,others,2,1,86,1,0,0,11,0,2,0,1,0,0,0,0,1,0,39,-1,0,0,0,9,0,0,0,0,0,0,0,0,2,3,121,1,1,2,22,2,1,2,0,2,0,1,0,0,2,67,0,0,0,2,19,0,0,1,2,0,0,0,8.216229,0.03895296,-0.579,-0.257,-1.003,0.54,-0.884,0.322,-1.6,1.8247716491,20.6,-1.226,-1.003
1opj_STI_F359V,others,2,1,86,1,0,0,11,0,2,0,1,0,0,0,0,0,-1,19,0,-2,0,0,3,-1,0,0,0,0,0,0,0,2,3,121,1,1,2,22,2,1,2,0,2,0,1,0,-2,2,52,0,-1,0,2,12,0,-2,1,2,0,0,1,8.216229,0.03895296,-0.764,-0.617,-1.315,0.48,-1.212,0.771,-1.04,1.8247716491,20.6,-1.261,-1.315
1opj_STI_H396R,Aloop,2,1,86,1,0,0,11,0,2,0,1,0,0,0,0,0,-1,30,0,-2,0,0,6,-1,0,0,0,0,0,0,0,2,3,121,1,1,2,22,2,1,2,0,2,0,1,0,0,2,63,0,-1,0,2,17,0,-1,1,2,0,0,1,8.822973,0.09502504,-0.594,-0.19,-0.861,-0.52,-0.723,0.237,-0.28,1.937901901,38.4,0,-0.861
1opj_STI_E459K,others,2,3,88,1,0,0,1,1,1,1,0,0,0,0,0,-2,2,-8,0,-2,0,0,0,0,0,-1,0,0,0,0,0,1,1,36,1,0,0,1,2,0,0,1,0,0,0,0,0,0,7,0,0,0,0,0,1,0,0,0,0,0,0,18.93796,0.04204098,0.095,0.009,-0.255,-0.25,0.021,-0.012,-0.36,1.6220633305,90.2,0,-0.255
3cs9_NIL_M244V,others,2,3,41,2,0,0,0,0,2,2,1,0,6,0,0,0,3,-1,-1,0,0,0,0,0,-2,2,0,-2,0,0,1,2,1,35,2,0,0,0,2,1,1,0,0,0,0,0,-2,1,-1,-1,-1,0,0,0,-2,-2,0,0,0,0,1,16.68751,0.07150715,-0.126,-0.339,-1.027,1.39,-0.171,0.423,-0.73,1.8162747754,27.5,-0.927,-1.027
3cs9_NIL_L248R,Chelix,0,0,17,0,0,0,0,0,0,0,0,2,0,0,0,0,0,1,0,0,0,0,0,0,0,0,0,0,0,0,0,3,2,62,4,2,0,2,5,1,0,0,2,0,0,1,3,2,50,4,2,0,0,2,4,1,0,2,1,0,0,20.94533,0.04127098,0,0.152,-0.944,-0.62,-0.757,-0.19,-0.35,2.0373993094,6.6,-2.559,-0.944
3cs9_NIL_L248V,Chelix,2,0,41,3,1,0,0,0,4,0,5,0,0,0,0,2,-2,11,1,1,1,0,0,0,2,0,0,0,0,0,4,3,1,50,4,2,0,0,5,0,4,0,0,0,0,0,-1,1,8,1,0,0,0,0,0,-2,0,0,0,0,3,20.94533,0.04127098,-0.434,-0.241,-1.187,-0.24,-1.001,0.302,-1.3,2.0373993094,6.6,-1.835,-1.187
3cs9_NIL_G250E,Chelix,0,0,111,0,0,2,11,0,0,1,2,0,6,1,0,-1,-1,37,0,-1,0,2,1,0,0,1,-1,4,0,1,1,0,0,106,0,0,3,12,1,0,1,0,2,1,0,0,-2,0,29,0,-2,0,3,7,0,-1,0,2,0,1,1,7.798516,0.05885056,-0.515,-0.016,-0.686,-2.62,-0.8,0.021,0.06,1.4910413707,180.8,-0.188,-0.686
3cs9_NIL_Y253F,Gloop,0,0,111,0,0,2,11,0,0,1,2,0,6,1,0,-1,-1,23,0,-1,0,2,9,0,0,0,-1,4,0,1,1,0,0,106,0,0,3,12,1,0,1,0,2,1,0,0,0,-1,5,0,-1,-4,3,9,0,0,0,2,0,1,1,19.61131,0.03286406,-0.768,-0.262,-0.754,0.16,-0.492,0.327,-0.46,2.0105628403,1.6,-1.422,-0.754
3cs9_NIL_E255K,Gloop,0,0,111,0,0,2,11,0,0,1,2,0,6,1,0,-3,-1,57,0,0,0,2,8,0,0,-1,0,4,0,1,1,0,0,106,0,0,3,12,1,0,1,0,2,1,0,0,-1,0,43,0,-1,0,3,7,0,-1,0,2,0,1,1,13.35183,0.04020337,0.119,0.448,-0.887,-1.21,-0.871,-0.56,-0.63,2.1068173072,5.6,-1.563,-0.887
3cs9_NIL_E255V,Gloop,1,0,111,0,1,0,15,0,1,0,3,0,4,1,0,1,0,63,0,1,0,0,14,0,0,0,0,2,0,1,1,0,0,106,0,0,3,12,1,0,1,0,2,1,0,0,0,0,56,0,-1,0,3,11,0,0,0,2,0,1,1,13.35183,0.04020337,-0.695,-0.123,-0.144,0.54,0.183,0.154,-0.26,2.1068173072,5.6,-0.932,-0.144
3cs9_NIL_V299L,others,1,0,111,0,1,0,15,0,1,0,3,0,4,1,0,1,-1,39,0,0,0,0,9,0,1,-1,0,2,0,1,1,0,0,106,0,0,3,12,1,0,1,0,2,1,0,0,-1,0,24,0,-3,0,3,3,0,-2,0,2,0,1,1,19.38346,0.01807608,-0.113,0.201,-0.853,-0.09,-0.583,-0.251,-0.87,2.2466736267,0,-2.082,-0.853
3cs9_NIL_T315A,Gatekeeper,1,0,111,0,1,0,15,0,1,0,3,0,4,1,0,0,0,41,0,1,0,0,8,0,1,0,0,2,0,1,1,0,0,106,0,0,3,12,1,0,1,0,2,1,0,0,-2,0,29,0,-2,0,3,7,0,-1,0,2,0,1,1,16.57713,0.01820659,-0.127,-0.059,-1.129,1.02,-0.601,0.073,-1.62,2.345623155,0,-1.601,-1.129
3cs9_NIL_T315I,Gatekeeper,1,0,111,0,1,0,15,0,1,0,3,0,4,1,0,1,0,55,0,1,0,0,11,0,1,-1,0,2,0,1,1,0,0,106,0,0,3,12,1,0,1,0,2,1,0,0,-1,0,43,0,-1,0,3,7,0,-1,0,2,0,1,1,16.57713,0.01820659,1.623,0.318,-0.191,2.64,0.719,-0.398,-0.25,2.345623155,0,-1.088,-0.191
3cs9_NIL_F317C,Gatekeeper,2,5,114,6,3,0,4,0,7,3,2,1,0,1,0,1,4,57,3,2,0,0,2,0,3,3,0,0,0,0,1,5,1,113,5,3,0,4,8,5,3,1,0,0,0,0,2,0,55,3,2,0,0,1,3,3,0,0,0,0,1,29.76614,0.0370021,-0.398,-0.599,-0.622,-0.07,-0.487,0.749,0.68,1.766921996,23.1,-1.01,-0.622
3cs9_NIL_F317I,Gatekeeper,0,2,36,1,1,0,0,0,1,2,5,0,0,0,6,0,2,2,0,0,0,0,0,0,0,1,0,0,0,0,0,0,0,32,0,1,0,0,1,2,3,0,0,2,0,6,0,0,0,0,0,0,0,0,0,1,0,0,0,0,0,29.76614,0.0370021,-0.329,-0.11,-0.911,0.54,-0.697,0.137,-1.17,1.766921996,23.1,-1.297,-0.911
3cs9_NIL_F317L,Gatekeeper,0,0,127,0,0,2,15,0,0,0,5,2,4,0,0,0,0,76,0,0,0,2,14,0,0,0,0,4,0,0,3,0,0,106,0,0,3,12,1,0,1,0,2,1,0,0,0,0,56,0,-1,0,3,11,0,0,0,2,0,1,1,29.76614,0.0370021,-0.706,-0.177,-0.911,-0.11,-0.802,0.221,-0.55,1.766921996,23.1,-1.27,-0.911
3cs9_NIL_F317V,Gatekeeper,0,0,127,0,0,2,15,0,0,0,5,2,4,0,0,0,-2,53,0,-1,0,2,7,0,0,-1,0,4,0,0,2,0,0,106,0,0,3,12,1,0,1,0,2,1,0,0,-1,0,24,0,-3,0,3,3,0,-2,0,2,0,1,1,29.76614,0.0370021,-0.781,-0.383,-1.166,0.48,-0.966,0.479,-1.08,1.766921996,23.1,-1.347,-1.166
3cs9_NIL_M351T,others,0,0,127,0,0,2,15,0,0,0,5,2,4,0,0,0,-1,56,0,0,0,2,8,0,0,0,0,4,0,0,2,0,0,106,0,0,3,12,1,0,1,0,2,1,0,0,-2,0,29,0,-2,0,3,7,0,-1,0,2,0,1,1,5.884757,0.01760319,-0.686,-0.432,-1.737,-2.46,-1.727,0.54,-1.76,5.645878881,0,-0.158,-1.737
3cs9_NIL_E355A,others,0,0,127,0,0,2,15,0,0,0,5,2,4,0,0,-3,-2,75,0,0,0,2,11,0,0,-2,0,4,0,0,4,0,0,106,0,0,3,12,1,0,1,0,2,1,0,0,-1,0,43,0,-1,0,3,7,0,-1,0,2,0,1,1,5.649467,0.02928985,-0.873,-0.659,-1.175,0.57,-0.778,0.824,-0.93,2.4712313937,15.5,-0.975,-1.175
3cs9_NIL_F359C,others,5,5,108,6,4,0,6,0,8,5,4,0,0,0,0,3,3,54,3,3,0,0,2,0,5,3,0,0,0,0,3,5,1,113,5,3,0,4,8,5,3,1,0,0,0,0,2,0,55,3,2,0,0,1,3,3,0,0,0,0,1,11.69294,0.0372023,-1.253,-0.5,-1.631,-0.07,-1.609,0.625,-2.15,2.0146750229,16.2,-1.387,-1.631
3cs9_NIL_F359I,others,0,1,35,1,0,0,0,0,2,1,6,0,0,0,7,0,1,-8,0,0,0,0,0,0,1,0,0,0,1,0,1,0,0,32,0,1,0,0,1,2,3,0,0,2,0,6,0,0,0,0,0,0,0,0,0,1,0,0,0,0,0,11.69294,0.0372023,-0.82,-0.268,-1.155,0.54,-1.038,0.335,-2.47,2.0146750229,16.2,-1.55,-1.155
3cs9_NIL_F359V,others,2,1,63,1,1,0,0,0,1,1,0,2,6,0,0,1,1,44,1,1,0,0,0,0,0,1,0,6,0,0,0,2,1,35,2,0,0,0,2,1,1,0,0,0,0,0,-2,1,-1,-1,-1,0,0,0,-2,-2,0,0,0,0,1,11.69294,0.0372023,-1.051,-0.496,-1.509,0.48,-1.41,0.62,-2.16,2.0146750229,16.2,-1.644,-1.509
3cs9_NIL_H396R,Aloop,0,0,99,0,1,0,13,0,1,0,2,0,2,1,0,0,0,21,0,0,0,0,5,0,1,-1,0,0,0,1,1,0,0,106,0,0,3,12,1,0,1,0,2,1,0,0,-1,0,24,0,-3,0,3,3,0,-2,0,2,0,1,1,11.69678,0.09868823,-0.544,-0.318,-0.872,-0.52,-0.734,0.398,-0.29,1.7908185009,37.6,0,-0.872
3cs9_NIL_E459K,others,0,0,99,0,1,0,13,0,1,0,2,0,2,1,0,-1,0,42,0,1,0,0,8,0,1,0,0,0,0,1,1,0,0,106,0,0,3,12,1,0,1,0,2,1,0,0,-2,0,29,0,-2,0,3,7,0,-1,0,2,0,1,1,20.71627,0.04352521,0.331,0.105,-0.148,-0.25,0.132,-0.132,-0.15,1.5557603816,77.3,0,-0.148
3oxz_0LI_M244V,others,2,2,72,1,1,0,0,0,1,1,0,2,6,0,0,1,2,53,1,1,0,0,0,0,0,1,0,6,0,0,0,2,1,35,2,0,0,0,2,1,1,0,0,0,0,0,-2,1,-1,-1,-1,0,0,0,-2,-2,0,0,0,0,1,11.35099,0.05936583,0.146,-0.262,-1.083,1.23,-0.265,0.327,-0.73,1.8253098091,27.8,-0.957,-1.083
3oxz_0LI_L248R,Chelix,0,0,109,0,1,0,14,0,1,0,3,0,4,1,0,0,-1,34,0,0,0,0,8,0,1,-1,0,2,0,1,1,0,0,106,0,0,3,12,1,0,1,0,2,1,0,0,-1,0,24,0,-3,0,3,3,0,-2,0,2,0,1,1,9.115814,0.03438098,0.387,0.521,-1.251,-0.81,-1.084,-0.651,-0.38,2.2166530136,4.1,-2.586,-1.251
3oxz_0LI_L248V,Chelix,0,0,109,0,1,0,14,0,1,0,3,0,4,1,0,0,-1,48,0,1,0,0,8,0,1,0,0,2,0,1,1,0,0,106,0,0,3,12,1,0,1,0,2,1,0,0,-2,0,29,0,-2,0,3,7,0,-1,0,2,0,1,1,9.115814,0.03438098,-0.541,-0.175,-1.391,-0.24,-1.223,0.219,-1.4,2.2166530136,4.1,-1.904,-1.391
3oxz_0LI_G250E,Chelix,0,0,98,0,0,6,13,0,0,1,4,0,2,1,0,0,0,49,0,0,0,6,12,0,0,1,0,2,0,1,3,0,0,106,0,0,3,12,1,0,1,0,2,1,0,0,0,0,56,0,-1,0,3,11,0,0,0,2,0,1,1,3.657816,0.04266198,-0.535,0.14,-0.577,-3.27,-0.821,-0.175,0.06,1.491088129,184.3,-0.071,-0.577
3oxz_0LI_Y253F,Gloop,0,0,98,0,0,6,13,0,0,1,4,0,2,1,0,-2,0,31,0,0,0,6,9,0,0,-1,0,2,0,1,3,0,0,106,0,0,3,12,1,0,1,0,2,1,0,0,-1,0,24,0,-3,0,3,3,0,-2,0,2,0,1,1,10.36627,0.02279927,-0.157,-0.192,-0.729,0.33,-0.42,0.24,-0.92,2.7021619446,2.1,-0.911,-0.729
3oxz_0LI_E255K,Gloop,0,0,98,0,0,6,13,0,0,1,4,0,2,1,0,-1,-1,32,0,0,0,6,6,0,0,0,0,2,0,1,3,0,0,106,0,0,3,12,1,0,1,0,2,1,0,0,-2,0,29,0,-2,0,3,7,0,-1,0,2,0,1,1,14.43979,0.02968031,0.886,0.274,-0.99,-1.21,-0.983,-0.343,-1.02,2.319200625,3.4,-1.512,-0.99
3oxz_0LI_E255V,Gloop,0,0,98,0,0,6,13,0,0,1,4,0,2,1,0,-1,-1,41,0,0,0,6,10,0,0,-1,0,2,0,1,3,0,0,106,0,0,3,12,1,0,1,0,2,1,0,0,-1,0,43,0,-1,0,3,7,0,-1,0,2,0,1,1,14.43979,0.02968031,-0.06,0.005,0.09,0.54,0.421,-0.006,0.51,2.319200625,3.4,-0.923,0.09
3oxz_0LI_V299L,others,6,1,121,5,3,0,4,0,8,4,3,1,0,1,1,4,-1,62,3,2,0,0,1,0,3,2,0,0,1,0,1,5,1,113,5,3,0,4,8,5,3,1,0,0,0,0,2,0,55,3,2,0,0,1,3,3,0,0,0,0,1,13.34611,0.02247987,0.212,0.148,-0.868,-0.09,-0.599,-0.185,-0.69,2.2036613111,0,-2.157,-0.868
3oxz_0LI_T315A,Gatekeeper,1,1,30,0,1,0,0,0,1,2,3,0,0,1,6,1,0,-2,0,0,0,0,0,0,0,0,0,0,4,1,0,0,0,32,0,1,0,0,1,2,3,0,0,2,0,6,0,0,0,0,0,0,0,0,0,1,0,0,0,0,0,8.064149,0.02074751,-0.108,-0.082,-1.201,1.02,-0.677,0.102,-1.47,2.3010376558,0,-1.8,-1.201
3oxz_0LI_T315I,Gatekeeper,0,1,99,0,1,3,14,0,0,0,3,0,2,1,0,0,1,54,0,1,0,3,13,0,-1,0,0,2,0,1,2,0,0,106,0,0,3,12,1,0,1,0,2,1,0,0,0,0,56,0,-1,0,3,11,0,0,0,2,0,1,1,8.064149,0.02074751,-0.301,0.058,-0.193,2.64,0.717,-0.072,-0.21,2.3010376558,0,-1.188,-0.193
3oxz_0LI_F317C,Gatekeeper,0,1,99,0,1,3,14,0,0,0,3,0,2,1,0,-1,-1,25,0,1,0,3,7,0,0,-2,0,2,0,1,2,0,0,106,0,0,3,12,1,0,1,0,2,1,0,0,-1,0,24,0,-3,0,3,3,0,-2,0,2,0,1,1,13.51632,0.0324005,0.023,-0.618,-0.573,-0.07,-0.438,0.772,0.86,1.7862683255,22,-0.978,-0.573
3oxz_0LI_F317I,Gatekeeper,0,1,99,0,1,3,14,0,0,0,3,0,2,1,0,-1,0,35,0,0,0,3,8,0,0,-1,0,2,0,1,1,0,0,106,0,0,3,12,1,0,1,0,2,1,0,0,-2,0,29,0,-2,0,3,7,0,-1,0,2,0,1,1,13.51632,0.0324005,-0.27,-0.15,-0.984,0.54,-0.771,0.188,-1.53,1.7862683255,22,-1.373,-0.984
3oxz_0LI_F317L,Gatekeeper,0,1,99,0,1,3,14,0,0,0,3,0,2,1,0,0,-1,44,0,1,0,3,11,0,0,-2,0,2,0,1,2,0,0,106,0,0,3,12,1,0,1,0,2,1,0,0,-1,0,43,0,-1,0,3,7,0,-1,0,2,0,1,1,13.51632,0.0324005,-0.342,-0.313,-0.984,-0.11,-0.878,0.391,-1.2,1.7862683255,22,-1.351,-0.984
3oxz_0LI_F317V,Gatekeeper,5,1,116,4,3,0,6,0,8,1,3,1,0,1,0,2,1,52,2,2,0,0,2,0,3,-1,0,0,0,0,1,5,1,113,5,3,0,4,8,5,3,1,0,0,0,0,2,0,55,3,2,0,0,1,3,3,0,0,0,0,1,13.51632,0.0324005,-0.458,-0.438,-1.229,0.48,-1.03,0.547,-1.07,1.7862683255,22,-1.427,-1.229
3oxz_0LI_M351T,others,0,1,31,1,0,0,0,0,1,1,4,0,0,0,6,0,1,-2,0,-1,0,0,0,0,1,-1,0,0,0,0,0,0,0,32,0,1,0,0,1,2,3,0,0,2,0,6,0,0,0,0,0,0,0,0,0,1,0,0,0,0,0,2.672167,0.01985243,-0.478,-0.459,-1.578,-2.46,-1.561,0.574,-1.57,5.3895794996,0,-0.149,-1.578
3oxz_0LI_E355A,others,0,0,107,0,0,1,9,0,0,1,3,0,4,1,0,0,0,57,0,0,0,1,8,0,0,0,-1,4,0,1,2,0,0,106,0,0,3,12,1,0,1,0,2,1,0,0,0,0,56,0,-1,0,3,11,0,0,0,2,0,1,1,2.654308,0.02969916,-0.697,-0.753,-1.284,0.57,-0.895,0.942,-0.9,2.0898064202,14.2,-1.054,-1.284
3oxz_0LI_F359C,others,0,0,107,0,0,1,9,0,0,1,3,0,4,1,0,-1,-1,35,0,-2,0,1,3,0,0,-1,0,4,0,1,2,0,0,106,0,0,3,12,1,0,1,0,2,1,0,0,-1,0,24,0,-3,0,3,3,0,-2,0,2,0,1,1,7.431846,0.03509533,-0.416,-0.788,-1.39,-0.08,-1.365,0.985,-0.61,1.788288301,17,-1.282,-1.39
3oxz_0LI_F359I,others,0,0,107,0,0,1,9,0,0,1,3,0,4,1,0,-1,0,29,0,-2,0,1,4,0,0,0,-1,4,0,1,2,0,0,106,0,0,3,12,1,0,1,0,2,1,0,0,-2,0,29,0,-2,0,3,7,0,-1,0,2,0,1,1,7.431846,0.03509533,-0.66,-0.612,-1.04,0.46,-0.935,0.765,-1.63,1.788288301,17,-1.599,-1.04
3oxz_0LI_F359V,others,0,0,107,0,0,1,9,0,0,1,3,0,4,1,0,-1,0,49,0,0,0,1,6,0,0,0,-1,4,0,1,2,0,0,106,0,0,3,12,1,0,1,0,2,1,0,0,-1,0,43,0,-1,0,3,7,0,-1,0,2,0,1,1,7.431846,0.03509533,-0.68,-0.761,-1.365,0.3,-1.296,0.951,-1.28,1.788288301,17,-1.63,-1.365
3oxz_0LI_H396R,Aloop,6,2,117,6,1,0,6,0,8,4,4,1,0,1,0,3,1,61,3,0,0,0,4,0,3,2,0,0,0,0,1,5,1,113,5,3,0,4,8,5,3,1,0,0,0,0,2,0,55,3,2,0,0,1,3,3,0,0,0,0,1,11.94429,0.03036278,-0.073,0.068,-0.709,-1.18,-0.638,-0.085,-0.06,2.2436756231,5.9,0,-0.709
3oxz_0LI_E459K,others,0,1,35,1,0,0,0,0,0,2,4,0,0,1,7,0,1,-1,0,-1,0,0,0,0,0,0,0,0,1,1,1,0,0,32,0,1,0,0,1,2,3,0,0,2,0,6,0,0,0,0,0,0,0,0,0,1,0,0,0,0,0,5.054869,0.04263857,0.001,-0.014,-0.225,-0.25,0.052,0.017,-0.38,1.6583944102,78.9,0,-0.225
