MEHP950101,NAOD960101,Fluctuation,ddg_duet,d_Amide-Ring,d_Carbon-PI,LIG.NUM_HETEROATOMS,LIG.TPSA,Neut:Neut-8.00,Acc:Pos-3.00,Inter-Don:Neut-4.00,ATP_Inter-Neut:Neut-7.00,ATP_Neut:Pos-2.00,ATP_Inter-Don:Neut-9.00,DDG_exp
1.02,2,0.1083704,-0.342,0,0,6,70.67,6800,1,0,0,9,0,-0.11
1.02,-5,0.08009548,-0.742,0,-2,6,70.67,7096,0,37,829,11,509,0.31
0.88,5,0.08009548,-1.063,1,1,6,70.67,7096,0,37,829,11,509,0.32
1.06,0,0.1301729,-0.8,0,0,6,70.67,2511,0,5,678,14,381,0.27
0.71,2,0.07445152,-0.291,0,0,6,70.67,5493,0,28,282,16,168,0.26
0.81,0,0.07445152,-0.065,0,0,6,70.67,5493,0,28,282,16,168,0.03
1.22,9,0.09066566,-0.157,0,0,6,70.67,4814,0,8,341,13,99,0.26
1.04,-9,0.09066566,0.271,0,0,6,70.67,4814,0,8,341,13,99,0.3
1.22,9,0.3354318,0.256,0,1,6,70.67,3422,0,0,0,4,0,-0.03
0.88,5,0.02489762,-0.657,2,0,6,70.67,9141,3,27,349,11,262,-0.88
1.06,0,0.01679734,-0.798,1,3,6,70.67,10285,3,33,476,11,324,-0.45
0,-3,0.01679734,0.66,1,0,6,70.67,10285,3,33,476,11,324,-1.27
0.84,-1,0.01679734,0.475,1,2,6,70.67,10285,3,33,476,11,324,-1.73
0.96,-2,0.02008809,-2.38,0,4,6,70.67,11300,0,0,0,1,0,0.21
0.96,-2,0.01539874,-1.627,1,1,6,70.67,12252,2,0,0,4,0,-0.24
0.74,6,0.02454344,-0.865,0,6,6,70.67,8725,0,0,0,9,0,0.1
0.76,5,0.02454344,-1.79,0,5,6,70.67,8725,0,0,0,9,0,0.07
1.08,5,0.0229849,-0.85,0,0,6,70.67,9477,1,0,214,17,120,0.06
1.06,3,0.128798,-0.238,0,1,6,70.67,2197,1,0,0,1,0,0.25
0.78,-4,0.01220938,-3.336,1,3,6,70.67,11546,2,0,0,5,0,0.05
1.02,2,0.1304075,-0.169,0,1,10,82.88,7107,1,0,0,9,0,0.43
1.02,-5,0.1440437,0.148,1,1,10,82.88,5304,0,13,829,11,509,1.5
0.88,5,0.1440437,-0.005,1,2,10,82.88,5304,0,13,829,11,509,0.56
1.06,0,0.1595601,-1.057,0,0,10,82.88,4262,1,3,678,14,381,0.11
0.71,2,0.1403993,-0.173,0,0,10,82.88,4088,1,1,282,16,168,-0.34
1.22,9,0.1117195,-0.827,0,0,10,82.88,6465,1,3,341,13,99,0.56
1.04,-9,0.1117195,0.289,0,0,10,82.88,6465,1,3,341,13,99,0.66
0.88,5,0.02275371,-0.692,0,0,10,82.88,9451,3,14,349,11,262,1.7
1.06,0,0.01736117,-0.908,1,1,10,82.88,9806,2,24,476,11,324,0.32
0,-3,0.01736117,0.453,0,0,10,82.88,9806,2,24,476,11,324,2.45
0.96,-2,0.01221075,-1.718,1,-1,10,82.88,12477,1,0,0,4,0,0.19
1.16,3,0.02104121,-1.736,0,4,10,82.88,9092,2,0,0,9,0,-0.01
0.74,6,0.02104121,-0.859,0,4,10,82.88,9092,2,0,0,9,0,0.04
0.76,5,0.02104121,-1.79,0,4,10,82.88,9092,2,0,0,9,0,-0.11
1.06,3,0.1977773,-0.033,0,1,10,82.88,1747,0,0,0,1,0,-0.1
1.02,2,0.07673319,-0.588,0,1,11,106.51,9433,1,0,0,9,0,0
1.02,-5,0.1158771,-0.146,0,3,11,106.51,5374,2,13,829,11,509,0.65
0.88,5,0.1158771,-0.353,0,2,11,106.51,5374,2,13,829,11,509,0.55
1.06,0,0.126469,-0.541,0,-1,11,106.51,2038,2,2,678,14,381,0.41
0.71,2,0.1439446,0.227,0,0,11,106.51,2535,2,0,282,16,168,0.24
1.22,9,0.1028385,-0.233,0,0,11,106.51,5246,2,4,341,13,99,0.9
1.04,-9,0.1028385,-0.001,0,0,11,106.51,5246,2,4,341,13,99,1.02
0.88,5,0.05384838,-0.752,0,1,11,106.51,10103,2,20,349,11,262,1.24
1.06,0,0.06620603,-1.313,0,2,11,106.51,10353,1,21,476,11,324,2.02
0,-3,0.06620603,0.377,0,1,11,106.51,10353,1,21,476,11,324,5.08
0.96,-2,0.02029063,-1.454,0,1,11,106.51,12879,1,0,0,4,0,0
1.16,3,0.05127537,-1.751,0,3,11,106.51,9159,2,0,0,9,0,0
0.74,6,0.05127537,-0.855,0,2,11,106.51,9159,2,0,0,9,0,0.24
0.76,5,0.05127537,-1.795,0,3,11,106.51,9159,2,0,0,9,0,0
1.06,3,0.2093501,-0.115,0,1,11,106.51,1974,2,0,0,1,0,0
0.71,2,0.1403993,-0.173,0,0,7,74.73,4098,1,4,282,16,168,0
1.22,9,0.1117195,-0.827,0,0,7,74.73,6499,1,6,341,13,99,-0.11
0,-3,0.01736117,0.453,1,0,7,74.73,9768,2,11,476,11,324,-0.15
0.96,-2,0.01221075,-1.718,1,-1,7,74.73,12477,1,0,0,4,0,-0.08
0.71,2,0.1403993,-0.173,0,0,9,68.74,4187,2,11,282,16,168,-0.17
1.22,9,0.1117195,-0.827,0,0,9,68.74,6571,1,12,341,13,99,-0.11
0.96,-2,0.01221075,-1.718,1,-1,9,68.74,12477,1,0,0,4,0,0.05
1.02,2,0.06482869,-0.312,0,0,8,86.28,6891,1,0,0,9,0,0.21
1.02,-5,0.04471078,-0.745,1,2,8,86.28,7096,0,21,829,11,509,2.33
0.88,5,0.04471078,-0.976,1,2,8,86.28,7096,0,21,829,11,509,0.64
1.06,0,0.05858455,-0.938,0,0,8,86.28,2904,0,1,678,14,381,1.01
0.71,2,0.03116053,-0.331,0,0,8,86.28,7292,0,9,282,16,168,1.9
1.22,9,0.04477886,-0.59,0,0,8,86.28,5898,0,5,341,13,99,1.5
1.04,-9,0.04477886,0.212,0,0,8,86.28,5898,0,5,341,13,99,2.22
0.88,5,0.02225299,-0.623,1,-1,8,86.28,9582,3,18,349,11,262,0.23
1.06,0,0.02188889,-0.772,1,1,8,86.28,10151,1,20,476,11,324,0.51
0,-3,0.02188889,0.611,0,0,8,86.28,10151,1,20,476,11,324,2.32
0.96,-2,0.02357251,-1.819,1,0,8,86.28,12755,1,1,0,4,0,0.42
1.16,3,0.03895296,-1.363,0,0,8,86.28,6005,0,1,0,9,0,0.77
0.74,6,0.03895296,-0.884,0,1,8,86.28,6005,0,1,0,9,0,0.28
0.76,5,0.03895296,-1.212,0,1,8,86.28,6005,0,1,0,9,0,0.32
1.06,3,0.09502504,-0.723,0,3,8,86.28,4802,1,0,0,1,0,0.4
1.02,2,0.07150715,-0.171,0,0,11,97.62,6536,1,0,0,9,0,-0.13
1.02,-5,0.04127098,-0.757,0,2,11,97.62,6839,0,20,829,11,509,2.15
0.88,5,0.04127098,-1.001,1,2,11,97.62,6839,0,20,829,11,509,0.33
1.06,0,0.05885056,-0.8,0,0,11,97.62,2503,0,2,678,14,381,0.6
0.71,2,0.03286406,-0.492,0,0,11,97.62,7016,0,11,282,16,168,1.48
1.22,9,0.04020337,-0.871,0,0,11,97.62,6155,1,5,341,13,99,1.27
1.04,-9,0.04020337,0.183,0,0,11,97.62,6155,1,5,341,13,99,2.36
0.88,5,0.01807608,-0.583,0,2,11,97.62,9633,2,20,349,11,262,0.28
1.06,0,0.01820659,-0.601,1,3,11,97.62,10136,1,23,476,11,324,0.72
0,-3,0.01820659,0.719,0,2,11,97.62,10136,1,23,476,11,324,3.75
0.96,-2,0.01760319,-1.727,3,2,11,97.62,11919,1,2,0,4,0,0
1.16,3,0.0372023,-1.609,0,2,11,97.62,6749,0,1,0,9,0,0.68
0.74,6,0.0372023,-1.038,0,2,11,97.62,6749,0,1,0,9,0,0.86
0.76,5,0.0372023,-1.41,0,2,11,97.62,6749,0,1,0,9,0,0.6
1.06,3,0.09868823,-0.734,0,3,11,97.62,4527,1,0,0,1,0,0.25
1.02,2,0.05936583,-0.265,0,0,10,65.77,6983,0,0,0,9,0,0
1.02,-5,0.03438098,-1.084,0,1,10,65.77,6915,0,22,829,11,509,0.58
0.88,5,0.03438098,-1.223,1,1,10,65.77,6915,0,22,829,11,509,0.17
1.06,0,0.04266198,-0.821,0,0,10,65.77,3732,1,2,678,14,381,0.3
0.71,2,0.02279927,-0.42,0,0,10,65.77,8771,0,5,282,16,168,0.3
1.22,9,0.02968031,-0.983,0,2,10,65.77,7448,1,6,341,13,99,0.41
1.04,-9,0.02968031,0.421,0,2,10,65.77,7448,1,6,341,13,99,1
0.88,5,0.02247987,-0.599,-1,1,10,65.77,9844,4,22,349,11,262,0.17
1.06,0,0.02074751,-0.677,1,3,10,65.77,10426,3,28,476,11,324,0.17
0,-3,0.02074751,0.717,1,-1,10,65.77,10426,3,28,476,11,324,0.41
0.96,-2,0.01985243,-1.561,1,3,10,65.77,12534,1,3,0,4,0,0.17
1.16,3,0.03509533,-1.365,0,0,10,65.77,5899,0,2,0,9,0,0.41
0.74,6,0.03509533,-0.935,0,0,10,65.77,5899,0,2,0,9,0,0.77
0.76,5,0.03509533,-1.296,0,0,10,65.77,5899,0,2,0,9,0,0.17
1.06,3,0.03036278,-0.638,0,0,10,65.77,6128,5,0,0,1,0,0.17
1.02,2,0.1067624,-0.546,0,0,6,70.67,297,0,0,0,2,0,0.11
1.02,-5,0.08387172,-0.049,0,2,6,70.67,386,0,6,62,4,118,-0.31
0.88,5,0.08019498,-0.207,-1,-1,6,70.67,340,0,3,59,2,105,-0.32
1.06,0,0.1359215,0.61,0,0,6,70.67,148,0,0,70,4,103,-0.27
0.71,2,0.07341917,-0.207,0,0,6,70.67,302,0,0,49,4,57,-0.26
0.81,0,0.07291965,0.976,0,0,6,70.67,303,0,0,49,4,70,-0.03
1.22,9,0.09066542,0.612,0,0,6,70.67,240,1,1,48,5,57,-0.26
1.04,-9,0.08998891,-0.51,0,0,6,70.67,296,1,1,54,4,65,-0.3
1.22,9,0.3311285,0.464,0,-1,6,70.67,205,1,0,0,2,0,0.03
0.88,5,0.02469625,-2.027,-2,0,6,70.67,543,3,5,0,1,31,0.88
1.06,0,0.01665194,-1.66,-1,-3,6,70.67,459,2,5,0,2,35,0.45
0,-3,0.01694307,-3.072,-1,0,6,70.67,438,2,5,5,2,47,1.27
0.84,-1,0.01685568,-2.617,-1,-2,6,70.67,465,2,5,0,2,35,1.73
0.96,-2,0.02003181,0.256,0,-4,6,70.67,460,0,0,0,0,0,-0.21
0.96,-2,0.01555244,0.053,-1,-1,6,70.67,587,1,0,0,0,0,0.24
0.74,6,0.02450208,-1.794,0,-6,6,70.67,434,0,0,0,3,0,-0.1
0.76,5,0.02454949,-1.641,0,-5,6,70.67,445,0,0,0,3,0,-0.07
1.08,5,0.02302529,-0.886,0,0,6,70.67,400,2,0,18,5,32,-0.06
1.06,3,0.1366158,-0.627,0,-1,6,70.67,88,0,0,0,2,0,-0.25
0.78,-4,0.01215007,-0.526,-1,-3,6,70.67,573,2,0,0,1,0,-0.05
1.02,2,0.1296484,-0.451,0,-1,10,82.88,237,0,0,0,2,0,-0.43
1.02,-5,0.1529726,0.85,-1,-1,10,82.88,364,1,4,62,4,118,-1.5
0.88,5,0.1460767,-0.008,-1,-2,10,82.88,273,0,0,59,2,105,-0.56
1.06,0,0.1767065,-0.45,0,0,10,82.88,262,1,0,70,4,103,-0.11
0.71,2,0.1382139,-0.291,0,0,10,82.88,242,0,0,49,4,57,0.34
1.22,9,0.1111633,-0.353,0,0,10,82.88,406,0,0,48,5,57,-0.56
1.04,-9,0.111606,-1.595,0,0,10,82.88,375,0,2,54,4,65,-0.66
0.88,5,0.022641,-2.127,0,0,10,82.88,560,3,4,0,1,31,-1.7
1.06,0,0.017057,-1.393,-1,-1,10,82.88,423,2,3,0,2,35,-0.32
0,-3,0.01744719,-2.508,0,0,10,82.88,426,2,3,5,2,47,-2.45
0.96,-2,0.01210715,0.103,-1,1,10,82.88,572,0,0,0,0,0,-0.19
1.16,3,0.02097402,-1.07,0,-4,10,82.88,435,1,0,0,3,0,0.01
0.74,6,0.02099796,-1.696,0,-4,10,82.88,421,1,0,0,3,0,-0.04
0.76,5,0.02105701,-1.672,0,-4,10,82.88,415,1,0,0,3,0,0.11
1.06,3,0.2162042,-0.646,0,-1,10,82.88,102,0,0,0,2,0,0.1
1.02,2,0.07607137,-1.145,0,-1,11,106.51,446,1,0,0,2,0,0
1.02,-5,0.1168096,0.658,0,-3,11,106.51,286,2,6,62,4,118,-0.65
0.88,5,0.1165099,-0.112,0,-2,11,106.51,263,3,2,59,2,105,-0.55
1.06,0,0.132785,0.117,0,1,11,106.51,216,3,1,70,4,103,-0.41
0.71,2,0.1426016,0.17,0,0,11,106.51,146,2,0,49,4,57,-0.24
1.22,9,0.103156,0.541,0,0,11,106.51,315,2,3,48,5,57,-0.9
1.04,-9,0.1023408,-0.922,0,0,11,106.51,317,2,3,54,4,65,-1.02
0.88,5,0.05402132,-1.936,0,-1,11,106.51,572,2,4,0,1,31,-1.24
1.06,0,0.06611715,-1.448,0,-2,11,106.51,436,1,4,0,2,35,-2.02
0,-3,0.06619656,-2.845,0,-1,11,106.51,428,1,3,5,2,47,-5.08
0.96,-2,0.02044629,0.283,0,-1,11,106.51,610,0,0,0,0,0,0
1.16,3,0.05133624,-1.06,0,-3,11,106.51,487,1,0,0,3,0,0
0.74,6,0.05163327,-1.779,0,-2,11,106.51,452,2,0,0,3,0,-0.24
0.76,5,0.05132957,-1.556,0,-3,11,106.51,455,1,0,0,3,0,0
1.06,3,0.2114718,-0.606,0,-1,11,106.51,95,1,0,0,2,0,0
0.71,2,0.1382139,-0.258,0,0,7,74.73,241,0,2,49,4,57,0
1.22,9,0.1111633,-0.352,0,0,7,74.73,409,0,2,48,5,57,0.11
0,-3,0.01742673,-2.776,-1,0,7,74.73,458,2,0,5,2,47,0.15
0.96,-2,0.01210715,0.103,-1,1,7,74.73,572,0,0,0,0,0,0.08
0.71,2,0.1393867,-0.223,0,0,9,68.74,248,1,3,49,4,57,0.17
1.22,9,0.1111633,-0.352,0,0,9,68.74,409,0,2,48,5,57,0.11
0.96,-2,0.01210715,0.103,-1,1,9,68.74,572,0,0,0,0,0,-0.05
1.02,2,0.06426118,-0.421,0,0,8,86.28,276,1,0,0,2,0,-0.21
1.02,-5,0.04570653,0.243,-1,-2,8,86.28,453,0,4,62,4,118,-2.33
0.88,5,0.04509507,-0.279,-1,-2,8,86.28,433,0,4,59,2,105,-0.64
1.06,0,0.06147795,0.693,0,0,8,86.28,130,0,0,70,4,103,-1.01
0.71,2,0.0312437,-0.154,0,0,8,86.28,555,0,2,49,4,57,-1.9
1.22,9,0.04453023,0.213,0,0,8,86.28,325,0,0,48,5,57,-1.5
1.04,-9,0.04437982,-1.219,0,0,8,86.28,374,0,1,54,4,65,-2.22
0.88,5,0.02224491,-1.92,-1,1,8,86.28,779,3,12,0,1,31,-0.23
1.06,0,0.02160527,-1.632,-1,-1,8,86.28,621,1,4,0,2,35,-0.51
0,-3,0.02216533,-2.893,0,0,8,86.28,648,1,4,5,2,47,-2.32
0.96,-2,0.02346882,0.365,-1,0,8,86.28,603,1,0,0,0,0,-0.42
1.16,3,0.03854841,-0.681,0,0,8,86.28,344,0,0,0,3,0,-0.77
0.74,6,0.03871416,-0.945,0,-1,8,86.28,333,0,0,0,3,0,-0.28
0.76,5,0.03859194,-0.958,0,-1,8,86.28,323,0,0,0,3,0,-0.32
1.06,3,0.09718734,-1.188,0,-3,8,86.28,265,0,0,0,2,0,-0.4
1.02,2,0.06827644,-0.519,0,0,11,97.62,315,0,0,0,2,0,0.13
1.02,-5,0.04420138,-0.51,0,-2,11,97.62,552,0,15,62,4,118,-2.15
0.88,5,0.04104471,-0.155,-1,-2,11,97.62,447,0,4,59,2,105,-0.33
1.06,0,0.06210832,0.573,0,0,11,97.62,111,0,0,70,4,103,-0.6
0.71,2,0.0325072,-0.324,0,0,11,97.62,549,1,1,49,4,57,-1.48
1.22,9,0.04035999,-0.052,0,0,11,97.62,359,0,0,48,5,57,-1.27
1.04,-9,0.03964498,-1.402,0,0,11,97.62,377,1,1,54,4,65,-2.36
0.88,5,0.0181983,-1.941,0,-2,11,97.62,771,2,15,0,1,31,-0.28
1.06,0,0.01796351,-1.639,-1,-3,11,97.62,649,1,4,0,2,35,-0.72
0,-3,0.01865818,-2.759,0,-2,11,97.62,624,1,4,5,2,47,-3.75
0.96,-2,0.01759284,0.112,-3,-2,11,97.62,601,0,1,0,0,0,0
1.16,3,0.03625928,-0.832,0,-2,11,97.62,386,0,1,0,3,0,-0.68
0.74,6,0.03653514,-1.146,0,-2,11,97.62,348,0,1,0,3,0,-0.86
0.76,5,0.03627843,-1.047,0,-2,11,97.62,359,0,1,0,3,0,-0.6
1.06,3,0.1029724,-0.891,0,-3,11,97.62,216,0,0,0,2,0,-0.25
1.02,2,0.05753727,-0.527,0,0,10,65.77,323,0,0,0,2,0,0
1.02,-5,0.03547688,0.398,0,-1,10,65.77,393,0,4,62,4,118,-0.58
0.88,5,0.03536405,-0.306,-1,-1,10,65.77,398,0,2,59,2,105,-0.17
1.06,0,0.04397612,0.57,0,0,10,65.77,263,0,0,70,4,103,-0.3
0.71,2,0.02275382,-0.357,0,0,10,65.77,691,1,4,49,4,57,-0.3
1.22,9,0.0296277,-0.643,0,-2,10,65.77,437,0,2,48,5,57,-0.41
1.04,-9,0.02943776,-1.551,0,-2,10,65.77,428,0,2,54,4,65,-1
0.88,5,0.02249447,-1.99,1,-1,10,65.77,771,3,14,0,1,31,-0.17
1.06,0,0.02088222,-1.49,-1,-3,10,65.77,581,2,5,0,2,35,-0.17
0,-3,0.02050133,-2.754,-1,1,10,65.77,584,3,6,5,2,47,-0.41
0.96,-2,0.0199585,-0.022,-1,-3,10,65.77,618,0,1,0,0,0,-0.17
1.16,3,0.03463437,-0.73,0,0,10,65.77,387,0,1,0,3,0,-0.41
0.74,6,0.03462846,-1.035,0,0,10,65.77,376,0,1,0,3,0,-0.77
0.76,5,0.03451613,-0.992,0,0,10,65.77,370,0,1,0,3,0,-0.17
1.06,3,0.030112,-1.244,0,0,10,65.77,374,5,0,0,2,0,-0.17
