ID,actual,fold,predicted,old_ID,error,dist.to_bestfit
102,0.17,7,0.0801333333,102,0.0898666667,0.0414866472
101,0.17,1,0.1249333333,101,0.0450666667,0.0819923254
100,0.77,1,0.1409333333,100,0.6290666667,0.1598772997
99,0.41,1,0.2593333333,99,0.1506666667,0.1009749845
98,0.17,6,0.0405333333,98,0.1294666667,0.005682521
97,0.41,2,0.4458,97,0.0358,0.2695678147
96,0.17,2,0.2634666667,96,0.0934666667,0.207246491
95,0.17,8,0.1929666667,95,0.0229666667,0.1435042966
94,1,3,0.5648666667,94,0.4351333333,0.1251576256
93,0.41,3,0.6018,93,0.1918,0.4106143728
92,0.3,5,0.1763666667,92,0.1236333333,0.0729560428
91,0.3,9,0.3482,91,0.0482,0.2283182236
90,0.17,4,0.2348,90,0.0648,0.1813276791
89,0.58,4,0.5588333333,89,0.0211666667,0.299137777
88,0,10,0.1907,88,0.1907,0.2140834181
87,0.25,7,-0.0994333333,87,0.3494333333,0.1550457104
86,0.6,1,0.2900333333,86,0.3099666667,0.0475591765
85,0.86,1,0.3401,85,0.5199,0.0182522238
84,0.68,1,0.5342,84,0.1458,0.2341430252
83,0,6,0.0485333333,83,0.0485333333,0.0855441938
82,3.75,2,1.3822,82,2.3678,0.3107279052
81,0.72,2,0.6488,81,0.0712,0.320668934
80,0.28,8,0.4870333333,80,0.2070333333,0.3623881639
79,2.36,3,0.7244666667,79,1.6355333333,0.3115690237
78,1.27,3,0.7425333333,78,0.5274666667,0.1704428109
77,1.48,5,0.1593666667,77,1.3206333333,0.4465417617
76,0.6,9,0.2832,76,0.3168,0.0413808551
75,0.33,4,0.5338666667,75,0.2038666667,0.3833709413
74,2.15,4,1.6725,74,0.4775,0.6353077764
73,-0.13,10,0.4577666667,73,0.5877666667,0.5110897567
72,0.4,7,-0.066,72,0.466,0.1889011272
71,0.32,1,0.3900666667,71,0.0700666667,0.257627213
70,0.28,1,0.4229666667,70,0.1429666667,0.3044626331
69,0.77,1,0.5452,69,0.2248,0.205638225
68,0.42,6,0.0395666667,68,0.3804333333,0.1019981266
67,2.32,2,1.6682,67,0.6518,0.5587914386
66,0.51,2,0.8246333333,66,0.3146333333,0.5693652719
65,0.23,8,0.5402333333,65,0.3102333333,0.431849985
64,2.22,3,0.7891333333,64,1.4308666667,0.193289287
63,1.5,3,0.7834333333,63,0.7165666667,0.1091602153
62,1.9,5,0.2568666667,62,1.6431333333,0.5378228201
61,1.01,9,0.4240666667,61,0.5859333333,0.0064182001
60,0.64,4,0.4909666667,60,0.1490333333,0.2121429028
59,2.33,4,1.2855666667,59,1.0444333333,0.2085633098
58,0.21,10,0.3235,58,0.1135,0.2444362428
57,0.05,6,0.0757333333,57,0.0257333333,0.0887755987
56,-0.11,3,0.3447333333,56,0.4547333333,0.4003467472
55,-0.17,5,-0.0135,55,0.1565,0.1020856062
54,-0.08,6,0.0748666667,54,0.1548666667,0.1435314601
53,-0.15,2,0.9154,53,1.0654,0.9334009963
52,-0.11,3,0.1668,52,0.2768,0.2394692842
51,0,5,0.0556666667,51,0.0556666667,0.0919937586
50,0,7,-0.3502333333,50,0.3502333333,0.2749985356
49,0,1,0.5143333333,49,0.5143333333,0.5066947497
48,0.24,1,0.4139666667,48,0.1739666667,0.3134143942
47,0,1,0.6390666667,47,0.6390666667,0.6194717198
46,0,6,0.0751666667,46,0.0751666667,0.1096245783
45,5.08,2,1.5484333333,45,3.5315666667,0.728640265
44,2.02,2,1.0430666667,44,0.9769333333,0.1217484787
43,1.24,8,1.1484666667,43,0.0915333333,0.5502820402
42,1.02,3,0.3243,42,0.6957,0.1008939589
41,0.9,3,0.3445333333,41,0.5554666667,0.031332912
40,0.24,5,0.0268666667,40,0.2131333333,0.0365799815
39,0.41,9,0.2289,39,0.1811,0.0734588504
38,0.55,4,0.8274666667,38,0.2774666667,0.5548379524
37,0.65,4,1.4780333333,37,0.8280333333,1.1003216362
36,0,10,0.5079333333,36,0.5079333333,0.5009082242
35,-0.1,7,-0.4281333333,35,0.3281333333,0.3027087437
34,-0.11,1,0.6717,34,0.7817,0.6959718941
33,0.04,1,0.6162,33,0.5762,0.5817078839
32,-0.01,1,0.7897666667,32,0.7997666667,0.759998577
31,0.19,6,0.0345333333,31,0.1554666667,0.0082868779
30,2.45,2,1.5551666667,30,0.8948333333,0.4010535069
29,0.32,2,1.3219,29,1.0019,1.1001392919
28,1.7,8,0.5383,28,1.1617,0.1979210779
27,0.66,3,0.4399,27,0.2201,0.1574267204
26,0.56,3,0.3694666667,26,0.1905333333,0.1364674587
25,-0.34,5,0.2651,25,0.6051,0.4266088085
24,0.11,9,0.5637,24,0.4537,0.5043344328
23,0.56,4,0.5539333333,23,0.0060666667,0.3032519998
22,1.5,4,1.3737,22,0.1263,0.6428466361
21,0.43,10,0.3536333333,21,0.0763666667,0.1776912892
20,0.05,11,-0.0795,20,0.1295,0.0515777818
19,0.25,7,0.0020333333,19,0.2479666667,0.0633051714
18,0.06,12,0.4997,18,0.4397,0.4678305064
17,0.07,1,0.1250666667,17,0.0550666667,0.1248355345
16,0.1,1,0.0598,16,0.0402,0.0530082332
15,-0.24,6,0.0816333333,15,0.3216333333,0.2180057556
14,0.21,13,-0.0081666667,14,0.2181666667,0.0554383838
13,-1.73,2,-0.1934,13,1.5366,0.605903433
12,-1.27,2,-0.1359333333,12,1.1340666667,0.4613373898
11,-0.45,2,-0.1951666667,11,0.2548333333,0.0574561082
10,-0.88,8,0.0030333333,10,0.8830333333,0.4203649912
9,-0.03,14,0.0583333333,9,0.0883333333,0.1072216078
8,0.3,3,0.1084666667,8,0.1915333333,0.0115646242
7,0.26,3,0.1245,7,0.1355,0.0431501386
6,0.03,5,0.1077666667,6,0.0777666667,0.1262828955
5,0.26,5,0.0581333333,5,0.2018666667,0.0168549249
4,0.27,9,0.2163,4,0.0537,0.1218783475
3,0.32,4,-0.5549333333,3,0.8749333333,0.5967894365
2,0.31,4,-0.7269,2,1.0369,0.7479999043
1,-0.11,10,0.2136,1,0.3236,0.2817832516
