,blind-test,feature_name,training
1,0.411,Inter-Hydro:Neut-9.00,0.378
2,0.616,Acc:Hydro-3.00,0.568
3,0.616,ATP_Inter-Acc:Don-3.00,0.568
4,0.668,ATP_Hydro:Pos-7.00,0.579
5,0.531,KESO980101,0.579
6,0.61,LIG.NUM_DONORS,0.627
7,0.61,Inter-Don:Neg-10.00,0.681
8,0.685,Inter-Aro:Hydro-6.00,0.731
9,0.616,ATP_Neg:Pos-5.00,0.681
10,0.616,ATP_Don:Hydro-2.00,0.681
